<svg xmlns="http://www.w3.org/2000/svg" xmlns:xlink="http://www.w3.org/1999/xlink" width="280" height="220" viewBox="0 0 233 213">
  <defs>
    <style>
      .cls-1 {
        fill: #fff;
        fill-rule: evenodd;
        filter: url(#filter);
      }
    </style>
    <filter id="filter" x="276" y="265" width="233" height="213" filterUnits="userSpaceOnUse">
      <feOffset result="offset" dx="2.121" dy="2.121" in="SourceAlpha"/>
      <feGaussianBlur result="blur" stdDeviation="1"/>
      <feFlood result="flood" flood-opacity="0.2"/>
      <feComposite result="composite" operator="in" in2="blur"/>
      <feBlend result="blend" in="SourceGraphic"/>
    </filter>
  </defs>
  <path class="cls-1" d="M504.641,357.159l-2.758.149,2.7-1.255C505.138,357.01,505.128,356.165,504.641,357.159Zm-4.28,33.492c1.033,0.677.349,0.575,0.611,1.075Zm-1.726-52.568,1.1-.061q-0.781.875-1.565,1.748Zm0.224-6.111,0.612,1.076-1.1.06C498.531,332.73,498.7,332.351,498.859,331.972Zm-1.64,10.622,1.163,1.045A2.1,2.1,0,0,1,497.219,342.594Zm-1.343,16.148-1.162-1.046A2.1,2.1,0,0,1,495.876,358.742Zm-2.057,2.883-1.132-.493L493.178,360l2.207-.119C496.131,361.638,495.893,360.532,493.819,361.625Zm4.5,1.419-7.17.388,1.073-.612,6.067-.329Zm-8.539-25.037c1.684,0.625.66-.06,1.714,1.016C489.811,338.4,490.835,339.082,489.782,338.007Zm-0.835,5.034,0.521-.582q0.321,0.813.641,1.628Zm-4.235,24.065c1.033,0.679.349,0.575,0.611,1.076Q485.017,367.645,484.712,367.106Zm-0.358-6.632,0.492-1.135C485.233,360.514,485.125,359.506,484.354,360.474Zm-1.577-29.3q0.3,0.539.611,1.076l-1.1.06Zm-1.522,12.833,0.492-1.135q0.306,0.537.611,1.075Zm-0.3-26.038c0.556,0.957.546,0.111,0.059,1.105Zm-1.67,10.068,1.014-1.718C481.433,327.11,480.069,327.391,479.289,328.042Zm2.189,30.37-0.06-1.1C481.974,358.263,481.965,357.419,481.478,358.412Zm8.824-.477-1.163-1.046A2.1,2.1,0,0,1,490.3,357.935ZM477.318,373.6l-0.551.03-0.03-.553,2.146-1.225,15.472-.282C490.086,373.741,482.688,371.966,477.318,373.6Zm-1.279-44.277,0.552-.031-1.044,1.166Zm-1.12,30.549,0.611,1.075-1.1.06Zm-0.937-27.666c1.209,0.256-1.073.612-1.073,0.612Zm-0.789-4.393c0.556,0.957.546,0.112,0.059,1.106Zm-1-49.281,0.492-1.135C473.04,278.587,473.146,277.743,472.2,278.536Zm1.588,101.357a2.1,2.1,0,0,1-1.162-1.046Zm-1.372,15.6,1.654-.09C472.76,396.42,473.968,396.061,472.413,395.489Zm4.916,29.667c-1.34-.608-3.648-0.443-6.1-0.224l0.462-1.688C474.578,423.4,475.843,422.613,477.329,425.156Zm-7.032-48.4q-0.246.567-.491,1.135l1.058-.058q-0.073,3.921-.217,7.838l-0.946.54s0.52-.081.932-0.194q-0.079,2.2-.18,4.4c-0.093-.05-0.25-0.14-0.544-0.333,0.179,0.16.359,0.323,0.538,0.484-0.019.4-.03,0.809-0.05,1.213-0.232,4.788-.4,9.668-0.773,14.521a64.425,64.425,0,0,1-3.266,19.151,35.9,35.9,0,0,1-13.748,18.59c-6.858,4.627-15.068,6.55-23.163,7.5-8.717,1.027-17.612,1.271-26.4,1.464a2.1,2.1,0,0,0-1.16-1.042l1.159,1.042-1.52.034c-4.6.1-9.2,0.06-13.779-.165a3.781,3.781,0,0,1,.352-0.165l-1.654.089,0.006,0q-1.044-.06-2.088-0.132a1.437,1.437,0,0,0-.154-0.306l-4.963.269-0.52.242a115.93,115.93,0,0,1-25.04-.754q-1.83-.143-3.648-0.339c-8.815-.971-16.7-4.354-22.846-10.883-0.261-.277-0.513-0.561-0.766-0.845a38.5,38.5,0,0,1-10.173-13.845,56.42,56.42,0,0,1-4.111-19.482l4.921,0.489c-1.06-.957-2.9-1.068-4.942-0.933-0.018-.471-0.033-0.942-0.042-1.413q-0.588-4.287-.866-8.619a8.664,8.664,0,0,0,6.328-.7l-6.354.345q-0.1-1.529-.155-3.06c-0.5-5.732-.433-11.585-0.474-17.2-0.079-10.976.2-22.1,2.079-32.923,0.074-6.667.6-13.471,2.795-19.661L316.4,323q0.216-1.122.432-2.241l-0.519.028a39.61,39.61,0,0,1,3.85-7.039c5.265-9.782,14.911-16.11,26.126-18.335a78.124,78.124,0,0,1,8.409-1.153c0.082-.009.165-0.018,0.245-0.022,3.316-.281,6.648-0.411,9.97-0.5q11.121-.3,22.248-0.277c14.342,0.041,28.814.265,43.1,1.619,6.346,0.6,12.717,1.706,18.409,4.73a36.1,36.1,0,0,1,12.713,12.132c5.355,8,9.469,18.342,8.645,28.206q0.739,11.876.882,23.779,0.078,6.916-.049,13.832C470.676,377.422,470.487,377.088,470.3,376.756ZM313.122,344.239c1.842,0.615.669,1,2.206-.12Zm2.848-19q0.306,0.537.611,1.076l0.492-1.136ZM452.615,438.689l3.309-.179-1.162-1.046-2.177.673Zm-0.119-2.211q-0.507.858-1.013,1.718C452.482,437.277,453.419,437.781,452.5,436.478Zm-0.565-10.5-2.266-.986C450.809,426.074,449.9,425.551,451.931,425.977Zm-1.3,6.722-0.492,1.135C451.251,433.29,450.754,433.812,450.633,432.7Zm-0.686,7.8-2.236-.433C449.024,441.141,448.335,440.952,449.947,440.5Zm-1.385-15.446c-1.574-.758-0.405.106-0.641-1.628l-3.309.179q1.223,2.151,2.444,4.3C448.215,426.7,448.053,427.083,448.562,425.05Zm1.073-.612a2.106,2.106,0,0,0-1.162-1.046Zm-1.192-1.6c-0.785-1.633-.026-0.662-1.192-1.6Zm-1.775,18.389-1.163-1.045-0.492,1.135Zm-2.042-7.1c-1.22-1.647-1.9-1.4-3.979-2l-1.074.613ZM429.69,444.364l-3.89-.344C427.048,445.2,427.993,445.216,429.69,444.364Zm0.433-2.24c-1.054-1.076-.03-0.391-1.714-1.017-0.164.378-.328,0.758-0.492,1.135ZM427.5,434.5l-1.714-1.015C426.84,434.563,425.815,433.879,427.5,434.5Zm-3.831.762c0.487-.994.5-0.148-0.059-1.105Zm-1.192-1.6-2.206.119-0.492,1.135C420.481,434.753,423.79,435.281,422.477,433.668ZM408.539,452.16l-2.266-.986-0.492,1.135Zm-21.985-7.68q-0.306-.537-0.611-1.076l-0.492,1.136Zm-1.327,6.17c-1.142-.826-0.8-0.676-2.817-0.957Zm-0.909-6.6-1.1.06,0.611,1.075Zm-4.606,6.9-1.163-1.046A2.109,2.109,0,0,0,379.712,450.949Zm-2.98-14.252c-1.054-1.076-.03-0.39-1.714-1.016Zm-7.245,9.261-2.3-1.539A4.835,4.835,0,0,0,369.487,445.958Zm-15.561-1.375q-1.208-1.875-2.414-3.75l0.178,3.317Q352.808,444.365,353.926,444.583ZM353,447.958l-0.03-.552c-0.389-2-.808-0.327.432-2.241l-1.654.089-1.014,1.719Zm-4.621-3.63,1.073-.612-1.162-1.046-0.492,1.135Zm-4.263,3c-1.054-1.075-.029-0.391-1.714-1.017Zm-6.781-12.938-1.655.09C337.121,435.307,335.8,435.023,337.337,434.393Zm-1.669-10.441-2.206.119C335.305,424.687,334.132,425.074,335.668,423.952Zm-2.713,11.233c-1.21-.869-1.136-0.8-3.369-0.927l-0.492,1.136Zm-6.216-2.435c-0.261-.5.422-0.4-0.611-1.076Q326.434,432.211,326.739,432.75Zm4.144-5.214-6.647-.195A7.294,7.294,0,0,0,330.883,427.536Zm-1.22-22.661-0.492,1.135C330.119,405.217,330.013,406.061,329.663,404.875Zm-2.623-7.619-3.309.179C325.5,398.273,325.987,398.377,327.04,397.256Zm-3.654,24.588-0.492,1.136C323.881,422.235,323.17,422.469,323.386,421.844Zm-2.757.15-2.7,1.254C320.659,422.98,320.319,422.441,320.629,421.994ZM319.8,365.5l1.163,1.046A2.1,2.1,0,0,0,319.8,365.5Zm1.207,12.13-1.685-.463-0.462,1.688,2.176-.672Zm2.342-28.4a2.11,2.11,0,0,0,1.162,1.046Zm3.818-31.8,1.162,1.046A2.1,2.1,0,0,0,327.165,317.425Zm4.86-12.458,0.149,2.763c1.476-.537,2.869-0.815,3.771-1.867Zm8.9,11.159a2.1,2.1,0,0,0,1.162,1.046Zm25.742-4.719-0.492,1.136,1.043-1.165Zm5.2-16.357,1.162,1.046A2.107,2.107,0,0,0,371.868,295.05Zm41.793,16.032q-0.245.569-.491,1.136l4.382-.792Zm10.524-9.993-2.176.673,0.03,0.552c3.2,0.372,3.6,1,6.037-.881Zm9.257-2.718-3.309.179c-0.213,1.944-.108,1.633.73,3.287,2.947-.294,3.012-0.365,4.323-1.9Zm10.076,2.227c1.777,1.127.707,1.6,2.236,0.433Zm0.573,26.631a27.267,27.267,0,0,0-9.6-9.161c-4.3-2.284-9.11-3.118-13.9-3.572-10.789-1.023-21.717-1.192-32.547-1.223q-8.4-.024-16.8.21c-2.509.068-5.025,0.167-7.529,0.379-0.06,0-.123.01-0.185,0.017a58.829,58.829,0,0,0-6.35.87c-8.469,1.679-15.753,6.458-19.729,13.845a30.131,30.131,0,0,0-3.464,6.716,42.151,42.151,0,0,0-2.176,13.173c-0.083-.269-0.165-0.539-0.248-0.808q0.334,1.092.67,2.182l-0.551.03,0.1,0c0,0.194-.01.391-0.013,0.586a139.732,139.732,0,0,0-1.569,24.86c0,0.23,0,.462,0,0.692l-3.188.173-5.456,1.4c2.606,0.013,6.3.055,8.648-.687,0.008,1.88.014,3.788,0.058,5.7l-3.474-.306q-0.813.32-1.625,0.642l0.03,0.553,5.072-.787c0.044,1.872.125,3.75,0.289,5.609q0.125,3.264.478,6.51-0.937.326-1.875,0.648l3.8-1.314c2.169-.321.085,0.539-1.909,1.018l0.018,0q0.124,1.116.277,2.231a43.578,43.578,0,0,0,3.152,16.114,29.042,29.042,0,0,0,7.59,10.369l-5.255,1.1,5.982-.323a27.016,27.016,0,0,0,17.2,8.16c0.915,0.1,1.833.185,2.754,0.258a87.343,87.343,0,0,0,18.783.573l-0.059-1.106,2.176-.672,1.714,1.016c-1.79-.079-1.556.194-3.829,0.761q1.719-.1,3.429-0.226c4.254,0.331,8.52.423,12.8,0.359a6.507,6.507,0,0,1,.435,1.183l3.309-.179q-0.247-.531-0.493-1.064c6.311-.144,12.688-0.348,18.944-1.085,5.695-.67,11.464-1.978,16.414-4.979l-0.359.827,0.492-1.135c0.023,0.078.042,0.126,0.062,0.188,0.3-.183.592-0.371,0.882-0.567,0.222-.15.435-0.305,0.65-0.46l1.164,0.689,2.206-.119c-1.623,2.186-2.885,2.049.178,3.316,0.778-.738.122-0.349,3.861-0.209l-0.089-1.658c-1.414-.653-1.693-2.1-3-4.272-1.21,1.529-1.62,1.591-3.723,1.8a25.9,25.9,0,0,0,6.837-7.974l3.206,0.283c-1.406-1.553-1.117-1.2-2.627-1.368a32.132,32.132,0,0,0,1.715-4.071c0.006-.016.01-0.031,0.015-0.047,0.715,0.259,1.013.066,2.805-.161l-0.029-.552-2.593.141a49.123,49.123,0,0,0,2.269-13.843c0.28-3.664.408-7.35,0.584-10.965q0.509-10.509.39-21.036-0.1-8.986-.666-17.956C451.241,341.08,448.135,333.274,444.091,327.229Zm7.668-7.121,0.06,1.106C452.306,320.22,452.315,321.065,451.759,320.108Zm1.785,53.674-0.492,1.135C454.162,374.373,453.664,374.894,453.544,373.782Zm-0.895,3.929a2.109,2.109,0,0,0,1.163,1.046ZM452.5,415.968l-0.492,1.135,2.146-1.225Zm-0.046,9.426,0.03,0.553,4.382-.792-2.236-.433Zm2.494-66.655,0.06,1.105C455.493,358.85,455.5,359.7,454.946,358.739Zm0.418-12.772q0.306,0.537.611,1.075C455.714,346.542,456.4,346.645,455.364,345.967Zm-0.6,29.966,0.03,0.553c1.962-.339,1.328-0.256,1.6-1.2Zm1.927-56.646,0.611,1.075C457.042,319.862,457.726,319.965,456.693,319.287Zm-0.2,68.193,0.03,0.553c1.394-.707.9-0.918,1.043-1.165Zm0.1,12.19,1.162,1.046A2.1,2.1,0,0,0,456.6,399.67Zm1.369,25.426,1.074-.613,0.059,1.105,0.984-2.27-2.206.12Zm0.194-6.663,0.06,1.106C458.708,418.545,458.718,419.389,458.161,418.433Zm0.707-79.308,1.714,1.016C459.528,339.066,460.552,339.751,458.868,339.125Zm0.789,4.393c-0.164.378-.328,0.755-0.492,1.135l2.206-.12C460.318,343.458,461.342,344.143,459.657,343.518Zm2.711,29.786-0.492,1.136,1.1-.06Q462.673,373.843,462.368,373.3Zm2.085,18.181-1.162-1.046A2.106,2.106,0,0,0,464.453,391.485Zm-0.833-15.477,1.654-.089-1.162-1.046Zm1-32.76-0.492,1.135,1.1-.059Q464.926,343.787,464.621,343.248Zm0.119,2.211-0.462,1.689,1.565-1.748Zm4.279-12.981-0.492,1.135C469.636,333.07,469.139,333.591,469.019,332.478Zm-20.083,68.716-0.03-.554q0.537-.3,1.074-0.612C449.84,400.275,450.33,400.487,448.936,401.194Zm0.034-60.98c0.539,1.044.027,1.233-.983,2.272Q448.478,341.351,448.97,340.214Zm-0.183,58.216-1.162-1.046A2.1,2.1,0,0,1,448.787,398.43Zm-3.9-51.9,2.236,0.432C446.008,347.188,446.172,347.137,444.886,346.534Zm-3.25,1.284,0.492-1.136,2.877,2.062Zm-0.3-5.527,1.654-.089C441.705,342.919,442.344,343.611,441.339,342.291Zm-0.925,3.376,0.492-1.135,1.655-.09Zm0.149,2.763q-0.8.6-1.595,1.195l0.492-1.135Zm-0.5,12.816q0.554,16.8.246,33.616c-0.154,1.255-.325,2.507-0.5,3.757l-0.448-.788-0.492,1.135,0.9-.048c-0.082.56-.164,1.12-0.251,1.678h0l-1.625.642,0.03,0.552,1.454-.289c-0.206,1.279-.422,2.556-0.66,3.827a21.152,21.152,0,0,1-2.915,7.663l2.717-.147c-1.269,1.084-2.03,1.536-3.224.719,0.028,0.019.058,0.044,0.085,0.062a18.386,18.386,0,0,1-5.055,4.819,25.941,25.941,0,0,1-3.4,1.862l-0.737-.143c0.144,0.119.261,0.219,0.363,0.308q-1.047.462-2.126,0.841,0.069-.254.139-0.507l-1.685-.462q0.357,0.625.712,1.253-1.074.345-2.171,0.624a105.291,105.291,0,0,0-15,.185l-0.024-.062c0.526,1.336.23,0.462-.462,1.688l0.444-1.622q-1.881.126-3.757,0.265l2.15,0.312c-1.548.557-1.463,0.458-2.6-.28q-0.631.047-1.262,0.09a0.057,0.057,0,0,1-.007-0.008c0.093,0.13.21,0.364,0.587,0.929l-0.992-.892c-1.475.1-2.947,0.2-4.413,0.275-4.2.216-8.4,0.377-12.6,0.454l-9.726-.509a106.424,106.424,0,0,1-11.923-.863c-6.523-1.089-11.281-4.9-15.782-9.326a24.611,24.611,0,0,1-2.73-7.6c-1.246-6.208-.97-12.717-1.073-19.015q-0.03-1.887-.062-3.771c1.527-.238,2.925-0.509,3.948-0.661l-3.957.047q-0.032-1.9-.059-3.806a4.751,4.751,0,0,0,2.123-.574l-2.133-.122c-0.066-4.534-.118-9.067-0.114-13.6,0-6.979-.135-14.124,1.465-20.96a29.06,29.06,0,0,1,5.665-12.026c6.387-4.748,15.058-6.19,22.835-6.486,12.123-.463,24.361.048,36.49,0.233,9.023,0.138,19.932.646,25.832,8.6,3.269,4.4,4.6,9.835,5.186,15.395l-0.485,1.118,0.555-.414C439.911,353.292,439.932,357.422,440.058,361.246ZM343.436,393.6l1.163,1.046A2.1,2.1,0,0,0,343.436,393.6Zm2-24.5c-0.357.2-.715,0.408-1.073,0.613l0.03,0.552C345.883,369.8,345.461,370.161,345.435,369.1Zm80.875,22.787c1.394-.706.9-0.919,1.044-1.165q-0.537.306-1.073,0.613Zm0.627-8.9a2.106,2.106,0,0,0-1.162-1.046Zm-5.145,37.973,0.492-1.135-1.1.059Q421.487,420.418,421.792,420.955Zm-0.327-6.08-1.163-1.046-0.492,1.136Zm-2.609,2.913c-0.262-.5.422-0.4-0.611-1.076Zm-2.758.149,1.014-1.718-1.654.09-0.492,1.135Zm-10.448,1.12-3.309.178C404.3,419.973,404,420.088,405.65,419.057Zm-0.06-1.106-3.339-.373C403.511,418.732,403.91,418.711,405.59,417.951Zm-5.335,4.465c-0.137-.066-0.3-0.149-0.523-0.268C399.954,422.268,400.117,422.35,400.255,422.416Zm-2.356-3.494q-0.306-.539-0.611-1.076l-6.618.358C392.628,420.281,396.039,419.906,397.9,418.922Zm7.512-4.287-16.023.313-0.492,1.135C393.456,416.042,404.6,416.769,405.411,414.635Zm-11.789-3.243,0.059,1.105C394.168,411.5,394.178,412.349,393.622,411.392Zm-7.14.941c-0.262-.5.422-0.4-0.611-1.076Q386.176,411.8,386.482,412.333Zm-15.218-5.275-2.206.12C370.9,407.794,369.727,408.181,371.264,407.058Zm3.711-2.972-3.92-.9,3.25-1.284-4.964.267c0.089,1.718.093,0.876-.4,2.794Zm-9.629,6.064c0.487-.993.5-0.149-0.06-1.1Zm-0.357-6.632c-0.262-.5.422-0.4-0.611-1.076Q364.683,402.981,364.989,403.518Zm-2.893,7.917q-0.3-.538-0.611-1.076c-0.163.379-.328,0.757-0.492,1.135Zm-0.849-5.5-2.817-.957-0.462,1.688ZM356.91,397.3l-0.551.03q-0.246.57-.492,1.136ZM355.7,385.173l-0.492,1.135C356.321,385.765,355.824,386.285,355.7,385.173ZM348.7,398.856c-0.261-.5.423-0.4-0.611-1.075Q348.392,398.318,348.7,398.856Zm7.9-17.612-9.957-.016C347.479,382.443,355.193,381.833,356.6,381.244Zm-10.238-36.032q0.582,0.524,1.163,1.045A2.11,2.11,0,0,0,346.361,345.212Zm2.325,2.091-0.551.03,1.162,1.046Q348.992,347.84,348.686,347.3Zm4.845-2.479c1.053,1.075.029,0.39,1.714,1.016Zm2.651,28.682a2.1,2.1,0,0,0,1.162,1.045Zm-3.712,2.973-0.522.582a5.954,5.954,0,0,0,6.1.224ZM365.153,396.3c-1.983.824-5.732,0.636-7.08,2.047C359.015,398.087,367.515,395.918,365.153,396.3Zm-1.893-4.332-1.654.09C363.044,392.884,361.727,392.6,363.26,391.97ZM358.223,380.6l0.06,1.105C358.77,380.714,358.779,381.558,358.223,380.6Zm7.322-38.646A2.1,2.1,0,0,0,366.707,343Zm43.117,5.42c-4.722-2.918-10.3-4.181-15.758-4.738-3.286-.335-6.751-0.523-9.94.512a18.1,18.1,0,0,0-4.422,2.225,30.73,30.73,0,0,0-17.085,20.094,29.991,29.991,0,0,0-.9,6.679l1.048-.6,1.163,1.046-2.211-.428a32.082,32.082,0,0,0,.232,4.967l-2.225-.431c1.31,1.075.628,0.89,2.226,0.436a34.054,34.054,0,0,0,1.317,5.907l-0.458-.413-1.073.613,1.705,0.331c0.243,0.725.506,1.444,0.8,2.152,0.036,0.1.079,0.192,0.116,0.289,0.006,0.013.011,0.027,0.017,0.04,0.125,0.319.251,0.639,0.392,0.955,0.22,0.494.462,0.968,0.721,1.43a35.363,35.363,0,0,0,5.336,7.713l-1.75,0-0.492,1.135,3.012-.323c3.993,4,9.132,5.645,14.52,7.016a19.8,19.8,0,0,0,8.184.6,40.487,40.487,0,0,0,4.7-1.056q0.151-.348.3-0.7l0.512,0.461c1.229-.367,2.447-0.769,3.647-1.185q0.981-.339,1.963-0.716l-0.115.007,0.492-1.136a5.569,5.569,0,0,1,1.6.328l0,0a24.486,24.486,0,0,0,9.557-6.785,27.6,27.6,0,0,0,3.775-7.105c0.478-1.177.949-2.362,1.38-3.561q1.327-.264,2.654-0.528l-0.029-.552-2.206.118-0.1.039a31.671,31.671,0,0,0,1.266-4.869,26.126,26.126,0,0,0-5.838-20.833A20.941,20.941,0,0,0,408.662,347.376ZM424,379.815l-1.654.089C423.785,380.728,422.468,380.444,424,379.815Zm4.062-44.22a5.459,5.459,0,0,0-4.024-1.439,1,1,0,0,0-.418-0.08,8.382,8.382,0,0,0-8.017,9.743,5.679,5.679,0,0,0,4.35,4.531c2.5,0.639,5.594.984,7.856-.5C431.787,345.235,431.389,338.541,428.063,335.6Zm3.2,24.98,1.163,1.046A2.1,2.1,0,0,0,431.261,360.575Zm0.954-2.824c1.287,0.605,1.123.655,2.236,0.434Zm5.381,7.47-2.7,1.255,2.757-.149C438.142,365.333,438.152,366.177,437.6,365.221Zm-0.166,27.726,1.162,1.045A2.1,2.1,0,0,0,437.43,392.947ZM420.7,344.871a4.043,4.043,0,0,0,.535.027,3.97,3.97,0,0,0,.5-0.047c0.026,0.046.05,0.092,0.08,0.135a5.817,5.817,0,0,1-1.189-.05C420.647,344.915,420.671,344.892,420.7,344.871Zm-3.16-3.906c0.007,0.076.014,0.15,0.023,0.226a1.047,1.047,0,0,0-.106.136C417.476,341.206,417.5,341.085,417.535,340.965Zm-1.4,36.5q0.246-.565.492-1.135C416.744,377.447,417.241,376.925,416.131,377.468Zm4.621,3.632c-1.718-.039-6.42.679-8.333-0.659C414.689,380.52,418.691,379.215,420.752,381.1Zm-8.386-17.228c0.006,0.07.01,0.141,0.016,0.211-0.057-.121-0.108-0.245-0.168-0.364C412.264,363.771,412.316,363.821,412.366,363.872Zm-2.587,13.8c-0.116.966-.225,1.956-0.4,2.93l-5.779.312a5,5,0,0,0,5.729-.043,11.34,11.34,0,0,1-.946,2.911,13.621,13.621,0,0,1-4.445,4.715,21.3,21.3,0,0,1-10.5,4.244,20.833,20.833,0,0,1-8.33-1,0.125,0.125,0,0,1-.009-0.012c0.935,1.514-3.544.135-4.151-.169l3.861-.208-0.693.037a18.848,18.848,0,0,1-9-7.087c-0.3-.456-0.573-0.922-0.829-1.4a3.043,3.043,0,0,1-3.251-.786l4.442,0.313-1.481-.1a19.566,19.566,0,0,1-1.731-5.244c2.664,0,4.976-.137,6.163-1.463l-0.551.03L372.242,377a20.678,20.678,0,0,1-.263-5.018,1.827,1.827,0,0,1-1-.941l1.162,1.046-0.164-.148a21.088,21.088,0,0,1,.314-2.345l0.166,0.013a3.752,3.752,0,0,1-2.149-.747c0.919-.031,1.587-0.048,2.132-0.011h0a20.235,20.235,0,0,1,2.762-6.577,22.735,22.735,0,0,1,10.4-8.073,21.587,21.587,0,0,1,16.189,2.409,18.324,18.324,0,0,1,7.018,7.874,16.61,16.61,0,0,1,1.366,6.048l-0.523-.471-0.492,1.135,1.041-.056A45.18,45.18,0,0,1,409.779,377.676Zm-10.044,3.452-5.515.3C395.873,383.034,398.154,382.409,399.735,381.128Zm-21.18-13.267-3.249,1.284q6.051-.6,12.1-1.209Zm1.371,4.914q-2.466.413-4.934,0.822,0.306,0.537.611,1.076l14.31-1.329Zm-1.73,8.964-2.176.672,0.03,0.552,17.648-.954Q385.948,381.873,378.2,381.739Zm14.058-16.283c1.358,1.326,5.295,1.281,7.2.165Q395.853,365.54,392.254,365.456Zm8.018,5.11-2.176.673,0.03,0.552,4.382-.792Zm3.011-5.706-1.073.612c1.591,0.567.576,0.384,1.625-.642Zm-2.025-17.075,0.551-.029-1.043,1.164ZM377.3,356.978L377.344,357c-0.109.1-.221,0.193-0.328,0.293C377.108,357.188,377.2,357.083,377.3,356.978Zm-4.828,6.037,0.049-.066-0.051.1C372.466,363.036,372.467,363.026,372.467,363.015ZM370.821,379.6c-0.025-.042-0.049-0.084-0.074-0.125,0.007-.022.013-0.044,0.019-0.067C370.784,379.471,370.8,379.534,370.821,379.6Zm1.458,5.232q0.536-.308,1.073-0.613C374.56,384.474,372.279,384.831,372.279,384.831Zm-0.746,6.692,4.964-.269A3.5,3.5,0,0,1,371.533,391.523Zm9.644,4.467-2.147,1.225,0.492-1.135Zm2.265,0.986-1.714-1.016C383.413,396.586,382.388,395.9,383.442,396.976Zm1.1-.059-0.059-1.106C385.042,396.768,385.032,395.922,384.545,396.917Zm1.953-2.725a22.621,22.621,0,0,0,3.877.561A12.551,12.551,0,0,1,386.5,394.192Zm3.532,1.873c0.358-.2.716-0.408,1.074-0.612C392.312,395.709,390.03,396.065,390.03,396.065Zm3.2,8.142-1.1.06,0.492-1.136Zm9.227-3.27-3.309.178,1.073-.612Q401.344,400.719,402.461,400.937Zm-34.624-16.421,2.236,0.434-2.728.7Zm0.313-4.451c1.033,0.678.35,0.575,0.611,1.076Q368.457,380.6,368.15,380.065Zm-0.373,3.346-0.059-1.105C368.274,383.262,368.264,382.417,367.777,383.411Zm-2.533-5.96-0.03-.554q1.088-.334,2.176-0.672l2.206-.119C369.343,376.976,369.57,377.4,365.244,377.451Zm2.549-4.019,0.611,1.075-1.1.061Zm-0.119-2.211c0.556,0.957.546,0.112,0.059,1.106Zm-3.309.179c2.028,0.425,1.121-.1,2.266.987l-3.339-.374Zm-1.938,5.094,2.236,0.433C363.051,377.384,363.739,377.572,362.427,376.494Zm4.247,6.976-3.338-.373c0.357-.2.715-0.408,1.073-0.612C366.437,382.909,365.53,382.388,366.674,383.47Zm-25.9-29.087-1.163-1.045A2.107,2.107,0,0,1,340.771,354.383Zm-2.43,6.23,1.133,0.493-1.044,1.165ZM337.31,392.82l-0.03-.553,1.074-.612C338.214,391.9,338.7,392.113,337.31,392.82Zm-0.7-23.244c0.559,1.1.659,0.686-.492,1.135Zm27.541,59.487-13.817.193-0.03-.553,1.073-.612C355.507,428.315,362.1,427.734,364.152,429.063Zm4.442,0.314-1.163-1.047A2.11,2.11,0,0,1,368.594,429.377Zm7.661-1.524c-0.644,2.077-.933,2.379-2.578,3.466l-0.239-4.422,3.891,0.344Zm2.177-.672,0.611,1.075-1.1.061Q378.186,427.747,378.432,427.181Zm0.238,4.422c-1.685-.626-0.66.059-1.714-1.016C378.641,431.213,377.616,430.528,378.67,431.6Zm0.865-4.481,1.162,1.045A2.1,2.1,0,0,1,379.535,427.122Zm12.8,1.524c-1.049,1.026-.033,1.209-1.624.642l1.073-.612Zm0.895-3.929-1.714-1.015C393.2,424.327,392.179,423.642,393.233,424.717Zm0.3,5.527-0.611-1.075,1.1-.06Zm1.357-5.615-1.163-1.047A2.106,2.106,0,0,1,394.888,424.629Zm0.491-1.137c1.034,0.679.35,0.576,0.611,1.076Zm-0.775,6.141,1.654-.091C394.97,430.26,395.609,430.952,394.6,429.633Zm2.146-1.225,3.861-.21C399.534,429.324,398.352,430.007,396.75,428.408Zm8.7-2.689-0.059-1.105C405.952,425.57,405.942,424.726,405.455,425.719Zm1.982,5.99c-2.464.053-1.238,0.641-2.787-.4l2.758-.149Zm2.236,0.434-0.611-1.075,1.1-.06Zm2.206-.119-1.162-1.046A2.106,2.106,0,0,1,411.879,432.024Zm2.43-6.229-1.043,1.165,0.492-1.136Zm8.451,2.868q-1.9.658-3.8,1.315l0.492-1.136Zm1.074-.612-0.03-.553,1.073-.612C424.738,427.132,425.227,427.344,423.834,428.051Zm4.963-.268c2.387,0.007,2.661-.006,3.92.9C430.281,428.723,430.007,428.894,428.8,427.783Zm4.412-.24,2.236,0.434C433.833,428.433,434.522,428.621,433.209,427.543Zm0.865-4.48c-2.32-.849-1.393.108-1.222-2.152l4.934-.822c-0.6,2.337-.191,1.768-2.058,2.883l0.463-1.687C434.649,422.379,435.062,420.783,434.074,423.063Zm2.46-5.677,1.654-.09C436.9,418.014,437.539,418.706,436.534,417.386Zm4.2-4.108c-1.733-.216-0.329.641-1.684-0.463l1.655-.09Zm2.325,2.092c-0.892,1.944-.434.253,0.149,2.764l-2.757.148,0.954-2.823Zm-0.8-35.435L441.1,378.89l4.412-.238Zm2.817,0.957c-1.533.629-.216,0.914-1.654,0.089Zm-4.07,16.85,3.339,0.373-3.831.763Zm1.907,14.864,3.309-.179-3.8,1.314Zm23.154-93.827c1.821,0.493,1.554-.167,2.817.957l-2.757.149Zm-3.454-43.605c1.033,0.678.349,0.575,0.611,1.076Zm-2.192,10.651c0.556,0.957.546,0.112,0.059,1.106Zm-5.351-6.917,1.1-.06-0.492,1.136Zm-9.137,4.929c2.122-.269.69,0.432,2.176-0.672l1.744,1.569-2.758.149Zm-10.017-1.121c1.364,0.524,1.905.541,2.847,1.509C437.4,283.7,436.859,283.684,435.917,282.716Zm1.03-11.7,1.1-.06-0.492,1.135ZM435.516,265l0.611,1.076-1.1.059Zm-3.831.761c0.556,0.958.547,0.112,0.06,1.106Zm1.61,9.337,1.073-.612C435.576,274.741,433.3,275.1,433.3,275.1Zm0.491-1.135q-0.6-.8-1.192-1.6C433.761,273.3,433,272.329,433.786,273.962Zm-1.952-5.438c1.788,1.129,2.191.726,3.95,1.45l-3.8,1.314-1.714-1.016C432.442,269.393,430.83,270.276,431.834,268.524Zm-2.162,11.2-1.162-1.046A2.106,2.106,0,0,1,429.672,279.728Zm-2.876-2.062,0.551-.03q0.306,0.538.611,1.076l-1.654.09Zm-1.447,3.958,0.492-1.135,0.611,1.076Zm-4.545-12.5,0.552-.03-1.044,1.165ZM420.445,283c-1.307,1.02-.1.662-1.654,0.089Zm-1.535,2.3c1.033,0.678.35,0.575,0.611,1.076Zm-8.525-14.506c0.556,0.957.547,0.112,0.06,1.106Zm-4.86,12.458-1.162-1.045A2.1,2.1,0,0,1,405.525,283.251Zm-20.9,2.24,1.162,1.046A2.1,2.1,0,0,1,384.628,285.491Zm-2.445-4.3,2.236,0.434C382.908,282.161,383.489,281.963,382.183,281.188Zm-2.608,2.913,4.531,1.973C381.614,285.777,380.859,285.693,379.575,284.1Zm2.519-4.571c0.556,0.957.546,0.112,0.06,1.106Zm-3.384,9.053c0.556,0.956.546,0.111,0.059,1.1Zm-0.536-9.949,0.551-.03-0.462,1.688Zm-1.64,10.621c1.182,1.019.61,0.161,1.222,2.151l-1.1.06Zm-0.1-12.19c1.188,1.05.814,0.5,1.252,2.7l-0.552.03Q376.78,278.431,376.43,277.065Zm-0.6,9.456,0.492-1.135q0.306,0.537.611,1.076Zm-0.924,3.376,0.492-1.135,0.551-.03Zm-3.115-6.483,3.89,0.344-7.691.97Zm0.18-17.194,0.611,1.076-1.1.059Zm-2.281,8.992,1.163,1.046A2.1,2.1,0,0,1,369.693,275.212Zm-3.19,2.39,3.339,0.374C368.138,278.706,367.852,278.53,366.5,277.6Zm-0.269,15.536L366.726,292C367.076,293.189,367.182,292.345,366.234,293.138Zm-9.107-15.028,2.758-.15C358.5,279.039,359.045,278.792,357.127,278.11Zm-3.428-2.032,2.236,0.432,0.03,0.554q-1.9.655-3.8,1.314Q352.932,277.227,353.7,276.078Zm-3.1,4.048,1.162,1.045A2.1,2.1,0,0,1,350.6,280.126Zm-17.529,3.166c0.556,0.956.546,0.111,0.059,1.105Zm-1.163-1.046c0.556,0.956.547,0.111,0.06,1.105Zm-1.133-.494-1.162-1.045A2.1,2.1,0,0,1,330.774,281.752Zm-8.407,8.216,1.163,1.045A2.1,2.1,0,0,1,322.367,289.968Zm-2.652-8.171c0.556,0.956.546,0.111,0.059,1.1Zm-2.817-.957-1.163-1.045A2.1,2.1,0,0,1,316.9,280.84Zm-1.671,10.068-1.162-1.045A2.1,2.1,0,0,1,315.227,290.908Zm-4.039-3.107,2.206-.119-1.043,1.165Zm-2.358,38.377-0.029-.553,1.624-.642,1.655-.09C310.978,325.88,311.041,325.833,308.83,326.178Zm0-41.021,1.1-.06-0.492,1.135Zm0.085,63.189-0.611-1.075,1.1-.06Zm-3.832,21.272,0.492-1.135,2.206-.119C306.744,369.305,307.071,369.154,305.086,369.618Zm-0.327-6.08,2.757-.149C305.956,364.628,306.6,364.333,304.759,363.538Zm1.47,78.636,1.1-.059-1.625.642-1.163-1.046,0.522-.582Zm-3.41-53.031,1.655-.09C302.94,389.682,304.258,389.967,302.819,389.143ZM302.1,283.3c0.556,0.957.547,0.112,0.06,1.106Zm-0.931,105.928c0.556,0.957.546,0.111,0.059,1.106Zm-5.1-12.474,2.176-.672a2.1,2.1,0,0,1,1.163,1.046l-3.309.179Zm2.046-54.435-1.655.089-0.089-1.658,2.757-.149,0.03,0.553A2.1,2.1,0,0,0,298.114,322.323Zm-4.962-20.242,0.551-.03-1.043,1.166Zm-5.68,7.514,1.073-.613,3.891,0.344-2.7,1.255Zm-8.9,70.882q3-.717,6.007-1.434l1.654-.09C283.711,381.637,282.987,380.575,278.569,380.477Zm-1.8-2.674,2.176-.672q0.582,0.522,1.163,1.045l-3.309.179Zm-0.772-34.882,2.787,0.4C277.213,344.328,277.923,344.105,275.993,342.921Zm10.146,54.885-3.92-.9C284.956,396.946,284.891,396.625,286.139,397.806ZM302.3,410.235l1.654-.089C302.417,410.775,303.734,411.059,302.3,410.235Zm1.13,41.514,2.236,0.434C304.15,452.723,304.732,452.524,303.426,451.749Zm8.808,9.5-1.162-1.046A2.106,2.106,0,0,1,312.234,461.251Zm2.252-9.546q-0.858-.507-1.714-1.016C314.456,451.315,313.432,450.63,314.486,451.705Zm7.989,4.557-1.044,1.165,0.492-1.135Zm7.229,0.718-2.206.119,0.492-1.135Zm1.237-7.828,1.193,1.6C330.967,449.814,331.726,450.785,330.941,449.152Zm3.488,3.137-1.043,1.165,0.492-1.135Zm2.966,3.72-1.1.06,0.492-1.135Zm7.721-.417c-2.677.233-1.953,0.676-3.339-.374l3.309-.179Zm21.777,3.81,1.654-.089C367.014,459.942,368.331,460.227,366.893,459.4Zm2.757-.148,2.206-.12C370.32,460.256,371.493,459.869,369.65,459.254Zm5.156,13.579L373.763,474l0.492-1.136Zm4.13-15.745-1.162-1.046A2.1,2.1,0,0,1,378.936,457.088Zm3.861-.209-2.236-.433q0.537-.306,1.073-0.613Zm-0.508,11.114-0.029-.553,1.073-.612C383.193,467.075,383.683,467.287,382.289,467.993Zm2.266,0.986,0.03,0.553-1.074.612-0.611-1.075,0.522-.583Zm0.94-13.355,1.714,1.017C385.524,456.014,386.549,456.7,385.5,455.624Zm3.831-.761,0.089,1.658c-1.685-.626-0.66.059-1.714-1.016l1.073-.612Zm6.155,1.33-1.1.06q0.244-.568.491-1.136Q395.176,455.655,395.481,456.193Zm16.738,12.953-0.119-2.211q0.336,1.09.671,2.18Zm34.432,2.571-1.044,1.165,0.492-1.135Zm0.239-16.088c-0.216.625,0.5,0.391-.492,1.135Zm6.5-2.569c-1.733-.216-0.329.64-1.684-0.463l1.655-.09Zm0.282,15.506-1.043,1.165,0.492-1.135Zm2.1-12.309-0.089-1.659,2.235,0.434Zm7.973,14.535-1.043,1.165,0.492-1.135Zm1.924-15.625,0.492-1.136C466.284,455.145,466.781,454.623,465.671,455.167Zm8.558-25.962c-2.4.568-1.691-.25-2.147,1.224-2.254-.64-0.557.064-1.744-1.568l-2.668,1.807-1.133-.493-0.089-1.658C468.1,428.553,472.387,427.914,474.229,429.205Zm-1,32.76,1.1-.06a4.033,4.033,0,0,1-1.565,1.747Zm2.533,5.96c-2.4.568-1.69-.25-2.146,1.225l-2.877-2.062C473.353,466.934,474.407,466.954,475.761,467.925Zm1.357-5.616,3.339,0.373a3.413,3.413,0,0,1-4.412.239l1.133,0.493ZM480.7,467.1l-2.728.7,0.492-1.134Zm-2.322-43.113,1.162,1.047A2.108,2.108,0,0,1,478.373,423.991ZM475.5,442.44l0.492-1.135,1.162,1.045Zm-0.223-14.4,3.339,0.375-3.831.76Zm5.534-51.3-6.037.881-0.03-.553,2.176-.672Zm-4.815,3.032,3.8-1.315C482.73,378.024,477.865,379.76,475.991,379.774Zm-1.327,6.169,5.515-.3A5.324,5.324,0,0,1,474.664,385.943Zm10.089,33.269c-2.291-.429-6.778.109-8.362-1.211C478.9,418.118,483.085,418.076,484.753,419.212Zm2.325,2.091-1.044,1.165-1.192-1.6,2.206-.119Zm3.381,31.969-4.5-1.419,3.339,0.373Zm1.863,3.779-0.03-.553q0.813-.319,1.625-0.642C493.7,456.19,494.234,456.494,492.322,457.051Zm-1.905-35.374,0.492-1.135,0.551-.03Zm0.134-7.768,0.611,1.075-1.714-1.015,0.522-.583C490.7,413.659,490.387,413.156,490.551,413.909Zm-0.937-27.666,1.163,1.045-1.655.09Zm-3.4-1.479,4.963-.268C489.273,385.643,487.437,385.777,486.216,384.764Zm4.084-6.318c-3.06.533-3.763,1.082-4.993-.285l4.964-.269Zm-3.265,11.262-1.162-1.046A2.107,2.107,0,0,1,487.035,389.708Zm-2.116,1.778,1.654-.089C485.266,392.417,486.474,392.058,484.919,391.486ZM484.634,417l0.462-1.688C485.622,416.648,485.326,415.774,484.634,417Zm0.523-21.093-1.714-1.016C485.128,395.518,484.1,394.833,485.157,395.908Zm8.747,28.906,1.1-.059c-1.172,1.9,2.559,1,4.472.867-2.606,2.16-6.21,1.157-11.552,1.178C489.678,426.026,492.7,426.066,493.9,424.814Zm-0.67-2.181,1.654-.089,0.03,0.553C493.185,422.881,494.589,423.737,493.234,422.633Zm2.744-31.191,2.236,0.433C496.075,391.837,497.575,392.38,495.978,391.442Zm1.73-8.963-1.1.06L497.1,381.4Zm0.1,12.19-2.177.672-1.684-.463,0.492-1.135,3.339,0.373Zm-0.477-8.844c-1.076,1.217-1.374,1.121-3.8,1.315l-0.029-.553,1.624-.642Zm-4.8-6.947,0.492-1.135,1.655-.089Q493.609,378.266,492.536,378.878Zm0.984-2.27,1.014-1.718C494.3,376.006,495.2,375.533,493.52,376.608Zm-1.075,21.123,3.25-1.285c2.436-.044,2.71-0.215,3.92.9Zm6.382-25.29c1.033,0.677.349,0.575,0.611,1.075Zm-0.7,58.8-0.03-.553,1.625-.642C499.333,430.738,500.054,430.756,498.122,431.238Z" transform="translate(-276 -265)"/>
</svg>
