<svg xmlns="http://www.w3.org/2000/svg" xmlns:xlink="http://www.w3.org/1999/xlink" width="1167" height="917" viewBox="0 0 1167 917">
  <defs>
    <style>
      .cls-1 {
        fill: #fff;
        fill-rule: evenodd;
        filter: url(#filter);
      }
    </style>
    <filter id="filter" x="5" y="-5" width="1146" height="853" filterUnits="userSpaceOnUse">
      <feOffset result="offset" dx="9.192" dy="9.192" in="SourceAlpha"/>
      <feGaussianBlur result="blur" stdDeviation="4.583"/>
      <feFlood result="flood" flood-opacity="0.16"/>
      <feComposite result="composite" operator="in" in2="blur"/>
      <feBlend result="blend" in="SourceGraphic"/>
    </filter>
  </defs>
  <path id="Отзывы" class="cls-1" d="M1072.85,665.952q2.145-6.428,4.3-12.853h-4.3v12.853Zm47.25-137.119c-5.97-8.236-.43-2.558-8.59-8.568Q1115.815,524.554,1120.1,528.833ZM965.452,126.052v8.57C969.65,127.138,969.374,133.675,965.452,126.052Zm-8.592,51.421c23.193-7.022,20.892-6.359,30.073-17.147h-8.592v8.568C963.074,169.245,967.331,160.149,956.86,177.473Zm4.3,389.926c7.7-5.726,6.526.753,4.3-8.568Q963.309,563.12,961.156,567.4Zm60.144-85.7h-17.18C1016.13,491.022,1009.22,491.491,1021.3,481.7ZM939.68,10.355v8.568C943.872,11.449,943.6,17.985,939.68,10.355ZM802.208,207.46l-4.294,8.57C806.76,212.3,802.682,216.119,802.208,207.46Zm257.752,227.1q-4.29-4.275-8.59-8.568C1057.35,434.233,1051.81,428.563,1059.96,434.564ZM918.2,138.907q-6.442-4.289-12.889-8.568C913.047,139.084,905.376,133.359,918.2,138.907Zm4.3,29.987q6.446,4.288,12.889,8.579C927.648,168.719,935.321,174.444,922.494,168.894Zm-42.958-38.555q8.591,4.275,17.184,8.568,2.148-6.427,4.3-12.855h-8.592Q885.98,128.191,879.536,130.339Zm34.366,64.27q-4.292,6.424-8.594,12.851C918.8,199.856,911.652,203.137,913.9,194.609ZM922.494,6.072l4.3,8.568C924.969,10.664,930.233,11.742,922.494,6.072ZM260.928,545.98c4.2-7.484,16.807-.95,12.889-8.57Zm-51.55,59.985h-4.3q-2.145,4.288-4.295,8.568Zm64.439-17.136q-17.185-8.577-34.37-17.145C248.76,584.529,254.59,585.484,273.817,588.829ZM183.6,661.667c-5.982-8.235-.434-2.567-8.592-8.568Q179.3,657.389,183.6,661.667Zm60.144-531.328c7.732,8.745.064,3.02,12.885,8.568C248.9,130.152,256.569,135.878,243.748,130.339Zm21.477,0-4.3,8.568c17.316-1.734,16.807-1.4,25.778-8.568H265.225Zm12.889,137.118-4.3-8.577-4.3,8.577h8.592Zm0,287.091q-8.59-2.139-17.186-4.285C270.751,556.8,266.149,558.086,278.114,554.548ZM59.026,503.128q-8.6-2.149-17.186-4.283-6.443,8.563-12.889,17.136,15.035-4.289,30.074-8.568v-4.285ZM50.434,220.315q-2.153,4.288-4.3,8.576h8.592Q52.578,224.6,50.434,220.315ZM16.063,528.833c5.984,8.244.44,2.567,8.594,8.577Q20.364,533.122,16.063,528.833Zm163.246,34.283q-15.034,4.285-30.074,8.568,30.076-2.139,60.144-4.285Q194.344,565.26,179.308,563.116ZM785.026,216.03q4.3-2.139,8.594-4.285-4.3-4.275-8.594-8.568V216.03ZM316.775,121.76c-5.979-8.234-.434-2.558-8.592-8.568Q312.476,117.481,316.775,121.76ZM243.748,541.7c-1.913,35.731-9.051-50.051-21.481-12.862h8.592ZM217.97,515.981c1.64,8.171,1.854,9.257,4.3,21.429h17.18C242.637,559.438,186.723,485.376,217.97,515.981Zm12.889,98.552c4.2-7.474,3.918-.938,0-8.568v8.568Zm210.5-548.475q10.743,2.153,21.48,4.285-4.291-2.139-8.591-4.285l-4.3-4.283Q445.657,63.913,441.355,66.058Zm-51.55,137.12q4.3-4.276,8.592-8.568l-4.3-4.285Q391.955,196.752,389.805,203.177ZM213.675,627.393h8.592c-3.917-15.645.161-8.761-8.592-17.143v17.143ZM553.049,121.76H540.16C552,126.839,542.469,129.107,553.049,121.76Zm-17.184,30c-5.98,8.237-.436,2.567-8.594,8.568q6.446,4.289,12.889,8.568h12.889q4.292-6.414,8.594-12.851c-16.932.9-10.684,7.1-21.483-4.285h-4.295ZM398.4,224.608v8.568C402.594,225.7,402.318,232.226,398.4,224.608Zm-12.886-34.284H359.735l4.3,8.568C381.259,196.416,376.879,199.088,385.511,190.324Zm-176.133,398.5h8.592q-2.145-4.288-4.295-8.57Q211.527,584.537,209.378,588.829ZM355.439,117.477h-4.3v12.862Q353.289,123.909,355.439,117.477Zm-25.775,30h-4.295q-4.3,2.139-8.594,4.283C328.9,156.8,321.088,154.964,329.664,147.475Zm-21.481,51.417c15.214-2.914,9.618-3.359,12.889-8.568q-6.446,2.139-12.889,4.285v4.283Zm438.181,531.34q-8.589-2.149-17.185-4.285C742.511,735.4,734,738.613,746.364,730.232Zm4.3-544.191,4.3,8.568C753.135,190.633,758.4,191.71,750.661,186.041ZM570.235,23.208c15.683-3.9,8.781.162,17.18-8.568H574.526ZM93.392,258.88l-4.3,8.577q4.292-4.288,8.588-8.577H93.392Zm-4.3,257.1H67.614C82.225,522.054,77.9,523.739,89.1,515.981Zm38.66,261.385q-2.144,4.275-4.294,8.568l8.592-8.568h-4.3Zm12.89-518.486q4.292-4.278,8.588-8.568h-4.292ZM166.42,520.265q-12.882-2.139-25.774-4.284C150.728,523.715,152.883,525.2,166.42,520.265Zm30.069-389.926c9.747,8.876,4.474,7.135,17.186,4.283Q205.085,132.472,196.489,130.339ZM192.2,177.473l-17.186-8.579C183.147,180.582,176.135,171.147,192.2,177.473Zm-17.186,329.94q-4.293-4.289-8.592-8.568C172.4,507.079,166.854,501.4,175.012,507.413Zm4.3-317.089c12,7.913.586,3.094,17.181,4.285Q187.9,192.47,179.308,190.324Zm4.3,248.525H192.2l-4.3-8.568ZM136.35,627.393q-2.146,4.278-4.3,8.57C139.753,630.229,138.574,636.708,136.35,627.393ZM535.865,224.608q-6.441,8.562-12.886,17.136c8.151-5.881,7.029-4.173,12.886-12.853q4.3-2.151,8.592-4.283h-8.592Zm-4.294-21.431q8.586,2.151,17.183,4.283c5.892-9.192,7.829-2.306,4.295-12.851C543.9,200.593,542.643,197.638,531.571,203.177Zm17.183,21.431v12.851h8.592C551.935,224.51,557.424,232.333,548.754,224.608ZM608.9,725.947q-15.033-2.149-30.073-4.292-8.584,2.153-17.18,4.292v4.285C586.317,734.443,589.174,739.5,608.9,725.947ZM488.613,803.07q17.181-2.138,34.366-4.285-15.035-2.136-30.072-4.283Q490.759,798.791,488.613,803.07Zm38.658-612.746H501.5q2.145,6.428,4.295,12.853C519.229,197.023,520.186,201.323,527.271,190.324Zm47.255,12.853v4.283q19.334-2.136,38.667-4.283c-15.422-3.093-12.347-2.988-21.481-8.568C583.577,206.3,590.59,196.861,574.526,203.177ZM604.6,241.744q8.59-2.139,17.184-4.285-8.6-2.136-17.184-4.283v8.568Zm-42.958-111.4c15.683-3.914,8.781.161,17.18-8.579H565.938Zm25.772,12.851v21.421h4.3Q589.564,153.909,587.415,143.19Zm34.37-128.55,4.293-8.568h-8.593Zm25.774,188.537-4.3,8.568q6.446-4.275,12.889-8.568h-8.592Zm42.958,38.567c4.2-7.477,3.92-.941,0-8.568v8.568Zm4.295-55.7-4.295,8.568h12.889Q699.109,190.32,694.812,186.041ZM454.244,246.027c8.845-3.733,4.766.09,4.3-8.568Zm12.889-17.136-12.889-8.576C461.979,229.068,454.311,223.352,467.133,228.891ZM638.649,207.1q-93.592-.726-187.187-1.458c-49.227-.38-105.158-8.424-153.483,2.891-44.991,10.529-54.685,42.1-54.771,84.332-0.121,61.841.145,123.69,0.22,185.541q0.029,25.194.059,50.382c1.5,1.919,1.569.616,0,2.593,0.006,2.55.006,5.108,0.013,7.668l15.279,3.814c-11.1,3.28-7.962,2.4-15.279-2.957q0.018,15.891.036,31.772,5.471,2.733,10.948,5.459c-4.253-.737-7.818-1.361-10.944-2.017q0,3.827.007,7.654c0.036,27.341-5.074,60.578,3.53,87.012,5.814,17.866,19.98,26.912,37.678,30.523,30.18,6.172,62.415,7.2,93.348,9.946q-2.5,46.673-4.988,93.345c-0.723,13.518,16.433,18.628,25.385,10.489a1312.177,1312.177,0,0,0,107.635-110.07c22.866-2.194,46.551-3.256,69.678-5.96q14.994,0.546,29.989,1c0.214-1.694.527-3.692,0.945-6.221h25.774l7.209,7.192q52.523,1.35,105.066,1.677,40.778,0.219,81.562-.186c19.019-.194,40.512,1.457,58.657-5.848,37.947-15.281,29.69-60.14,30.144-93.522,1.451-106.71,8.265-214.884,4.262-321.511-1.286-34.274-14.162-62.675-50.191-70.661-29.015-6.431-61.93-4.3-93.5-2.057C730.04,207.47,684.335,207.453,638.649,207.1ZM250.19,255.762l4.3-8.568,4.295,8.568H250.19Zm8.592,317.087q4.293,4.288,8.589,8.57C259.217,575.418,264.763,581.085,258.782,572.849Zm614.311-38.564q-2.145-4.278-4.3-8.568C876.535,531.392,871.27,530.308,873.093,534.285Zm-25.778,72.847c3.922,7.619,4.2,1.092,0,8.568v-8.568ZM671.186,221.481c3.921,7.629,4.2,1.093,0,8.575v-8.575Zm-21.478,214.25L654,444.3h-8.594ZM654,251.479c3.92,7.628,4.2,1.091,0,8.568v-8.568ZM611.042,302.9q-4.29-4.275-8.592-8.568C610.608,300.329,605.063,294.659,611.042,302.9Zm-25.773-81.415q8.591,2.149,17.181,4.292-8.585,2.136-17.181,4.283v-8.575ZM447.8,217.2c-12.825-5.539-5.154.188-12.889-8.568Q441.358,212.916,447.8,217.2Zm-8.592,8.577c0.471,8.649,4.549,4.826-4.3,8.568Zm-8.592,21.421c3.92,7.628,4.2,1.093,0,8.568v-8.568Zm-51.552-34.281c3.922,7.629,4.2,1.091,0,8.568v-8.568Zm34.37,342.8c8.154,6,2.609.333,8.589,8.568Q417.725,560,413.435,555.713ZM440.477,465.6c-6.762,20.984-29.942,33.035-51.2,30.963-23.279-2.285-40.67-21.373-39.42-44.964,1.3-24.6,19.239-44.13,43.583-46.956a12.086,12.086,0,0,1,9.41,3.408c0.475,0.024.941,0.007,1.418,0.05C431.55,410.642,448.663,440.193,440.477,465.6ZM452.1,478.582v-8.568C456.014,477.64,456.29,471.106,452.1,478.582ZM464.987,302.9c8.154,6.01,2.608.331,8.588,8.568Q469.278,307.189,464.987,302.9Zm38.661-72.84q6.441-8.574,12.886-17.143h8.592q-4.3,2.149-8.592,4.283C510.676,225.887,511.8,224.168,503.648,230.056ZM529.422,594.27q-2.147-4.275-4.3-8.568C532.864,591.38,527.6,590.294,529.422,594.27Zm-4.3-25.7h12.888C527.435,575.911,536.967,573.643,525.126,568.566Zm4.3-342.793v-12.86c8.672,7.733,3.181-.1,8.592,12.86h-8.592ZM576.678,560q2.144-4.288,4.294-8.568,2.148,4.275,4.3,8.568h-8.591Zm8.591-21.428q2.145-4.275,4.3-8.568h4.292q2.153,4.289,4.3,8.568H585.269Zm17.181,0c8.158,6.008,2.613.332,8.592,8.577Q606.752,542.856,602.45,538.568Zm15.593-56.763c-6.071,10.122-16.225,15.962-27.066,17.55a34.041,34.041,0,0,1-7.1,2.68c-15.332,3.67-31.616-4.074-40.322-16.717a45.014,45.014,0,0,1-7.538-21.881q-3.3,3.281-6.592,6.577l4.3-8.569h2.166C535.3,448,540.042,434.217,549.5,424.91a34.455,34.455,0,0,1,15.221-9.41c13.3-4.106,29.013-1.109,39.464,8.2a34.244,34.244,0,0,1,8.585,12.18,36.106,36.106,0,0,1,6.865,9.16v-5.028c3.569,6.948,4.105,2.17,1,6.924A35.094,35.094,0,0,1,623.521,464c10.312,6.366,14.228,4.624,26.187,10.294q-15.035,4.29-30.072,8.569C619.1,482.516,618.576,482.16,618.043,481.805Zm14.481,22.489q-4.3-6.424-8.593-12.86C632.6,499.167,627.114,491.336,632.524,504.294Zm-4.3,8.568q4.292-2.149,8.592-4.283C646.1,511.056,628.228,512.862,628.228,512.862ZM658.3,572.849c10.371,4.625,14.566,4.981,21.478,12.853C669.4,581.079,665.205,580.73,658.3,572.849Zm4.294-81.415q-2.148-4.275-4.294-8.568h8.589Q664.744,487.155,662.594,491.434Zm30.069-209.959,4.3-8.568h4.295Q696.964,277.182,692.663,281.475Zm21.481,64.273v-4.285q4.3-2.139,8.594-4.284C721.551,339.025,725.266,340.872,714.144,345.748ZM744.213,594.27q-4.288-4.275-8.592-8.568c16.6-1.189,5.181,3.637,17.186-4.283q6.444,6.424,12.889,12.851H744.213ZM812.949,560q-2.145-4.288-4.295-8.568h8.592Q815.094,555.7,812.949,560ZM787.26,491.467c-21.427,18.4-55.685,17.145-70.164-9.135-12.56-22.8-5.263-55.056,18.538-67.292a14.305,14.305,0,0,1,12.852-.455,40.044,40.044,0,0,1,31.624,2.68C808.729,432.758,811.29,470.831,787.26,491.467Z"/>
</svg>
