<?xml version="1.0" encoding="utf-8"?>
<!-- Generator: Adobe Illustrator 19.2.1, SVG Export Plug-In . SVG Version: 6.00 Build 0)  -->
<svg version="1.1" id="Layer_1" xmlns="http://www.w3.org/2000/svg" xmlns:xlink="http://www.w3.org/1999/xlink" x="0px" y="0px"
	 viewBox="0 0 220 220" style="enable-background:new 0 0 220 220;" xml:space="preserve">
<style type="text/css">
	.st0{fill:#087498;}
</style>
<g>
	<g>
		<path class="st0" d="M15.1,57.2l12.2,8.4l1.4-2.1l-10.5-7.2l3.7-5.4l10.5,7.2l1.4-2.1l-12.2-8.4L15.1,57.2z M40,49.1l-3.9-3.9
			l2.2-2.2c1.2-1.2,1.9-2.5,2-3.7c0.1-1.2-0.4-2.4-1.4-3.4c-1-1-2.2-1.5-3.4-1.4c-1.3,0.1-2.5,0.7-3.7,1.9l-4,4l10.5,10.5L40,49.1z
			 M31,40l2.2-2.3c0.6-0.6,1.3-0.9,1.9-0.9c0.7,0,1.3,0.3,1.9,0.8c0.6,0.6,0.8,1.2,0.8,1.8c0,0.6-0.4,1.3-1,1.9l-2.2,2.2L31,40z
			 M52.5,37.8l-0.7-12.4l6,8.7l2.1-1.5l-8.4-12.2l-2.1,1.5l0.7,12.4l-6-8.7L42,27.1l8.4,12.2L52.5,37.8z M68.2,28.3l-5.3-11.6
			l6.2-2.9l-0.9-1.9l-8.5,4l6.2,13.5L68.2,28.3z M76.8,17c0.4,1.4,1,2.5,1.7,3.4c0.8,0.9,1.7,1.5,2.8,1.8c1.1,0.3,2.2,0.3,3.3,0
			c1.2-0.3,2.1-0.9,2.9-1.7c0.7-0.8,1.2-1.8,1.4-3c0.2-1.2,0.1-2.5-0.3-3.9l-0.2-0.8c-0.4-1.4-1-2.6-1.7-3.5
			c-0.8-0.9-1.7-1.5-2.7-1.8c-1.1-0.3-2.2-0.3-3.3,0c-1.2,0.3-2.1,0.9-2.9,1.7c-0.7,0.8-1.2,1.8-1.4,3c-0.2,1.2-0.1,2.5,0.3,3.9
			L76.8,17z M79,11.6c0.4-1,1.1-1.7,2.2-2c1.1-0.3,2.1-0.1,2.9,0.6c0.8,0.7,1.5,1.8,1.9,3.4l0.2,0.7c0.4,1.6,0.5,2.9,0.1,3.9
			c-0.4,1-1.1,1.7-2.2,2c-1.1,0.3-2,0.1-2.9-0.6c-0.8-0.7-1.5-1.8-1.9-3.4l-0.2-0.8C78.7,13.9,78.6,12.6,79,11.6z M98,6.5l1.3,12.7
			l2.5-0.3l-1.3-12.7l4.6-0.5l-0.2-2.1L93.2,4.9L93.4,7L98,6.5z M114.1,18c0.9,0.7,1.9,1,3.1,1.1c1.2,0.1,2.3-0.1,3.3-0.6
			c1-0.5,1.7-1.3,2.3-2.4c0.6-1.1,0.9-2.3,1-3.8l0.1-0.8c0.1-1.4-0.1-2.7-0.5-3.9c-0.4-1.1-1.1-2-2-2.7c-0.9-0.6-1.9-1-3.1-1.1
			c-1.2-0.1-2.3,0.1-3.3,0.6c-1,0.5-1.8,1.3-2.3,2.4c-0.6,1.1-0.9,2.3-1,3.8l-0.1,0.8c-0.1,1.4,0.1,2.7,0.5,3.8
			C112.6,16.4,113.2,17.3,114.1,18z M114.2,11.6l0.1-0.9c0.1-1.6,0.5-2.8,1.2-3.6c0.7-0.8,1.6-1.2,2.7-1.1c1.1,0.1,2,0.6,2.5,1.5
			c0.6,0.9,0.8,2.2,0.7,3.8l-0.1,0.8c-0.1,1.7-0.5,2.9-1.2,3.7c-0.7,0.8-1.6,1.2-2.7,1.1c-1.1-0.1-2-0.6-2.5-1.5
			C114.3,14.5,114.1,13.2,114.2,11.6z M138.6,21.6c1-0.5,1.7-1.4,2.1-2.8c0.2-0.8,0.2-1.6-0.1-2.3c-0.3-0.7-0.8-1.2-1.5-1.7
			c0.8-0.1,1.4-0.4,1.9-0.8c0.5-0.4,0.8-1,1-1.6c0.3-1.3,0.2-2.4-0.5-3.2c-0.7-0.9-1.8-1.5-3.4-1.9L133,6l-3.7,14.4l5.2,1.3
			C136.2,22.1,137.5,22.1,138.6,21.6z M135,8.6l2.4,0.6c0.9,0.2,1.4,0.5,1.8,1c0.3,0.4,0.4,1,0.2,1.7c-0.2,0.6-0.5,1.1-1,1.3
			c-0.5,0.2-1.2,0.3-1.9,0.1l-2.4-0.6L135,8.6z M133.5,14.5l3,0.8c1.5,0.4,2.1,1.4,1.7,2.9c-0.2,0.7-0.5,1.2-1.1,1.4
			c-0.5,0.3-1.2,0.3-2,0.1l-2.8-0.7L133.5,14.5z M147.6,25.4c0.8-0.1,1.5-0.6,2.2-1.4c0.7-0.8,1.5-1.9,2.3-3.5l2.6-5.1l4.1,1.9
			l-5.3,11.6l2.3,1.1l6.2-13.5l-8.7-4l-3.3,6.5c-0.7,1.3-1.2,2.2-1.7,2.8c-0.5,0.6-0.9,1-1.3,1.2c-0.4,0.2-0.9,0.2-1.5,0l-0.4-0.1
			l-0.9,1.9l0.6,0.3C146,25.3,146.9,25.5,147.6,25.4z M169.6,39l1.2-1.7l-5.8-4.1l2.6-3.7l5,3.5l1.2-1.7l-5-3.5l2.3-3.4l5.8,4
			l1.2-1.7l-7.9-5.5l-8.4,12.2L169.6,39z M175.8,44.4l4.6-4.7l4.7,4.7l-4.6,4.7l1.8,1.8l10.4-10.6l-1.8-1.8l-4.3,4.4l-4.7-4.7
			l4.3-4.4l-1.8-1.8l-10.4,10.6L175.8,44.4z M203.2,55.2c-0.1-1.1-0.4-2.1-1.1-3.1c-0.7-1-1.5-1.7-2.5-2.2c-1-0.4-2.1-0.6-3.3-0.3
			c-1.2,0.2-2.4,0.7-3.6,1.5l-0.7,0.5c-1.2,0.8-2,1.7-2.6,2.8c-0.6,1-0.9,2.1-0.8,3.2c0,1.1,0.4,2.2,1.1,3.2c0.7,1,1.5,1.7,2.5,2.2
			c1,0.4,2.1,0.6,3.3,0.3c1.2-0.2,2.4-0.7,3.6-1.6l0.7-0.5c1.2-0.8,2.1-1.8,2.7-2.8C202.9,57.4,203.2,56.3,203.2,55.2z M200.7,56.2
			c-0.4,1-1.2,2-2.6,2.9l-0.6,0.4c-1.4,0.9-2.6,1.4-3.6,1.4c-1.1,0-1.9-0.5-2.6-1.4c-0.6-0.9-0.8-1.9-0.4-2.9c0.4-1,1.2-2,2.6-2.9
			l0.7-0.5c1.3-0.9,2.5-1.3,3.6-1.3c1.1,0,1.9,0.5,2.6,1.4C200.9,54.2,201.1,55.2,200.7,56.2z M61.4,181.4l-4.1-3l-8.9,11.9l4.3,3.2
			c1.3,1,2.6,1.5,3.7,1.4c1.2-0.1,2.2-0.7,3-1.8c0.5-0.7,0.8-1.4,0.8-2.1c0-0.7-0.2-1.4-0.8-2.1c0.7,0.2,1.4,0.2,2,0
			c0.6-0.2,1.1-0.6,1.5-1.1c0.8-1.1,1-2.1,0.7-3.2C63.5,183.4,62.7,182.4,61.4,181.4z M57.5,191.6c-0.4,0.6-0.9,0.9-1.5,0.9
			c-0.6,0-1.2-0.2-1.9-0.7l-2.3-1.7l2.8-3.7l2.5,1.8C58.2,189.2,58.4,190.3,57.5,191.6z M61,186.3c-0.4,0.5-0.9,0.8-1.5,0.8
			c-0.6,0-1.2-0.2-1.8-0.7l-2-1.5l2.5-3.3l2,1.5c0.7,0.5,1.1,1.1,1.3,1.6C61.5,185.1,61.4,185.7,61,186.3z M75.7,190l-5.1-2.4
			L64.2,201l2.3,1.1l2.4-5l2.8,1.3c1.5,0.7,2.9,0.9,4.1,0.6c1.2-0.3,2.1-1.1,2.7-2.5c0.6-1.3,0.7-2.5,0.1-3.7
			C78.2,191.6,77.2,190.7,75.7,190z M76.2,195.5c-0.3,0.7-0.8,1.2-1.5,1.4c-0.6,0.2-1.3,0.1-2.2-0.3l-2.8-1.3l2.2-4.7l2.9,1.4
			c0.8,0.4,1.3,0.9,1.5,1.5C76.6,194.1,76.5,194.8,76.2,195.5z M88.8,202.8l-1.5-8.4l-2.7-0.7l2.3,11.7l-0.8,1.1
			c-0.4,0.5-1,0.7-1.7,0.5c-0.4-0.1-0.7-0.2-0.8-0.2l-0.5,2l1,0.3c1.5,0.4,2.7,0,3.6-1l0.7-0.8l8-10.7l-2.8-0.7L88.8,202.8z
			 M109.7,204.6c-1.1,0.2-2.3,0.3-3.4,0.3c-1,0-1.7-0.3-2.1-0.7c-0.4-0.4-0.6-1.1-0.6-2l0.2-4.7l-2.6-0.1l-0.2,4.7
			c-0.1,1.6,0.4,2.8,1.2,3.6c0.9,0.8,2.2,1.3,4,1.3c1.2,0,2.3,0,3.4-0.3l-0.2,5.8l2.6,0.1l0.6-14.8l-2.6-0.1L109.7,204.6z
			 M127.6,195.9l1.1,6.1l-6.5,1.1L121,197l-2.5,0.4l2.5,14.6l2.5-0.4l-1.1-6.5l6.5-1.1l1.1,6.5l2.5-0.4l-2.5-14.6L127.6,195.9z
			 M143.6,198.9l-6.1-5.9l-2.6,1l8.7,8.2l0,1.4c0,0.7-0.4,1.2-1.1,1.4c-0.4,0.2-0.7,0.2-0.8,0.3l0.7,1.9l1-0.3
			c1.4-0.6,2.2-1.5,2.4-2.9l0.1-1l0.2-13.4l-2.6,1.1L143.6,198.9z M168.7,184.2l-0.5-0.7c-0.8-1.2-1.8-2.1-2.8-2.7
			c-1-0.6-2.1-0.9-3.2-0.8c-1.1,0.1-2.1,0.4-3.1,1.1c-1,0.7-1.7,1.5-2.1,2.5c-0.4,1-0.6,2.1-0.4,3.2c0.2,1.2,0.6,2.3,1.4,3.5l-1.5,1
			l-3.8-5.5l-2.1,1.5l8.5,12.2l2.1-1.5l-3.5-5.1l1.5-1.1c0.8,1,1.7,1.7,2.7,2.2c1,0.5,2,0.7,3,0.6c1-0.1,2-0.5,2.9-1.1
			c1-0.7,1.7-1.6,2.1-2.6c0.4-1,0.5-2.1,0.3-3.3C170,186.6,169.5,185.4,168.7,184.2z M166.6,191.9c-0.9,0.6-1.9,0.8-2.9,0.4
			c-1-0.4-2-1.2-2.9-2.6l-0.5-0.7c-0.9-1.3-1.3-2.5-1.3-3.6c0-1.1,0.5-1.9,1.4-2.6c0.9-0.7,1.9-0.8,2.9-0.4c1,0.4,2,1.2,2.9,2.6
			l0.4,0.6c1,1.4,1.4,2.6,1.4,3.7C168,190.4,167.5,191.3,166.6,191.9z M16.4,78.8c-1.2,0-2.1,1-2.1,2.1c0,1.2,0.9,2.1,2.1,2.1
			c1.2,0,2.1-1,2.1-2.1C18.5,79.8,17.6,78.8,16.4,78.8z M13.6,99.8c1.2-0.2,1.9-1.3,1.7-2.5c-0.2-1.2-1.3-1.9-2.5-1.7
			c-1.2,0.2-1.9,1.3-1.7,2.5C11.3,99.3,12.4,100.1,13.6,99.8z M14.9,114.1c-0.4-1.1-1.6-1.7-2.7-1.3c-1.1,0.4-1.7,1.6-1.3,2.7
			c0.4,1.1,1.6,1.7,2.7,1.3C14.7,116.4,15.3,115.2,14.9,114.1z M14.5,129.9c-1,0.6-1.4,1.9-0.8,2.9c0.6,1,1.9,1.4,2.9,0.8
			c1-0.6,1.4-1.9,0.8-2.9C16.8,129.6,15.5,129.3,14.5,129.9z M19.8,146.2c-0.9,0.8-1,2.1-0.3,3c0.8,0.9,2.1,1,3,0.3
			c0.9-0.8,1-2.1,0.3-3C22,145.6,20.7,145.5,19.8,146.2z M27.7,161.4c-0.8,0.9-0.6,2.2,0.3,3c0.9,0.8,2.2,0.6,3-0.3
			c0.8-0.9,0.6-2.2-0.3-3C29.8,160.4,28.5,160.5,27.7,161.4z M41.1,174.2c-1-0.6-2.3-0.2-2.9,0.8c-0.6,1-0.2,2.3,0.8,2.9
			c1,0.6,2.3,0.2,2.9-0.8C42.5,176.1,42.2,174.8,41.1,174.2z M179.1,176.6c-1-0.6-2.3-0.2-2.9,0.8c-0.6,1-0.2,2.3,0.8,2.9
			c1,0.6,2.3,0.2,2.9-0.8C180.4,178.5,180.1,177.2,179.1,176.6z M189.9,163.5c-1.1-0.4-2.3,0.2-2.7,1.3c-0.4,1.1,0.2,2.3,1.3,2.7
			c1.1,0.4,2.3-0.2,2.7-1.3C191.6,165.2,191,163.9,189.9,163.5z M198.3,148.8c-1.2-0.2-2.3,0.6-2.5,1.7c-0.2,1.2,0.6,2.3,1.7,2.5
			c1.2,0.2,2.3-0.6,2.5-1.7C200.2,150.1,199.4,149,198.3,148.8z M204,132.8c-1.2,0-2.1,1-2.1,2.1c0,1.2,0.9,2.1,2.1,2.1
			c1.2,0,2.1-1,2.1-2.1C206.1,133.7,205.2,132.8,204,132.8z M206.9,116c-1.2,0.2-1.9,1.3-1.7,2.5c0.2,1.2,1.3,1.9,2.5,1.7
			c1.2-0.2,1.9-1.3,1.7-2.5C209.1,116.6,208,115.8,206.9,116z M205.5,101.8c0.4,1.1,1.6,1.7,2.7,1.3c1.1-0.4,1.7-1.6,1.3-2.7
			c-0.4-1.1-1.6-1.7-2.7-1.3C205.7,99.5,205.1,100.7,205.5,101.8z M203,85.2c0.6,1,1.9,1.4,2.9,0.8c1-0.6,1.4-1.9,0.8-2.9
			c-0.6-1-1.9-1.4-2.9-0.8C202.8,82.9,202.4,84.2,203,85.2z M90.8,149.8c0.5-0.3,1-0.6,1.4-1c-0.4-0.1-0.8-0.2-1.2-0.4
			c-0.2,0.4-0.4,0.7-0.6,1.1c-1.4-0.5-1.2-1.2-2.2,0c-1.9-0.1-1.9-0.5-3.3-0.8v-0.3c0.8,0.1,1.7,0.2,2.5,0.3v-0.8c2.1,0,4,0,5.8,0.1
			c1.6-1.5,3-3.2,4.4-4.8c0.2-0.3,5.2-5.7,13.2-12c1.5-1.2,1.8-1,2.2-1.6c0.2-0.3,0.3-0.5,0.7-0.6c0.9-0.1,3.6,1,4.1,1.1
			c2.9,0.6,4.7-1,5.9-1.7c0.9,0,1.9-0.1,2.6-0.5c0.6-0.3,1-0.8,1.6-1.2c0.3-0.2,0.5-0.3,0.8-0.5c0.5-0.3,0.8-0.8,0.9-1.4
			c0-0.4-0.1-1.3-0.4-1.6c0,0-0.5-0.1-0.4,0c0.1,0.2,0.1,0.4,0.3,0.5c-0.2,0-0.5,0-0.7-0.2c-0.2-0.1-0.2-0.3-0.4-0.4
			c0.4,0,0.9-0.3,1.3-0.5c0.8-0.4,2.2-2.2,0.7-2.7c-0.2-0.1-0.6,0-0.8,0c-0.8-0.1-1.6-0.1-2.2-0.7c0.5,0,1.1,0.2,1.6,0.4
			c0.5,0.1,0.9,0,1.3,0.1c0.8,0,1.6-0.2,1.8-1c0.1-0.5,0.2-1.2,0.1-1.7c-0.1-0.5-0.7-0.6-1.1-0.7c0,0-4.4-0.7-4.4-0.7
			c-0.7-0.2-0.6-0.7-0.6-0.7c0.2,0.2,0.2,0.4,1.1,0.6c0.1,0,1.4,0.2,2.6,0.4c-0.1-0.1-0.3-0.3-0.4-0.4c0.5,0.4,0.2,0.1,0.5,0.4
			c0.7,0.1,1.4,0.1,1.9,0.1c-0.3-0.1-0.7-0.2-1-0.3c0.2-0.1,0.4-0.2,0.6-0.3c0.2,0.2,0.4,0.4,0.5,0.5c0.5,0,0.9-0.1,1-0.2
			c0.1-0.1,0.3-0.2,0.4-0.3c0,0,0,0,0-0.1c0,0,0,0,0.1,0c0.3-0.2,0.5-0.5,0.6-0.8c0.1-0.2,0.1-0.3,0.1-0.5c0.4,0.3-0.1,0.1,0.6-0.1
			h-0.6c0.1-1.2-0.5-2.6-1.7-2.7c-0.4-0.1-0.2,0.2-0.5,0.4c-0.3,0.2-3.4-0.3-3.8-0.3c-1.4-0.2-2.8-0.1-4.2-0.2
			c1.1,0,1.3-0.8,1.5-1.1c0,0,0.1,0,0.1-0.1c0,0,0.1,0,0.1,0.1c0,0-0.1,0-0.1-0.1c0.7-0.5,1.2-1.8,1.3-2c0,0,0.9-0.4,1.8-1.1
			c1.5-1.4,2.8-3.6,1.4-4.7c-0.2-0.2-0.5-0.4-1,0.2c0,0-1.5,1.5-2.2,1.7c-0.7,0.2-2.3,0.6-3,1c-1.1,0.6-1.4,1.8-4.2,3.5
			c-0.9,0.4-1.7,0.9-2.3,1.6c0,0.1,0,0.1,0,0.2c-0.1-1-0.4-0.2,0.3-1.1h-0.8c-0.2,0.3-0.4,0.6-0.6,0.8c0.3,0.1,0.5,0.3,0.8,0.4
			c-0.4,0.5-0.9,1.1-1.2,1.7c-1.1,1.7-2.2,3-3.7,4.3c-2.1,1.7,0.1,1.1-4.8,3.4c-3.3,1.6-7,3.2-11.8,7.1c-9.3,3.9-8.8,1.8-12.5,3.1
			c2.2-2.6,3.2-4.9-1.1-5.5c-4.3-0.5-9.8,0.5-13.4,4.7c-2,2.3-2.1,7.8-2.1,7.8c0,0,0.1,0,0.1-0.1c0,2.9,1.5,5.7,3,8.1
			c1.7,2.8,3.7,5.8,6.3,7.9c0.5,0.6,1,0.7,2,0.5c1.3-0.3,2.7-0.9,4.1-1.1C83.9,152.1,84.3,153.6,90.8,149.8z M125.8,116.8
			c-0.8,0.5-0.2,0.4-1.1,0H125.8z M124.1,116.8c-0.8,0.3-0.1,0.5-0.8,0H124.1z M99.2,133.7v-0.3c0.2-0.1,0.4-0.2,0.6-0.3
			C99.7,133.3,99.9,133.4,99.2,133.7z M99.8,132.3c-0.3-0.2-0.6-0.4-0.8-0.6C99.8,132.1,99.3,131.8,99.8,132.3z M97.6,133.7
			c-0.8-0.4-0.3,0-0.8-0.6C97,133.4,97.3,133.5,97.6,133.7z M93.7,130.4c0.1,0.2,0.2,0.4,0.3,0.6h-0.6
			C93.5,130.8,93.6,130.6,93.7,130.4z M83.7,148.7c0.3,0.1,0.6,0.2,0.8,0.3v0.3h-2.2C82.8,149.1,83.3,148.9,83.7,148.7z M82.6,126.5
			c0.2,0.2,0.4,0.4,0.6,0.6h-0.8C82.5,126.9,82.5,126.7,82.6,126.5z M77.9,125.4c-0.3-0.4-0.2-0.3-0.3-0.4
			C77.7,125.1,77.7,125,77.9,125.4z M78.5,136c-0.7-0.2-0.9,0-1.7-0.6C77.9,135.5,77.9,135.5,78.5,136z M78.5,149.8
			c-1-0.4-0.9-0.7-1.7,0c-1.1-0.5-1.4-0.6-1.9-1.7c1.4,0.2,2.8,0.4,4.1,0.6C78.9,149.1,78.7,149.5,78.5,149.8z M80.1,149.3V149
			c0.3-0.1,0.6-0.2,0.8-0.3C81.9,148.5,81,149.2,80.1,149.3z M156.4,80.6c4.5-0.1,8.9-0.1,13.4-0.2c-1.1-1.2-2.1-2.5-3.2-3.8
			c-3.4-4.3-5.7-1.4-7.1,0.8C159.2,77.8,158,79,156.4,80.6z M162.4,76.3c0.5-0.4,1.2-0.3,1.6,0.1c0.4,0.5,0.3,1.2-0.1,1.6
			c-0.5,0.4-1.2,0.3-1.6-0.1C161.8,77.4,161.9,76.7,162.4,76.3z M176.3,89.8c0.1-0.1,0.2-0.2,0.3-0.3c0,0,0,0,0,0
			c0.8-1,0.4-1,0.1-1.4c-0.1-0.2-0.4-0.5-0.7-0.8c-0.1-0.3-0.3-0.5-0.5-0.6c-0.8-0.9-2.9-3.1-5.2-5.7c-4.9,0.1-9.8,0.2-14.7,0.3
			c-4.1,3.9-10.4,9.9-14.8,13.9c1,0,2,0.1,3,0.1c-0.2,0.5-1.9,0.6-3.7,0.6c-0.3,0.3-0.6,0.6-0.9,0.8h-2.9c0.5,0.6,1.3,0.9,2.1,0.9
			c0,0-0.1,0-0.1,0c-0.5,0.4-0.9,0.8-1.2,1.1c0.2,0.2,0.4,0.3,0.6,0.5c-0.4-0.1-0.8-0.1-1.1-0.1c0,0-0.1,0.1-0.1,0.1c0,0,0,0,0,0
			c0,0,0,0-0.1,0.1c0,0,0.1,0,0.1,0c-0.1,0.1-0.2,0.2-0.3,0.3c0,0,0,0,0,0c0,0,0,0-0.1,0c-0.8,0.8-2.7,2.3-5,4.1
			c-0.1,1.8-1.8,3.5-2.4,4c-0.6,0.6-1.3,0.9-1.7,1.1c-0.1,0.2-0.2,0.4-0.3,0.6c0.3,0,0.7,0.1,0.9,0.3c0.1,0.2,0.2,0.3,0.2,0.5
			c0,0,0,0,0,0c0.5,0.1,1.9,0.3,2.8,0.3c0.3-0.4,0.8-0.5,1-0.5c0.1,0,0.2,0,0.3,0c0.3,0.1,0.6,0.2,0.9,0.3c0.2-0.2,0.4-0.4,0.7-0.6
			h0c0,0,0,0,0,0c0.7-0.7,1.3-1.3,1.6-1.5c0.8-0.7,2.9-0.9,3.9-0.6c0.6,0.2,1.6-0.3,2.3-0.7h0c0,0,0,0,0,0c0,0,0,0,0,0
			c0.2,0,0.3,0.1,0.5,0.1c0.1,0,0.1,0,0.2,0c0,0,0,0,0,0c0.4,0.5,1.4,1.8,2.3,3c0,0,0.3,0.4,0.7,0.9c0.1,0.1,0.2,0.3,0.3,0.4
			c0.6,0.7,1.4,1.4,1.8,1.2c0,0,0,0,0,0c0.1,0,0.2-0.1,0.4-0.1l0-0.1c0.1,0,0.2-0.1,0.3-0.1l0,0c0,0,0.1-0.1,0.2-0.1
			c0.3-0.2,0.5-0.3,0.8-0.5l0,0c0.1,0,0.2-0.1,0.2-0.1l0,0c0.3-0.2,0.6-0.4,1-0.6l0,0c0.1,0,0.1-0.1,0.2-0.1l0,0
			c0.2-0.1,0.3-0.2,0.5-0.3c2.5-1.6,6-4,10.1-7.1c0.2-0.2,0.4-0.4,0.6-0.6h-1.1c-0.3-0.2-0.6-0.4-0.8-0.6c1.6-0.1,1.7,0,2.5-0.8
			c0.2,0.3,0.3,0.6,0.4,0.8c0.3-0.2,0.6-0.5,0.9-0.7c-0.1-0.1-0.1-0.3-0.2-0.4h0.7c0.3-0.2,0.6-0.5,0.9-0.8c0.1,0.2,0.2,0.3,0.3,0.5
			c-0.2-0.5-0.2-0.5-0.2-0.6c0,0,0,0,0,0c3.6-2.9,7.5-6.3,11.3-10.1C176.2,89.9,176.2,89.8,176.3,89.8z M144,99.3
			c0.2,0.7,0.1,0.2-0.3,0.8C143.9,99.8,143.9,99.5,144,99.3z M143.8,97c-0.9,0.3-1.1,0.3-1.7-0.3C142.7,96.9,143.2,96.9,143.8,97z
			 M141,102c-0.6,0.5-1.2,0.8-1.9,0H141z M138.8,100.1c-0.1-0.2-0.2-0.4-0.3-0.6C139,99.9,138.7,99.8,138.8,100.1z M137.4,100.1
			c-0.3-0.2-0.6-0.4-0.8-0.6C137.4,99.9,136.9,99.5,137.4,100.1z M136,102.3c0.2-0.1,0.4-0.2,0.6-0.3h0.3
			C136.3,102.5,136.8,102.6,136,102.3z M137.4,102.9c-0.1-0.2-0.2-0.4-0.3-0.6h0.6C137.6,102.5,137.5,102.7,137.4,102.9z
			 M138.2,100.1c-0.2-0.2-0.4-0.4-0.6-0.6C138.2,99.9,137.8,99.6,138.2,100.1z M138,102.6h0.8C138.1,102.9,138.4,103.3,138,102.6z
			 M140.7,104c0.2,0.5,0.4,0.9,0.6,1.4h-1.7c-0.2-0.6-0.1-0.9-1.1-1.4c0.6-0.3,1.1-0.6,1.7-0.8c0.6,0.2,1.3,0.4,1.9,0.6
			C141.6,103.8,141.2,103.9,140.7,104z M143.8,97.6c-0.9,0.5-0.7,0.4-1.7,0H143.8z M143.5,100.9v-0.6
			C143.7,100.9,143.8,100.4,143.5,100.9z M142.3,99.6c0.2,0.1,0.4,0.1,0.9-0.1C142.7,99.7,142.5,99.7,142.3,99.6z M144.3,104
			c-1.2,0-0.6,0.3-1.4-0.3h1.4V104z M145.4,104.3c-0.1-0.2-0.2-0.4-0.3-0.6h0.6C145.6,103.9,145.5,104.1,145.4,104.3z M146,103.7
			c0.5,0.4,0.2,0,0.6,0.6C146.3,104.1,146.2,103.9,146,103.7z M147.4,101.8c0.1-0.2,0.2-0.4,0.3-0.6h0.3L147.4,101.8z M149,97.3
			c-0.2-0.1-0.4-0.2-0.6-0.3c0.1-0.2,0.2-0.4,0.3-0.6h0.8C149.4,96.8,149.2,97,149,97.3z M165.9,88.4c-0.2-0.2-0.4-0.4-0.6-0.6
			C165.9,88.3,165.5,87.9,165.9,88.4z M162,87.9c0.6,0.1,1.1,0.2,1.7,0.3c-0.6,0.1-1.3,0.2-1.9,0.3C161.8,88.2,161.9,88.1,162,87.9z
			 M161.5,88.4h-0.6c0.1-0.2,0.2-0.4,0.3-0.6C161.3,88.1,161.4,88.2,161.5,88.4z M160.9,85.9c-0.2-0.2-0.4-0.4-0.6-0.6
			C160.9,85.8,160.5,85.4,160.9,85.9z M152.3,105.7c0.1,0.1,0.1,0.2,0.1,0.2C152.4,105.8,152.4,105.8,152.3,105.7L152.3,105.7z
			 M151.2,95.4c0.2,0.2,0.4,0.4,0.6,0.6h-0.8C151,95.7,151.1,95.6,151.2,95.4z M150.9,98.7c-0.1,0.3-0.2,0.6-0.3,0.8h-0.3
			c0.1-0.4,0.2-0.7,0.3-1.1C150.8,98.5,150.9,98.6,150.9,98.7z M150.4,97.3c-0.1-0.2-0.2-0.4-0.3-0.6
			C150.6,97.1,150.3,97.1,150.4,97.3z M150.4,105.9c0.1-0.2,0.2-0.4,0.3-0.6h1.1C152.4,106.2,150.8,105.9,150.4,105.9z M150.1,103.4
			c0.1-0.2,0.2-0.4,0.3-0.6h1.7C151.4,103.1,150.8,103.2,150.1,103.4z M151.8,99c-0.1-0.2-0.2-0.4-0.3-0.6h0.6
			C152,98.6,151.9,98.8,151.8,99z M152.3,106.2L152.3,106.2c0.2-0.3,0.2-0.3,0.2-0.3C152.6,106,152.5,105.9,152.3,106.2z
			 M152.9,99.8c-0.2-0.4-0.4-0.7-0.6-1.1c0.3,0.1,0.6,0.2,0.8,0.3C153.1,99.3,153,99.5,152.9,99.8z M154,98.7
			c0.4,0.1,0.7,0.2,1.1,0.3C154.3,99.2,154.6,99.3,154,98.7z M155.4,84c-0.2,0.1-0.4,0.2-0.6,0.3C155,84.2,155.2,84.1,155.4,84
			C155.4,84,155.4,84,155.4,84z M156,102.7c0.4,0.1,0.6,0.2,1,0.5C156.6,102.8,156.4,102.7,156,102.7z M158.7,100.4
			c0.1-0.3,0.2-0.6,0.3-0.8c-0.8,0.5-0.6-0.3-1.1,0.8c-1.1-0.5-0.7,0-0.6-1.1c-0.8-0.4-0.3,0-0.8-0.6c1.6,0.4,1.9,0.5,3.3,0.3
			C159.4,100.1,159.7,99.9,158.7,100.4z M159.2,97.6h0.8C159.4,97.9,159.7,98.3,159.2,97.6z M158.4,95.4h1.9
			C159.6,96,159.2,96.2,158.4,95.4z M160.4,89.5c0.3-0.1,0.6-0.2,0.8-0.3c0.4,0.1,0.7,0.2,1.1,0.3c-0.6,0.1-1.3,0.2-1.9,0.3V89.5z
			 M160.6,95.4h0.8v0.3C160.6,95.5,161.3,96,160.6,95.4z M162.6,98.1h-1.4c0.2-0.5,0.4-0.9,0.6-1.4h0.8
			C162.1,97.7,162.3,96.9,162.6,98.1z M162.3,95.9c0.1-0.2,0.2-0.4,0.3-0.6h1.7C163.6,95.6,162.9,95.7,162.3,95.9z M163.4,98.1
			c0.1-0.2,0.2-0.4,0.3-0.6c1.2,0.3,0.9-0.1,1.7,0.8C164.7,98.3,164,98.2,163.4,98.1z M166.4,95.6c-1.2,0.1-1.1,0.2-1.9-0.3h1.9
			V95.6z M165.9,89.8v-0.3c0.2-0.1,0.4-0.2,0.6-0.3C166.4,89.4,166.6,89.5,165.9,89.8z M167,97.9c0.1-0.2,0.2-0.4,0.3-0.6h0.8
			C167.7,97.5,167.4,97.7,167,97.9z M169.8,89.3c0.5,0.4,0.2,0,0.6,0.6C170.1,89.6,169.9,89.4,169.8,89.3z M170,83.4v-0.3
			c0.2-0.1,0.4-0.2,0.6-0.3C170.5,83,170.7,83.1,170,83.4z M173.4,84.8C173.4,84.8,173.4,84.8,173.4,84.8c0.2,0.2,0.4,0.4,0.6,0.6
			C173.7,85.2,173.5,85,173.4,84.8z M86.1,107.7c0.5-0.2,1.3-0.3,2.8-0.5c0.9-0.1,2.2-0.2,3.2-0.3c-0.4-0.4-0.7-0.9-0.9-1.4l0,0
			c-0.1,0-0.2-0.1-0.4-0.1c-0.9-0.3-2.6-1.9-3.3-3.6c-0.6-0.5-1.1-1-1.5-1.4c-0.4-0.5-0.9-0.9-1.5-1.3l0,0
			c-0.9-0.8-5.6-4.9-10.7-9.4c-0.2-0.2-0.4-0.4-0.6-0.6c0,0,0,0,0,0c0.2,0,0.4-0.1,0.7-0.1v-0.3h-1.1c-3.1-2.8-6.6-5.9-9.8-8.5
			c-1.6-1.3-2.7-2.3-3.2-2.8c-1.3-1.1-3.2-2.3-5.6-3c-0.5-0.2-1-0.3-1.4-0.3l0,0c-1.4-0.2-3-0.3-4.6,0c-2.1,0.2-2.6,0.6-2.6,0.6
			c0,0.1,0.1,0.1,0.1,0.2c0,0,0,0,0,0c0,0.1,0.1,0.1,0.1,0.2c0,0,0,0,0,0c0.1,0.1,0.1,0.2,0.2,0.4l0,0c0,0,0,0,0,0l0,0
			c0.1,0.2,0.3,0.5,0.5,0.7l0,0c0,0,0,0,0,0l0,0c0.2,0.2,0.3,0.5,0.5,0.7l0,0c2.5,3.4,8.3,10.6,19.6,21.3c0.4-0.2,0.8-0.6,1.3-1
			c0.6,0.1,1.1,0.2,1.7,0.3h-1.4c0,1-0.4,1.2,0.3,1.9c-0.2,0-0.3,0.1-0.5,0.1c0.5,0.5,1,1,1.5,1.4c2.8,0.3,6.3,0.2,7.8,0.4
			c-0.8,0.5-3.9,0.4-7.3,0.1c1.5,1.4,3,2.8,4.7,4.2c0.5-0.1,2-1.7,2-1.7l0.5-0.6c0,0-0.1,0-0.1,0c0.1,0,0.2-0.1,0.2-0.1
			c0.3-0.3,0.5-0.5,0.7-0.8c0.4-0.4,0.8-0.8,1.2-1c0,0,0,0,0,0c0,0.1,0,0.2,0,0.7h1.5c0.1,0.1,0.2,0.3,0.3,0.4
			c0.2,0.3,0.5,0.5,0.7,0.7C83.2,104.8,84.6,106.2,86.1,107.7z M55.3,85.9c0.1-0.2,0.2-0.4,0.3-0.6c0.1,0.2,0.2,0.4,0.3,0.6H55.3z
			 M62.2,89.8c0.1-0.2,0.2-0.4,0.3-0.6h0.3L62.2,89.8z M65.8,83.7c-0.2-0.2-0.4-0.4-0.6-0.6C65.7,83.5,65.4,83.2,65.8,83.7z
			 M65.2,84.3c0.6,0.2,1.3,0.4,1.9,0.6C65.9,84.8,65.8,84.8,65.2,84.3z M69.1,98.7c-0.1-0.2-0.2-0.4-0.3-0.6
			C69.3,98.5,69,98.4,69.1,98.7z M71.6,97.3c0.5,0.4,0.2,0,0.6,0.6C71.9,97.7,71.8,97.5,71.6,97.3z M76.8,97.6
			c-0.8,0.1-1.7,0.2-2.5,0.3c0.1-0.2,0.2-0.4,0.3-0.6h2.2V97.6z M77.7,97.3h0.8C77.7,97.6,78.4,97.8,77.7,97.3z M91.1,104.3
			c0.8,0.3,0.7,0.1,1.1,0.7c0.1,0.3,0.4,0.7,0.6,1l-0.2,0.2c0.2,0.2,0.4,0.4,0.6,0.6c0.3-0.1,0.6-0.2,0.8-0.3
			c-0.2,0.1-0.3,0.1-0.5,0.2c0.1,0,0.1,0.1,0.1,0.1c0.2,0.4,0.3,1,0.3,1c-0.3,0-0.7,0-0.9,0.2c-1.1-0.1-6.5,0.5-6.7,0.8
			c-0.5,0.1-1,0.3-1.4,0.6c-0.4,0.3-0.5,1.3-0.5,1.8c0,0.6,0.2,1.2,0.8,1.6c0.5,0.3,1.2,0.3,1.8,0.3c0.7,0,1.3-0.1,2-0.1
			c0.8-0.1,1.7-0.3,2.5-0.5c0.4-0.1,0.7-0.1,1-0.2c-0.5,0.1-0.9,0.4-1.3,0.5c-1.1,0.3-2.2,0.5-3.3,0.7c-0.4,0.1-0.8-0.1-1.3,0.2
			c0,0-0.1,0-0.1,0c-0.9,0.9-0.3,2.1,0.1,2.4c0.4,0.4,1,0.5,1.7,0.5c1.1,0.1,1.2,0.2,2.9-0.1c0.2,0,0.7-0.2,0.8,0
			c0.1,0.2-0.7,0.2-0.8,0.2c-0.6,0-0.7,0.3-3.2,0.2c-0.4,0-0.2,2.3,0.5,2.5c0.1,0,2.3,0.7,2.4,0.8c0.5,0.2,1.3,0.2,1.3,0.9
			c0,0.6-2.1,0.5-2.2,0.1c0-0.1,0-0.1,0-0.2c-0.1-1.4-0.7-1.5-0.9-0.6c-0.3,1-0.4,2.2,0.6,2.9c0.1,0.1,0.2,0.2,0.4,0.2
			c0.1,0,0.3-0.1,0.3,0c0.4,0.3,1,1.8,4.2,1.8c0.2,0,0.3,0.1,0.5,0.2c3.9-3.1,7.1-4.6,9.9-5.9c0.3-0.2,0.6-0.3,1-0.5
			c2.3-1.1,2.9-1.5,3.1-1.7c-0.2-0.2-0.4-0.5-0.6-0.8c-0.4-2-2.2-3.3-2.5-3.6c-2.1-2.1-3.9-4.6-3.9-4.6c-0.3-0.3-2.7-2.3-4.5-3.4
			c0-0.1-1.2-1.4-1.3-1.5c-1-1-1.4-2.1-2.3-2.2c-0.4-0.1-0.8,0-1.3,0c-0.2,0-0.5-0.1-0.7-0.1c0.1,0,0.3,0,0.4-0.1
			c0,0-0.5-0.4-1.6-1.2c-0.5-0.3-1.4-1.3-2-0.8C86.8,100.5,90.2,104,91.1,104.3z M154.4,137.1h0.2c-0.1-0.1-0.1-0.2-0.2-0.3
			c0-0.5,0-1-0.1-1.5c0.1-1.6-0.5-3.5-1.7-5.3c-0.6,0.1-1.2,0.1-1.9,0.2V129c0.5-0.1,0.8-0.1,1-0.1c-1.6-1.8-3.8-3.2-6.7-3.9
			c-3.3-0.7-12.1,0.8-10,3.5c0.5,0.7,1.8,0.6,2.5,0.8l-1.9,0.2c-1.7-0.2-4.7-0.7-7.6-1.5c0,0,0,0-0.1,0.1c-0.3,0.3-0.7,0.6-1.1,0.8
			c-0.7,0.4-1.7,0.6-2.8,0.6c-0.1,0.1-0.3,0.2-0.4,0.2c-1,0.6-2.5,1.5-4.6,1.5c-0.5,0-0.9,0-1.4-0.1c-0.2,0-0.5-0.1-1.1-0.3
			c-0.7-0.2-1.9-0.7-2.6-0.7c0,0-0.1,0.1-0.1,0.1c-0.4,0.5-0.7,0.7-1,0.9c-0.3,0.2-0.7,0.4-1.4,0.9c-0.3,0.2-0.5,0.4-0.8,0.6
			c7.4,6.5,19.7,17.3,22.2,18.3c0,0,5.2,1.2,8.3,2c0.2,0.2,0.1,0.2,0.3,0.1c0.6,0.1,1.1,0.3,1.5,0.4c0,0,0,0,0.1,0
			c0.2,0.1,0.4,0.1,0.5,0.1c0.1,0,0.1,0,0.1,0c0,0,0,0,0,0c2,0.3,3.5-0.8,4.7-2.4c2.6-3.8,4.6-8.3,5.8-12.7
			C154.2,138,154.3,137.6,154.4,137.1z M124.1,135.7c0.4,0.1,0.7,0.2,1.1,0.3C124.2,135.9,124.9,136.2,124.1,135.7z M125.8,129.6
			c0.5,0.4,0.2,0,0.6,0.6C126.1,129.9,126,129.7,125.8,129.6z M128,130.1c0.1-0.2,0.2-0.4,0.3-0.6c0.1,0.2,0.2,0.4,0.3,0.6H128z
			 M131.9,136c-0.1-0.3-0.2-0.6-0.3-0.8c0.6,0.2,1.1,0.4,1.7,0.6C132.8,135.8,132.3,135.9,131.9,136z M133.2,143.7
			c0.1-0.2,0.2-0.4,0.3-0.6C133.7,143.8,133.7,143.3,133.2,143.7z M134.4,135.7c0.1-0.2,0.2-0.4,0.3-0.6h0.8
			C135.1,135.3,134.7,135.5,134.4,135.7z M144.9,130.7c0.1,0.2,0.2,0.4,0.3,0.6h0.6v0.3h-1.1C144.7,131.2,144.8,130.9,144.9,130.7z
			 M136.3,140.7c0.2-0.1,0.4-0.2,0.6-0.3C137.4,140.6,136.3,140.7,136.3,140.7z M136.8,134.8c0.3,0.2,0.6,0.4,0.8,0.6
			C136.8,135,137.3,135.4,136.8,134.8z M141.8,152.9H141c0,0,0,0,0,0L141.8,152.9C141.8,152.9,141.8,152.9,141.8,152.9z
			 M140.4,131.8v-0.3c0.3-0.1,0.6-0.2,0.8-0.3h0.6C141.3,131.7,141.4,131.6,140.4,131.8z M142.4,150.4
			C142.4,150.4,142.4,150.3,142.4,150.4C142.4,150.3,142.4,150.4,142.4,150.4C142.4,150.4,142.4,150.4,142.4,150.4z M142.7,140.7
			c0.2-0.3,0.4-0.6,0.6-0.8C143.2,140.6,143.6,140.3,142.7,140.7z M143.5,131.5c0.1-0.3,0.2-0.6,0.3-0.8
			C144,131.4,143.9,130.9,143.5,131.5z M145.4,133.7c-0.2,0.1-0.4,0.2-0.6,0.3c-0.2-0.1-0.4-0.2-0.6-0.3c0.1-0.3,0.2-0.6,0.3-0.8
			c0.3,0.2,0.6,0.4,0.8,0.6V133.7z M145.7,133.2c0.2,0.2,0.4,0.4,0.6,0.6C145.7,133.3,146.1,133.7,145.7,133.2z M148.7,133.4
			c0.2-0.1,0.4-0.2,0.6-0.3C149.9,133.3,148.7,133.4,148.7,133.4z M152.3,141c0.1-0.2,0.2-0.4,0.3-0.6
			C152.8,141,152.7,140.5,152.3,141z M152.1,133.2h0.8C152.2,133.5,152.5,133.9,152.1,133.2z M151.8,132.1h1.4
			C152.4,132.8,152.5,132.6,151.8,132.1z M179.2,99c0.8,0.7,3,0.6,4.1,0.8C182.5,99.2,180.4,99.1,179.2,99z M184.7,73.7
			c0.1,0.2,0.2,0.4,0.3,0.6C184.8,74,185.2,74.1,184.7,73.7z M181.9,79.2c-0.6,0.2-1.3,0.4-1.9,0.6
			C180.9,79.8,183.4,79.1,181.9,79.2z M180.5,78.1c-0.4,0.1-0.7,0.2-1.1,0.3v0.3c1-0.1,2-0.2,3-0.3
			C181.8,78.3,181.2,78.2,180.5,78.1z M187.2,79.5v-0.3h-2.5C185.3,80,185.6,79.7,187.2,79.5z M178.3,79.2c0.4,0.5,0,0.2,0.6,0.6
			C178.7,79.6,178.5,79.4,178.3,79.2z M173.9,77.6h0.8c-0.2-0.2-0.4-0.4-0.6-0.6C174.1,77.2,174,77.4,173.9,77.6z M173.1,76.7h0.6
			c-0.1-0.2-0.2-0.4-0.3-0.6C173.3,76.4,173.2,76.6,173.1,76.7z M177.2,78.1c-0.1,0.2-0.2,0.4-0.3,0.6h0.6
			C177.4,78.5,177.3,78.3,177.2,78.1z M169.8,102c0.2-0.1,0.4-0.2,0.6-0.3v0.6c0.2-0.4,0.4-0.7,0.6-1.1h-1.1V102z M177.2,82.6
			c-0.2,0.1-0.4,0.2-0.6,0.3C176.7,82.9,177.8,82.7,177.2,82.6z M177.2,85.4c-0.4-0.5,0-0.2-0.6-0.6C176.9,85,177,85.2,177.2,85.4z
			 M151.2,150.7c-0.4-0.5,0-0.2-0.6-0.6C150.9,150.3,151,150.5,151.2,150.7z M179.4,102.6c-0.7-1.3-1.3-1-2.8-1.1
			c-0.1,0.3-0.2,0.6-0.3,0.8C177.6,102.3,178.8,102.3,179.4,102.6z M180.5,102.6c-0.2-0.2-0.4-0.4-0.6-0.6
			C180.4,102.6,180,102.2,180.5,102.6z M183.6,97.9c-0.1,0.3-0.2,0.6-0.3,0.8C183.7,98.1,183.8,98.6,183.6,97.9z M181.9,82.9h-2.8
			C179.9,83.3,180.8,83.4,181.9,82.9z M178.6,87.6h-0.8C178.5,87.9,177.9,88.1,178.6,87.6z M178.9,111.2c-0.2-0.2-0.4-0.4-0.6-0.6
			c-0.1,0.2-0.2,0.4-0.3,0.6H178.9z M176.7,105.1c0.3-0.7-0.1-0.3,1.1-0.6c-0.9-0.7-3-0.5-3.9-0.6v0.8c0.2,0.1,0.4,0.2,0.6,0.3
			c0.5-0.3,0.9-0.6,1.4-0.8C176.4,105.1,175.6,104.7,176.7,105.1z M183.3,87.6c0.3,0.2,0.6,0.4,0.8,0.6
			C183.6,87.6,184.1,87.9,183.3,87.6z M178.3,104c-0.1,0.2-0.2,0.4-0.3,0.6c0.6-0.1,1.3-0.2,1.9-0.3
			C179.4,104.2,178.9,104.1,178.3,104z M165.6,101.8c0.5,0.6,0.1,0.3,1.1,0.6C166.3,102.1,166,101.9,165.6,101.8z M165.6,106.2
			c0.6-0.2,0.3,0,0.3-0.6C165.8,105.8,165.7,106,165.6,106.2z M154.5,109.3c-0.1,0.2-0.2,0.4-0.3,0.6h1.1
			C154.9,109.3,155.4,109.6,154.5,109.3z M163.1,109.3c-0.1,0.2-0.2,0.4-0.3,0.6h0.8C163.5,109.6,163.3,109.5,163.1,109.3z
			 M165.1,100.9c0.2,0.2,0.4,0.4,0.6,0.6C165.2,101,165.6,101.3,165.1,100.9z M165.3,109.5c-0.4-0.1-0.7-0.2-1.1-0.3
			C164.9,109.8,164.5,109.7,165.3,109.5z M155.1,110.9c-0.6-0.1-1.3-0.2-1.9-0.3C153.8,111.3,154.2,111.3,155.1,110.9z M183.9,101.5
			l0.6-0.6v-0.3h-1.1C183.5,100.9,183.7,101.2,183.9,101.5z M187.2,84c-0.2-0.2-0.4-0.4-0.6-0.6c-0.1,0.2-0.2,0.4-0.3,0.6H187.2z
			 M186.1,101.2l0.6-0.6h-0.3C186.3,100.8,186.2,101,186.1,101.2z M186.1,97c-0.1,0.1-0.2,0.2-0.3,0.3c0.3,0.2,0.6,0.4,0.8,0.6
			c-0.1-0.2-0.2-0.4-0.3-0.6C186.3,96.9,186.4,97.2,186.1,97z M184.7,84.5c0.2,0.2,0.4,0.4,0.6,0.6
			C184.9,84.6,185.2,84.9,184.7,84.5z M185,85.9h-0.8C184.9,86.2,184.3,86.4,185,85.9z M185,82.6c0.6,0.5,1.5,0.5,2.5,0H185z
			 M163.1,117.6c0.5-0.3,0.2-0.2,0.3-0.6C163.3,117.2,163.2,117.4,163.1,117.6z M188.3,102v-0.3h-0.8
			C188.1,102.4,187.4,101.9,188.3,102z M137.7,153.7c0.4,0.5,0,0.2,0.6,0.6C138,154.1,137.9,153.9,137.7,153.7z M139.1,152.9
			c0.2,0.3,0.4,0.6,0.6,0.8c0.1-0.3,0.2-0.6,0.3-0.8H139.1z M144.3,114.3c-0.4-0.2-0.7-0.4-1.1-0.6c-0.1,0.2-0.2,0.4-0.3,0.6H144.3z
			 M130.2,101.5c-0.1-0.2-0.2-0.4-0.3-0.6c-0.1,0.2-0.2,0.4-0.3,0.6H130.2z M130.5,100.9c0.4,0.5,0,0.2,0.6,0.6
			C130.9,101.3,130.7,101.1,130.5,100.9z M134.6,115.1h-0.3l0.3,0.8V115.1z M132.4,152.6c-0.1,0.3-0.2,0.6-0.3,0.8
			c0.6,0.2,1.1,0.4,1.7,0.6c-0.1-0.5-0.2-0.9-0.3-1.4C132.5,152.9,133.4,153.2,132.4,152.6z M173.1,149.3c0.1,0.2,0.2,0.4,0.3,0.6
			C173.2,149.6,173.6,149.7,173.1,149.3z M157.9,139.3c-0.1-0.4-0.2-0.7-0.3-1.1v1.1H157.9z M155.9,131.5c-0.2-0.2-0.4-0.4-0.6-0.6
			C155.8,131.5,155.4,131.1,155.9,131.5z M157,135.4c0.5,0.6,0,0.2,0.8,0.6C157.6,135.8,157.3,135.6,157,135.4z M160.6,133.2
			c0.1-0.2,0.2-0.4,0.3-0.6h-0.6C160.4,132.8,160.5,133,160.6,133.2z M161.7,134.6c0.1,0.9-0.3,0.4,0.6,1.1
			c-0.1-0.2-0.2-0.4-0.3-0.6c0.1-0.2,0.2-0.4,0.3-0.6H161.7z M145.7,122.9h0.3c-0.1-0.4-0.2-0.7-0.3-1.1V122.9z M163.7,129.3
			c-0.6,0.3-1.1,0.6-1.7,0.8c0.9,0,0.8,0.1,1.7,0.6V129.3z M167.8,108.2c-0.4,0.1-0.7,0.2-1.1,0.3v0.3h1.7
			C168.2,108.5,168,108.3,167.8,108.2z M141.5,153.7c0.4,0.8,0.2,0.6,0.8,1.1C141.9,154,142.6,154.3,141.5,153.7z M166.7,107.6
			c-0.2,0.3-0.4,0.6-0.6,0.8C166.7,108,167.1,108.3,166.7,107.6z M162.8,125.1h-0.3c-0.1,0.2-0.2,0.4-0.3,0.6L162.8,125.1z
			 M160.9,105.1c-0.2,0.1-0.4,0.2-0.6,0.3c0.8,0.3,1.7,0.6,2.5,0.8C162.3,105.4,161.9,105.5,160.9,105.1z M168.1,101.8
			c-0.4,0.1-0.7,0.2-1.1,0.3v0.3c0.7-0.1,1.5-0.2,2.2-0.3C168.8,101.9,168.5,101.9,168.1,101.8z M137.4,89.8h0.6
			c-0.1-0.2-0.2-0.4-0.3-0.6L137.4,89.8z M138,93.4V94C138.2,93.5,138.2,93.9,138,93.4z M141,89.8c-0.2-0.2-0.4-0.4-0.6-0.6
			c-0.1,0.2-0.2,0.4-0.3,0.6H141z M137.1,85.4c-0.2,0.1-0.4,0.2-0.6,0.3C136.6,85.6,137.7,85.5,137.1,85.4z M137.7,115.9l-0.3-0.6
			c-0.1,0.2-0.2,0.4-0.3,0.6H137.7z M130.8,121.2v0.3c0.7-0.3,0.5-0.4,0.6-0.6C131.1,121,130.9,121.1,130.8,121.2z M131.9,122.3
			v-0.3c-0.2-0.1-0.4-0.2-0.6-0.3c-0.1,0.1-0.2,0.2-0.3,0.3c0.1,0.2,0.2,0.4,0.3,0.6C131.5,122.5,131.7,122.4,131.9,122.3z
			 M142.7,88.4c-0.4-0.1-0.7-0.2-1.1-0.3c-0.2,0.1-0.4,0.2-0.6,0.3H142.7z M143.5,88.7h1.4c-0.5-0.6-0.1-0.3-1.1-0.6
			C143.7,88.3,143.6,88.5,143.5,88.7z M141,114c0.2,0.2,0.4,0.4,0.6,0.6C141.2,114,141.5,114.4,141,114z M36.1,80.2
			c-0.1,0-0.2,0.1-0.1,0.2c0.3,0.3,0.7,0.5,1,0.8c0,0,0.1,0,0.1,0c0,0,0,0,0,0c-0.1-0.4-0.1-0.4-0.1-0.9
			C36.7,80.3,36.4,80.2,36.1,80.2z M32.7,79.8c0.3,0.2,0.6,0.4,0.8,0.6C33,79.8,33.5,80.2,32.7,79.8z M34.2,84.5
			c-0.1,0-0.1,0.1,0,0.1c0,0.1,0.1,0.2,0.1,0.3c0,0.1,0.1,0.1,0.2,0c0.3-0.4,0.4-0.1,0.2-0.7C34.5,84.4,34.3,84.4,34.2,84.5z
			 M34.1,75.4c0.1,0.2,0.2,0.4,0.3,0.6C34.2,75.7,34.6,75.8,34.1,75.4z M37.7,70.7c-0.5-0.2-0.9-0.4-1.4-0.6
			C36.9,70.8,36.9,70.8,37.7,70.7z M38.8,67.9l-0.3,0.3c0.3,0.2,0.6,0.4,0.8,0.6C39.1,68.4,38.9,68.2,38.8,67.9z M39.5,79.8
			c-0.1,0-0.1,0.1-0.1,0.2c0,0.1,0.1,0.1,0.1,0.2c0,0.1,0.2,0.1,0.2,0c0-0.1,0.1-0.1,0.1-0.2c0-0.1,0-0.2-0.1-0.2H39.5z M41.2,76.5
			h-1.1C40.4,76.8,42,77.3,41.2,76.5z M39.7,70.6c0.3,0.4,0.2,0.3,0.8,0.6c0.1,0,0.1,0,0.1-0.1v-0.6c0-0.1,0-0.1-0.1-0.1h-0.8
			C39.7,70.4,39.7,70.5,39.7,70.6z M41.8,70.4c0.6-0.6,0.5-0.2,0.3-0.8c-0.3,0.5-0.6,0.9-0.8,1.4C41.8,70.6,41.4,70.9,41.8,70.4z
			 M40.1,77.3h-0.5c0,0-0.1,0-0.1,0.1c-0.1,0.2-0.2,0.3-0.2,0.5C40.1,77.5,39.6,77.9,40.1,77.3z M38.9,75.4c-0.4-0.5,0-0.2-0.6-0.6
			C38.6,75,38.8,75.2,38.9,75.4z M34.6,70.7c0.3-0.5,0.3-0.1,0-0.6V70.7z M32,76.5c0.3-0.5,0.3-0.1,0-0.6V76.5z M45.3,100.9
			c0.7,0.5,1.3,0.7,2.2,0.3C46.8,101.1,46,101,45.3,100.9z M46.1,85.1c-0.1,0.2-0.2,0.4-0.3,0.6h0.6L46.1,85.1z M47,99
			c-0.5-0.6,0-0.2-0.8-0.6C46.4,98.6,46.7,98.8,47,99z M46.4,96.5c-0.1-0.1-0.2-0.2-0.3-0.3c-0.1,0.2-0.2,0.4-0.3,0.6H47
			C46.8,96.7,46.6,96.6,46.4,96.5z M44.1,83c-0.5-0.5-1.2-0.6-1.9-0.8C43,83,43.2,82.7,44.1,83z M48.3,146.8v0.6
			C48.6,146.9,48.6,147.3,48.3,146.8z M49.7,101.5c-0.4-0.1-0.7-0.2-1.1-0.3C49.4,101.7,48.7,101.4,49.7,101.5z M47.8,101.2
			c0.2,0.2,0.4,0.4,0.6,0.6C48,101.2,48.3,101.6,47.8,101.2z M46.7,113.2c0.2,0.1,0.4,0.2,0.6,0.3c0.2-0.1,0.4-0.2,0.6-0.3v-0.3
			c-0.3-0.2-0.6-0.4-0.8-0.6C46.9,112.6,46.8,112.9,46.7,113.2z M79.6,156.8c-2-0.2-4.1-0.4-6.1-0.6
			C75.2,157.3,77.9,157.6,79.6,156.8z M92.6,158.7c-4.2-0.3-7.1-1-10.8-1.9c-0.4,0.5,0,0.2-0.6,0.6c0.3,0.2,0.6,0.4,0.8,0.6
			C84.6,157.2,89.4,160.1,92.6,158.7z M70.5,157.4c-0.9-0.1-1.8-0.2-2.8-0.3C68.7,157.9,69.8,158,70.5,157.4z M42.2,71.8
			c0.5-0.3,0.2-0.2,0.3-0.6C42.3,71.5,42.3,71.7,42.2,71.8z M81.3,102.9c-0.3,0.4-0.6,0.7-0.8,1.1h1.4
			C81.6,103.6,81.4,103.2,81.3,102.9z M81.5,124.6c-0.5-0.6,0-0.2-0.8-0.6C81,124.2,81.3,124.4,81.5,124.6z M82.6,83.1
			c0.6,0.2,1.3,0.4,1.9,0.6C84,83.1,84,83.2,82.6,83.1z M83.7,124c0.7,0.6,0.9,0.3,1.7,0.6C84.8,124,84.9,124.1,83.7,124z
			 M125.5,152.9h0.3c0.1-0.2,0.2-0.4,0.3-0.6c0.9-0.5,0.4-0.3,0.6-0.8c-0.4,0.1-0.7,0.2-1.1,0.3V152.9z M128.3,152.1
			c0.4-0.2,0.7-0.4,1.1-0.6c-0.5-0.1-0.9-0.2-1.4-0.3C128.1,151.5,128.2,151.8,128.3,152.1z M60.5,71.2h0.6
			c-0.1-0.2-0.2-0.4-0.3-0.6C60.7,70.8,60.6,71,60.5,71.2z M64.9,102.9c0.1,0.3,0.2,0.6,0.3,0.8c0.4-0.1,0.7-0.2,1.1-0.3
			C65.8,103,65.9,103.1,64.9,102.9z M55.8,101.8c-0.4-0.1-0.7-0.2-1.1-0.3c0.2,0.3,0.4,0.6,0.6,0.8L55.8,101.8z M67.7,104.3
			c0.2,0.2,0.4,0.4,0.6,0.6C67.9,104.3,68.2,104.7,67.7,104.3z M53.6,97.6c1.1-0.3,0.1-0.4,1.1,0c-0.2-0.3-0.4-0.6-0.6-0.8
			C54,97,53.8,97.3,53.6,97.6z M65.8,146.2v0.3c1.8-0.2,1.2-0.1,3.3,0c-0.7-0.4-1.5-0.7-2.2-1.1C66.4,146.1,66.4,145.5,65.8,146.2z
			 M67.1,157.1c-1.8-0.2-3.5-0.4-5.3-0.6C63,157.5,65.6,157.8,67.1,157.1z M66,70.9c0.4,0.5,0,0.2,0.6,0.6
			C66.4,71.3,66.2,71.1,66,70.9z M58.9,146c0.1,0.2,0.2,0.4,0.3,0.6c0.1-0.2,0.2-0.4,0.3-0.6H58.9z M51.1,114c0.5,0.6,0,0.2,0.8,0.6
			C51.7,114.4,51.4,114.2,51.1,114z M51.4,99.8c-0.4-0.5,0-0.2-0.6-0.6C51,99.4,51.2,99.6,51.4,99.8z M52.8,152.9
			c-0.3-0.2-0.6-0.4-0.8-0.6C52.4,152.9,51.9,152.5,52.8,152.9z M50.6,152.3c0.3,0.2,0.6,0.4,0.8,0.6
			C50.9,152.3,51.4,152.7,50.6,152.3z M51.4,97c-0.8,0.5,0,0.2-1.1,0.3v0.6c0.3,0.1,0.6,0.2,0.8,0.3c0.3-0.4,0.6-0.7,0.8-1.1H51.4z
			 M53.3,148.5h-1.1c-0.1,0.2-0.2,0.4-0.3,0.6c0.5-0.1,0.9-0.2,1.4-0.3V148.5z M47,95.5c-0.1,0-0.2-0.1-0.3-0.1
			c-0.1,0-0.1,0-0.2,0.1c0,0.1-0.1,0.3-0.1,0.4c0,0.1,0.1,0.2,0.2,0.1c0.1-0.1,0.3-0.2,0.4-0.3C47.1,95.6,47.1,95.5,47,95.5z
			 M56.6,101.8c0.1,0.2,0.2,0.4,0.3,0.6C56.8,102.1,57.1,102.1,56.6,101.8z M59.4,103.2c-0.1,0.2-0.2,0.4-0.3,0.6l0.6-0.6H59.4z
			 M59.4,158.2c-0.4-0.5,0-0.2-0.6-0.6C59,157.8,59.2,158,59.4,158.2z M60,146c-0.1,0.2-0.2,0.4-0.3,0.6l0.6-0.6H60z M55,146.2
			c-0.2,0.1-0.4,0.2-0.6,0.3c1.1-0.1,2.2-0.2,3.3-0.3H55z M60.8,156.5h-0.6c-0.2,0.1-0.4,0.2-0.6,0.3c0.5,0.1,0.9,0.2,1.4,0.3
			C61,156.9,60.9,156.7,60.8,156.5z M61.3,136h2.2v-0.6h-0.8C62.3,135.6,61.8,135.8,61.3,136z M63.8,146h-1.7
			C62.9,146.7,63.1,146.5,63.8,146z M60.5,146c0.1,0.2,0.2,0.4,0.3,0.6c0.4-0.2,0.7-0.4,1.1-0.6H60.5z M76,74.2h-1.1
			c-0.5,0.2-0.9,0.4-1.4,0.6v0.3H76V74.2z M72.7,82.9c0.1,0.2,0.2,0.4,0.3,0.6C72.8,83.2,73.2,83.2,72.7,82.9z M71.8,82.9
			c-0.2,0.1-0.4,0.2-0.6,0.3C71.3,83.1,72.4,83,71.8,82.9z M131.6,154.6h-1.4C131.1,155,130.7,155,131.6,154.6z M129.4,152.9
			c0.3,0.2,0.6,0.4,0.8,0.6C129.7,152.9,130.2,153.3,129.4,152.9z M73.5,157.9c-0.8,0-0.7-0.1-1.9-0.3
			C72.3,158.5,72.7,158.5,73.5,157.9z M73.2,156.8c-0.8-0.6-1-0.5-2.2-0.6C71.6,156.8,71.8,156.8,73.2,156.8z M126.3,150.4
			c-0.1,0.2-0.2,0.4-0.3,0.6l0.6-0.6H126.3z M79.9,103.4c-0.5-0.4-0.4-0.4-1.4-0.6c-0.5,0.2-0.9,0.4-1.4,0.6
			c0.9,0.1,1.8,0.2,2.8,0.3V103.4z M71.3,70.1c-0.1,0.2-0.2,0.4-0.3,0.6c0.5-0.1,0.9-0.2,1.4-0.3C72,70.3,71.7,70.2,71.3,70.1z
			 M75.4,89c-0.1-0.2-0.2-0.4-0.3-0.6c-0.1,0.2-0.2,0.4-0.3,0.6H75.4z M71.8,78.4c-0.1,0.2-0.2,0.4-0.3,0.6l0.6-0.6H71.8z
			 M74.9,83.1c-0.4-0.1-0.7-0.2-1.1-0.3C74.4,83.4,74.1,83.3,74.9,83.1z M76.8,70.6c-0.2,0.1-0.4,0.2-0.6,0.3v0.3
			C77,70.9,76.8,70.8,76.8,70.6z M77.7,80.6c-1.3,0.4-1.3,0-3.3,0C75,81.4,76.8,81.5,77.7,80.6z M69.6,70.1
			c-0.2,0.1-0.4,0.2-0.6,0.3h1.1C70,70.3,69.8,70.2,69.6,70.1z M70.7,82.9h-0.3c-1,0.2-2,0.4-3,0.6C68.8,83.5,70.1,83.5,70.7,82.9z
			 M67.1,79.5c-0.1,0.2-0.2,0.4-0.3,0.6c0.5-0.1,0.9-0.2,1.4-0.3C67.9,79.7,67.5,79.6,67.1,79.5z M117.2,109
			c-0.4-0.6-0.7-1.3-1.1-1.9v1.7C116.5,108.8,116.8,108.9,117.2,109z M115.5,148.2c0.3,0.2,0.6,0.4,0.8,0.6
			C115.9,148.2,116.4,148.5,115.5,148.2z M134.1,93.1c0.1,0.2,0.2,0.4,0.3,0.6C134.2,93.4,134.6,93.5,134.1,93.1z M133.8,85.9
			c0.3-0.5,0.3-0.1,0-0.6V85.9z M126.9,90.6h-1.1C126.7,91,126.1,91.2,126.9,90.6z M126.9,88.7c0.6-0.2,1.1-0.4,1.7-0.6h-2.5
			c0,0.9,0,0.4-0.3,1.4c1-0.1,2-0.2,3-0.3C128.2,89.1,127.5,88.9,126.9,88.7z M93.1,90.4h-0.8C93,90.8,92.4,90.6,93.1,90.4z
			 M92.3,79.8v0.6C92.6,79.9,92.6,80.3,92.3,79.8z M94,79.8h-0.8C93.8,80.3,93.2,80.1,94,79.8z M120,148.2c-0.1,0.2-0.2,0.4-0.3,0.6
			c1-0.2,0.8-0.1,1.4-0.6H120z M93.1,80.9c0.1,0.2,0.2,0.4,0.3,0.6C93.3,81.2,93.6,81.3,93.1,80.9z M113.6,148.5
			c0.5,0.1,0.9,0.2,1.4,0.3c-0.3-0.2-0.6-0.4-0.8-0.6C114,148.3,113.8,148.4,113.6,148.5z M114.4,108.7c0.2-0.1,0.4-0.2,0.6-0.3
			c-0.2-0.2-0.4-0.4-0.6-0.6c-0.1,0.2-0.2,0.4-0.3,0.6C114.3,108.5,114.3,108.6,114.4,108.7z M103.7,101.8c0.1,0.2,0.2,0.4,0.3,0.6
			C103.8,102.1,104.2,102.1,103.7,101.8z M106.1,111.5c-0.2-0.3-0.4-0.6-0.6-0.8C105.9,111.5,105.6,111,106.1,111.5z M105,103.7h1.9
			c-0.6-0.5-0.5-0.4-1.7-0.6C105.2,103.3,105.1,103.5,105,103.7z M112.5,114.3V114h-1.7C111.5,114.6,111.2,114.3,112.5,114.3z
			 M111.4,109.5c0.3,0.2,0.6,0.4,0.8,0.6C111.7,109.5,112.2,109.9,111.4,109.5z M102.3,97.3c0.5-0.3,0.2-0.2,0.3-0.6
			C102.5,96.9,102.4,97.1,102.3,97.3z M101.2,96.8c-0.5,0.2-0.9,0.4-1.4,0.6C101.2,97.3,101,97,101.2,96.8z M109.2,103.4h-0.8
			C109.1,103.9,108.4,103.7,109.2,103.4z M108.1,114.3h0.6c-0.1-0.2-0.2-0.4-0.3-0.6C108.3,113.9,108.2,114.1,108.1,114.3z
			 M106.1,88.4c-0.1,0.2-0.2,0.4-0.3,0.6C106.4,88.6,106.3,89,106.1,88.4z M106.7,112.9l0.6-0.6H107
			C106.9,112.5,106.8,112.7,106.7,112.9z M103.4,84.5c0.9,0.5,1.1,0.5,1.7,0H103.4z M108.6,98.1h-1.1
			C108.4,98.5,107.8,98.7,108.6,98.1z M106.1,99.8c-1.1-0.1-2.2-0.2-3.3-0.3C103.6,100.1,105.1,100.3,106.1,99.8z M125.2,159.6H125
			c-0.2,0.3-0.4,0.6-0.6,0.8C125,160,124.8,160.1,125.2,159.6z M170,69.2c0.3-0.5,0.3-0.1,0-0.6V69.2z M141.8,78.4h-2.8
			C139.8,79.3,141,79,141.8,78.4z M168.9,78.7c-0.2-0.2-0.4-0.4-0.6-0.6C168.8,78.7,168.4,78.3,168.9,78.7z M169.5,77.6
			c1-0.1,0.7-0.1,0.8-0.6c-0.3,0.1-0.6,0.2-0.8,0.3V77.6z M168.9,76.2c-0.1,0.2-0.2,0.4-0.3,0.6C169.2,76.5,169,76.8,168.9,76.2z
			 M143.5,61.7c-0.1,0.2-0.2,0.4-0.3,0.6l0.6-0.6H143.5z M141.3,73.7c0.7-0.1,1.5-0.2,2.2-0.3c-0.4-0.1-0.7-0.2-1.1-0.3
			c-0.4,0.1-0.7,0.2-1.1,0.3V73.7z M146.8,78.4h-3C144.7,79.1,145.9,79.2,146.8,78.4z M144.3,70.4H144c-0.2,0.1-0.4,0.2-0.6,0.3
			C144.3,71,143.8,70.8,144.3,70.4z M108.5,156.4c-2.6-0.3-5.3-0.6-7.9-1c-0.1,0.2-0.2,0.4-0.3,0.6
			C102.5,156.1,107.3,157.4,108.5,156.4z M106.1,160.1c-0.1,0.3-0.2,0.6-0.3,0.8h0.8C106.5,160.7,106.3,160.4,106.1,160.1z
			 M97.6,156v-0.6c-0.6-0.1-1.3-0.2-1.9-0.3C96.2,155.9,96.2,155.9,97.6,156z M105.9,157.9c-0.2-0.2-0.4-0.4-0.6-0.6
			C105.7,157.9,105.3,157.5,105.9,157.9z M108.6,156.2c0,0-0.1,0.1-0.1,0.1c0.2,0,0.3,0,0.5,0.1
			C108.9,156.4,108.8,156.3,108.6,156.2z M103.1,157.6c-0.2-0.2-0.4-0.4-0.6-0.6C102.9,157.6,102.6,157.2,103.1,157.6z M97.6,158.5
			c1.8,0.3,3.5,0.6,5.3,0.8C101.7,158.4,99.6,158.4,97.6,158.5z M104.5,160.1c-0.5-0.9-0.4-0.7-1.4-1.1
			C103.5,159.6,103.8,159.8,104.5,160.1z M161.2,71.5c-0.5,0.2-0.9,0.4-1.4,0.6h1.4C161.5,71.5,161.4,72,161.2,71.5z M124.4,101.2
			c0.2,0.2,0.4,0.4,0.6,0.6C124.6,101.2,124.9,101.6,124.4,101.2z M126.3,158.2c-0.2-0.2-0.4-0.4-0.6-0.6h-1.4
			C125,157.8,125.7,158,126.3,158.2z M124.1,154c0.6-0.2,0.3,0,0.3-0.6C124.3,153.6,124.2,153.8,124.1,154z M121.4,157.1
			c0.8,0.3,1.7,0.6,2.5,0.8C123.2,157.1,122.8,157.1,121.4,157.1z M99.2,155.7c-0.5-0.1-0.9-0.2-1.4-0.3
			C98.5,155.9,98.4,155.9,99.2,155.7z M99.5,155.4c0.1,0.2,0.2,0.4,0.3,0.6C99.7,155.7,100,155.8,99.5,155.4z M94,157.9
			c-0.1,0.2-0.2,0.4-0.3,0.6c0.6-0.1,1.1-0.2,1.7-0.3C94.9,158.1,94.4,158,94,157.9z M93.7,159.6h1.7c-0.2-0.2-0.4-0.4-0.6-0.6
			c-0.4,0.1-0.7,0.2-1.1,0.3V159.6z M109.5,152.3c-0.2-0.2-0.4-0.4-0.6-0.6C109.3,152.3,108.9,152,109.5,152.3z M95.9,158.2
			c0.3,0.2,0.6,0.4,0.8,0.6C96.2,158.2,96.7,158.5,95.9,158.2z M142.1,70.6c-1.2-0.1-2.4-0.2-3.6-0.3
			C139.1,71.1,141.1,71.1,142.1,70.6z M151.8,79.8v0.3c0.6-0.1,1.3-0.2,1.9-0.3v-0.3h-1.1C152.3,79.6,152.1,79.7,151.8,79.8z
			 M154,78.4h-0.8C153.9,78.9,153.2,78.7,154,78.4z M154.8,79.5c0.2,0.2,0.4,0.4,0.6,0.6C155,79.5,155.3,79.9,154.8,79.5z
			 M150.4,76.5c-0.1,0.2-0.2,0.4-0.3,0.6C150.7,76.8,150.4,77,150.4,76.5z M158.1,69c0.2,0.2,0.4,0.4,0.6,0.6
			C158.3,69,158.7,69.4,158.1,69z M148.2,78.4c0.9,0.7,3.3,0.5,4.1,0.6C151.4,78,149.3,78.5,148.2,78.4z M159.8,67.9
			c-0.4-0.1-0.7-0.2-1.1-0.3C159.3,67.9,159.2,67.9,159.8,67.9z M146.8,73.7h0.8c-0.2-0.2-0.4-0.4-0.6-0.6
			C147,73.3,146.9,73.5,146.8,73.7z"/>
	</g>
</g>
</svg>
