<?xml version="1.0" encoding="utf-8"?>
<!-- Generator: Adobe Illustrator 19.2.1, SVG Export Plug-In . SVG Version: 6.00 Build 0)  -->
<svg version="1.1" id="Layer_1" xmlns="http://www.w3.org/2000/svg" xmlns:xlink="http://www.w3.org/1999/xlink" x="0px" y="0px"
	 viewBox="0 0 220 220" style="enable-background:new 0 0 220 220;" xml:space="preserve">
<style type="text/css">
	.st0{fill:#BC0525;}
</style>
<path class="st0" d="M207.1,104.7c-1.1,0.4-2.3-0.2-2.7-1.2c-0.4-1.1,0.2-2.3,1.2-2.7c1.1-0.4,2.3,0.2,2.7,1.2l0,0
	C208.7,103.1,208.2,104.3,207.1,104.7z M204.8,87.9c-1,0.6-2.3,0.2-2.9-0.8s-0.2-2.3,0.8-2.9s2.3-0.2,2.9,0.8
	C206.1,86,205.8,87.3,204.8,87.9L204.8,87.9L204.8,87.9z M205,136.2c0,1.2-0.9,2.1-2.1,2.1s-2.1-0.9-2.1-2.1c0-1.2,0.9-2.1,2.1-2.1
	l0,0C204,134.1,205,135,205,136.2L205,136.2z M199.6,71.8c-0.9,0.7-2.2,0.6-3-0.3c-0.7-0.9-0.6-2.2,0.3-3c0.9-0.7,2.2-0.6,3,0.3
	C200.6,69.7,200.5,71,199.6,71.8L199.6,71.8L199.6,71.8z M197.2,149.8c1.1,0.2,1.9,1.3,1.7,2.4s-1.3,1.9-2.4,1.7
	c-1.1-0.2-1.9-1.3-1.7-2.4l0,0C195,150.4,196.1,149.6,197.2,149.8L197.2,149.8z M188.7,57c-0.9-0.7-1-2.1-0.3-3s2.1-1,3-0.3
	s1,2.1,0.3,3l0,0C190.9,57.7,189.6,57.8,188.7,57L188.7,57z M188.9,164.4c1.1,0.4,1.7,1.6,1.3,2.7c-0.4,1.1-1.6,1.7-2.7,1.3
	c-1.1-0.4-1.7-1.6-1.3-2.7l0,0C186.6,164.6,187.8,164,188.9,164.4L188.9,164.4z M183.6,101.8v-0.3c0.3-0.1,0.6-0.2,0.9-0.3
	C184.3,101.4,184.6,101.6,183.6,101.8L183.6,101.8z M182.1,99.2l0.6,0.6l-2.3-0.9L182.1,99.2z M176.1,180.9c-1-0.6-1.3-1.9-0.8-2.9
	c0.6-1,1.9-1.3,2.9-0.8c1,0.6,1.3,1.9,0.8,2.9C178.4,181.1,177.1,181.5,176.1,180.9L176.1,180.9z M178.1,113h0.9v0.3
	C178.1,113.1,178.8,113.6,178.1,113L178.1,113z M167.9,39.2l3.2-4.4l-2.3-1.7l-5.5,2.8l-2.2-1.6l6.3-3.1c-1.2-2.1-0.4-4.8,1.7-6
	c0.5-0.3,1-0.4,1.6-0.5c1.4,0,2.7,0.4,3.8,1.3l4,2.9l-8.6,11.9L167.9,39.2z M175.3,29l-1.9-1.4c-0.6-0.5-1.3-0.7-2.1-0.7
	c-0.7,0.1-1.3,0.5-1.6,1.1c-0.4,0.6-0.7,1.3-0.6,2c0.2,0.7,0.6,1.4,1.3,1.8l1.9,1.4L175.3,29z M159.3,77.5h1.7
	c-0.7,0.2-1.3,0.4-2,0.6C159.1,77.9,159.2,77.7,159.3,77.5L159.3,77.5z M158.7,69.8l1.7,0.3l-2,0.3
	C158.5,70.1,158.6,69.9,158.7,69.8L158.7,69.8z M155.2,31l0.4-3.6l-5.1-2.5l-2.6,2.6l-2.4-1.2L157,15.5l2.1,1l-1.4,15.6L155.2,31z
	 M152.1,23.4l3.8,1.9l0.7-6.4L152.1,23.4z M146.7,58c0,0.6,0.3,0.3-0.3,0.6C146.5,58.4,146.6,58.2,146.7,58L146.7,58z M148.7,60.6
	c-0.9-0.1-3.3,0.2-4.3-0.6C145.6,60.1,147.7,59.6,148.7,60.6L148.7,60.6z M143.3,54.6l0.6,0.6H143C143.1,55,143.2,54.8,143.3,54.6
	L143.3,54.6z M142.6,15.9c-0.5,0.4-1.2,0.7-1.9,0.8c0.7,0.4,1.2,1,1.4,1.7c0.3,0.7,0.3,1.5,0.1,2.2c-0.3,1.2-1,2.2-2.1,2.7
	c-1.3,0.5-2.7,0.5-3.9,0l-5.1-1.4l4-14.1l4.8,1.4c1.3,0.3,2.5,1,3.4,2c0.7,0.9,0.8,2.1,0.4,3.2C143.5,15,143.1,15.5,142.6,15.9
	L142.6,15.9z M134,20.6l2.7,0.8c0.6,0.2,1.3,0.2,2-0.1c1.1-0.6,1.5-2.1,0.9-3.2c-0.3-0.5-0.8-0.9-1.4-1.1l-2.9-0.8L134,20.6z
	 M141,12.1c-0.5-0.5-1.1-0.9-1.7-1l-2.4-0.7l-1.1,4l2.4,0.7c0.6,0.2,1.3,0.2,1.9,0C141.2,14.5,141.6,13.2,141,12.1L141,12.1
	L141,12.1z M125.6,60.3V60l1.1-0.3l8,0.6H125.6L125.6,60.3z M125.8,13.8c-0.1,1.3-0.5,2.6-1.1,3.7c-0.5,1-1.4,1.8-2.3,2.3
	c-2.1,1-4.5,0.7-6.3-0.6c-0.9-0.7-1.6-1.6-1.9-2.7c-0.4-1.2-0.6-2.5-0.4-3.8l0.1-0.8c0.1-1.3,0.5-2.6,1.1-3.7c0.5-1,1.4-1.8,2.4-2.3
	s2.1-0.7,3.2-0.6s2.2,0.5,3.1,1.2s1.5,1.6,1.9,2.7c0.4,1.2,0.6,2.5,0.4,3.8L125.8,13.8z M122.8,9c-0.9-1.5-2.9-2-4.5-1.1
	c-0.3,0.2-0.5,0.4-0.7,0.6c-0.8,1-1.2,2.3-1.3,3.6l-0.1,0.8c-0.2,1.3,0,2.6,0.6,3.8c0.5,0.9,1.4,1.5,2.5,1.6c1,0.1,2-0.2,2.7-1
	c0.8-1.1,1.2-2.3,1.3-3.7l0.1-0.8C123.5,11.5,123.3,10.2,122.8,9L122.8,9z M115,60.9c0,0.6,0.3,0.3-0.3,0.6
	C114.8,61.3,114.9,61.1,115,60.9L115,60.9z M114.7,67.8c0.1-0.2,0.2-0.4,0.3-0.6h0.3L114.7,67.8z M120.7,60.3
	c-0.6-0.1-1.2-0.2-1.7-0.3l0.6-0.3C120.6,60,120.2,59.7,120.7,60.3L120.7,60.3z M119,70.1c0.5,0.4,0.2,0.3,0.3,0.6
	C119.2,70.4,119.1,70.2,119,70.1L119,70.1z M115.6,72.1c0.1-0.3,0.2-0.6,0.3-0.9c0.5,0.2,0.9,0.4,1.4,0.6L115.6,72.1z M116.4,59.2
	v-0.6C116.7,59.1,116.7,58.7,116.4,59.2L116.4,59.2z M115.9,67.8c0.7-0.7,2.7-0.5,3.7-0.9C120.8,66.8,116.4,67.6,115.9,67.8
	L115.9,67.8z M118.1,59.7c0.2,0.2,0.4,0.4,0.6,0.6c-0.4-0.1-0.8-0.2-1.2-0.3L118.1,59.7z M117.9,64.6h0.9
	C117.9,64.9,118.6,65.1,117.9,64.6L117.9,64.6z M121.3,72.6h1.1C121.6,73.2,122.2,73,121.3,72.6L121.3,72.6z M121.6,70h2.6l-1.7,0.6
	l2,0.6c-1.1,0.1-2.1,0.2-3.1,0.3C121.5,71,121.6,70.5,121.6,70L121.6,70z M121.3,60.3v-0.6C121.6,60.3,121.6,59.8,121.3,60.3
	L121.3,60.3z M121,61.5c0.1-0.2,0.2-0.4,0.3-0.6l1.1,0.3L121,61.5z M121.6,58.6c0.5,0.4,0.2,0.3,0.3,0.6
	C121.8,59,121.7,58.8,121.6,58.6L121.6,58.6z M120.7,67.5c0.1-0.2,0.2-0.4,0.3-0.6l5.1,0.3L120.7,67.5z M123,64.6h2.6
	C124.9,65.3,123.7,65.3,123,64.6L123,64.6L123,64.6z M123.6,61.2l0.6-0.3C124.8,61.1,123.6,61.2,123.6,61.2L123.6,61.2z M125.3,60
	c-0.7,0.5-1.7,0.4-2.3-0.3C123.8,59.8,124.5,59.9,125.3,60L125.3,60z M129.6,67.8v-0.6C129.8,67.7,129.9,67.3,129.6,67.8L129.6,67.8
	z M128.1,67.2c0.9,0.4,0.3,0,0.9,0.6C128.7,67.6,128.4,67.4,128.1,67.2L128.1,67.2z M127,67.2h0.9c-0.4,0.2-0.8,0.4-1.2,0.6
	C126.8,67.6,126.9,67.4,127,67.2L127,67.2z M127.9,64.9h2C130.8,66,128.2,65.1,127.9,64.9L127.9,64.9z M132.4,67.5l0.6-0.3
	C133.6,67.3,132.4,67.5,132.4,67.5L132.4,67.5z M135,60h2.9C137.1,60.8,135.8,60.8,135,60L135,60z M137,70.3l0.6-0.3l1.1,0.3H137z
	 M141,70.6h-1.4c0.1-0.2,0.2-0.4,0.3-0.6C140.9,70.3,140.4,70,141,70.6L141,70.6z M139.6,52l0.6-0.3h0.3
	C139.9,52.2,140.4,52.4,139.6,52L139.6,52z M139.9,60h3.1C142.1,60.8,140.8,60.8,139.9,60L139.9,60z M150.1,61.5
	c-0.7,0.1-1.3,0.2-2,0.3v-0.3c0.3-0.1,0.6-0.2,0.9-0.3h1.1V61.5L150.1,61.5z M149.6,60h0.9C149.6,60.3,150.3,60.5,149.6,60L149.6,60
	z M151.9,61.7l-0.6-0.6C151.6,61.3,151.8,61.5,151.9,61.7L151.9,61.7z M151.3,66.3V66l0.6-0.3C151.8,65.9,152,66,151.3,66.3
	L151.3,66.3z M157.3,77.5h0.8v0.3C157.3,77.6,158,78.1,157.3,77.5L157.3,77.5z M157,71.8v-0.3c0.3-0.1,0.6-0.2,0.9-0.3
	c0.4,0.1,0.8,0.2,1.1,0.3L157,71.8z M157.6,70.3c0.1-0.2,0.2-0.4,0.3-0.6c0.1,0.2,0.2,0.4,0.3,0.6H157.6L157.6,70.3z M157,67.2
	c0.3,0.1,0.5,0.3,0.6,0.6C157.4,67.6,157.2,67.4,157,67.2L157,67.2z M157.9,52.9c0.3,0.5,0.3,0.1,0,0.6h-1.4
	C156.9,53.3,157.4,53.1,157.9,52.9L157.9,52.9z M157.9,80.3l0.6-1.4h0.8c-0.5,1-0.2,0.1,0,1.4H157.9L157.9,80.3z M162.4,84.1
	l1.1,0.6C162.5,84.4,163,84.7,162.4,84.1L162.4,84.1z M162.4,83.8l-0.6-0.6C162.1,83.3,162.3,83.5,162.4,83.8L162.4,83.8z
	 M161.3,82.1c0.3,0.2,0.6,0.5,0.6,0.9C161.7,82.6,161.5,82.3,161.3,82.1L161.3,82.1z M160.4,79.8c1.2,0.3,0.9-0.1,1.7,0.9l-2-0.3
	C160.3,80.2,160.3,80,160.4,79.8L160.4,79.8z M162.7,70.3l-0.6-0.6C162.4,69.9,162.6,70.1,162.7,70.3L162.7,70.3z M162.7,71.5
	l0.6-0.3c-0.1,0.1,0.2,0.2-0.6,0.6V71.5z M163.3,77.8c-1.3,0.1-1.1,0.2-2-0.3h2V77.8z M164.1,79.5h0.9l-1.1,0.6
	C164,79.9,164.1,79.7,164.1,79.5L164.1,79.5z M166.1,84.3l-2.3,0.3v-0.3l1.1-0.3L166.1,84.3z M133.5,71.4c-0.1,0.1-0.1,0.2-0.2,0.3
	c0.1-0.2,0.2-0.4,0.3-0.6c0.1,0.2,0.2,0.4,0.3,0.6c-0.1-0.1-0.1-0.2-0.2-0.3c0.9,0,1.7,0,2.6,0.1c0,0.1-0.1,0.2-0.1,0.3
	c0.1-0.2,0.2-0.4,0.3-0.6c0.1,0.1,0.2,0.2,0.3,0.3c3,0.2,6,0.9,8.8,2c3.8,1.5,7.4,3.6,10.5,6.2h0.7c-0.1,0.1-0.3,0.2-0.4,0.3
	c1.5,1.4,2.9,2.9,4.2,4.5l-0.7-1.3h1.7c0.1,0.9-0.5,0.4,0.3,0.9c0,0.5-0.3,1-0.7,1.3c1.2,1.7,2.2,3.5,3.1,5.4c0.2,0,0.3-0.1,0.5-0.1
	l0.6,0.6h-0.8c0.5,1.2,1,2.5,1.4,3.8c1.7,6.3,1.9,12.9,0.4,19.3l-7.8-0.2l-4.6,0.6h4.3v1.4c2.5,0.2,5,0.3,7.5,0.5
	c-0.8,2.9-1.9,5.8-3.3,8.5c-1.3,2.6-2.8,5.1-4.6,7.4l-0.7,1.2c-0.2,0-1.3,1.7-1.5,1.7c-2.2,2.7-4.6,5.1-7.2,7.4
	c-2.7,0-5.6-0.2-6.8-1.2c0.1-0.2,0.2-0.4,0.3-0.6c0.8-0.4,1.7-0.8,2.6-1.1c-2.5,0.1-3.3,0.3-4.9,0c0.5,0.6,0.9,1.1,1.4,1.7
	c-0.1,0.2-0.2,0.4-0.3,0.6c-3.1-0.5-10.2-2-12.6,0.3l0.6,0.6c6.2,0.2,12.5,0.4,18.8,0.5c-11.9,10.3-27.1,17.3-40.7,24.8
	c-0.9,0.4-1.9,0.1-2.3-0.8c-0.2-0.4-0.2-0.9-0.1-1.3c-11.7-6.3-23.5-12.9-33-22.4c-1-1-2.1-2.1-3.1-3.3h0.1
	c-0.4-0.1-0.7-0.3-1.1-0.5l0.6,0.1c-2.7-3.1-5.1-6.6-7.2-10.2c-0.3,0-0.6,0-1.4,0.1v-0.3c0.3-0.2,0.6-0.5,1-0.6
	c-1.7-3.2-3-6.5-3.9-9.9h-1.6c0.5-0.2,0.9-0.4,1.4-0.6l0,0c-0.3-1.2-0.6-2.5-0.8-3.8c-1.7-10.4,0.2-21.5,6.1-30.3
	c0.2-0.3,0.4-0.6,0.6-0.9c4.1,0.4,8.3,0.6,9.2,0.1c-1.7-0.2-5.9,0-8.9-0.5c5.2-7.6,10-12.5,19.4-14c4.5-0.7,13.4,0.9,17.6,3
	c4.1,2.1,9,4.9,11.8,8.6c6.7-7.7,12.8-8.7,18.1-9.2C130.7,71.6,132.1,71.5,133.5,71.4z M65.3,79.5l0.6,0.6
	C65.8,79.8,65.6,79.6,65.3,79.5L65.3,79.5z M70.7,79.5h-2.3c-0.1,0.2-0.2,0.4-0.3,0.6l2.6-0.3L70.7,79.5L70.7,79.5z M129.9,75.2
	c0.1,0.2,0.2,0.4,0.3,0.6C130,75.5,130.4,75.6,129.9,75.2L129.9,75.2z M133.9,75.5v0.6C134.2,75.6,134.1,76,133.9,75.5L133.9,75.5z
	 M131.6,77.2c-0.1,0.2-0.2,0.4-0.3,0.6c2.3,0.1,8.1,0.8,8.6-0.3L131.6,77.2z M133.3,115.3c-1.4-0.2-2.3-0.4-2-1.4
	c-2.1,1.3-3,1.1-6,0.6c-0.1,0.4-0.2,0.8-0.3,1.1c0.1,0.2,0.2,0.4,0.3,0.6h2.3c0,0.9-0.5,0.4,0.3,0.9c0.1-0.8,7.5-0.5,9.7-0.3
	c-0.7-0.3-1.3-0.6-2-0.9v-1.1c-0.8-0.7-0.4,0.3-0.9-0.9c1.3-0.3-0.3-0.9,2.3-1.1c-0.6-0.5-0.8-0.5-2-0.6c-0.6,0.7-2.8,0.9-3.7,0.9
	v0.3c0.6,0.5,0.2,0,0.6,0.9h1.7C133.4,114.4,133.3,114.8,133.3,115.3L133.3,115.3z M125.3,96.4c-0.5,0.2-1,0.4-1.4,0.6
	c1.8,0.1,4.6,0.5,4-0.6H125.3z M126.7,83.8l-0.6-0.6C126.3,83.5,126.5,83.7,126.7,83.8L126.7,83.8z M124.4,83.5l0.6-0.3l-2-0.3v2.3
	C123.7,84.9,124.3,84.3,124.4,83.5L124.4,83.5z M123.6,87.5c0.3,0.2,0.6,0.4,0.9,0.6C123.9,87.5,124.4,87.9,123.6,87.5L123.6,87.5z
	 M124.7,84.9c0.2,0.3,0.5,0.5,0.9,0.6C125.1,84.9,125.6,85.3,124.7,84.9L124.7,84.9z M125,94.9c0.1,0.3,0.3,0.5,0.6,0.6L125,94.9z
	 M125.9,83.8c-0.1-0.2-0.2-0.4-0.3-0.6c-0.1,0.2-0.2,0.4-0.3,0.6H125.9L125.9,83.8z M123.6,113.2h0.6c-0.1-0.2-0.2-0.4-0.3-0.6
	C123.8,112.9,123.7,113.1,123.6,113.2L123.6,113.2z M124.4,98.1l0.6,0.6C124.9,98.4,124.7,98.2,124.4,98.1L124.4,98.1z M127,103.8
	l-0.6,0.3v0.3C127.2,104,126.9,103.9,127,103.8L127,103.8z M126.7,105c0.1,0.2,0.2,0.4,0.3,0.6l0.6-0.3V105l-0.6-0.3
	C126.9,104.8,126.8,104.9,126.7,105L126.7,105z M127,98.7l-0.6-0.6l-0.6,0.3L127,98.7z M127,94.9c0.5,0.2,0.9,0.4,1.4,0.6
	C128.1,95.1,127.5,94.9,127,94.9L127,94.9z M128.1,92.1h-0.6c0.1,0.2,0.2,0.4,0.3,0.6C128,92.5,128.1,92.3,128.1,92.1L128.1,92.1z
	 M127,86.6c0.6-0.2,1.3-0.3,2-0.3c-0.3-0.2-0.6-0.4-0.9-0.6L127,86L127,86.6L127,86.6z M128.4,98.1c0.5,0.6,0,0.2,0.9,0.6
	C129,98.5,128.7,98.3,128.4,98.1L128.4,98.1z M128.7,92.4h0.6c-0.1-0.2-0.2-0.4-0.3-0.6C128.9,92,128.8,92.2,128.7,92.4L128.7,92.4z
	 M129,96.7c0.7,0.5,0.1,0.3,0.9,0H129z M129.6,98.1c0.2,0.3,0.5,0.5,0.9,0.6v-0.9h-0.3L129.6,98.1z M127.3,118.4
	c0.1,0.3,0.2,0.6,0.3,0.9l1.4-0.3L127.3,118.4z M129,127.3c0.4-0.5,0.4,0,0.3-0.6C129.2,126.9,129.1,127.1,129,127.3L129,127.3z
	 M130.1,119c0.4-0.2,0.8-0.4,1.2-0.6h-0.9C130.3,118.6,130.3,118.8,130.1,119L130.1,119z M132.7,123.8l-0.6,0.3
	C132.1,124.1,133.3,124,132.7,123.8L132.7,123.8z M133.6,118.7c-0.3-0.2-0.6-0.4-0.9-0.6C132.9,118.4,133.2,118.7,133.6,118.7
	L133.6,118.7z M140.4,96.9l-1.1-0.6c-0.1,0.2-0.2,0.4-0.3,0.6H140.4z M139.6,114.7c0.4-0.6,0.5-0.2,0.3-0.9
	C139.8,114.1,139.7,114.4,139.6,114.7L139.6,114.7z M139,86.1c0.8,0.6,0.2,0.2,1.4,0.3v-0.3H139z M140.1,81.5
	c-0.1,0.3-0.2,0.6-0.3,0.9C140.3,81.7,140.4,82.2,140.1,81.5L140.1,81.5z M139.6,82.6v0.6C139.9,82.7,139.8,83.1,139.6,82.6
	L139.6,82.6z M139.3,123.3c-0.2,0.3-0.4,0.6-0.6,0.9C139.7,123.8,139.3,124,139.3,123.3L139.3,123.3z M139.3,81.8
	c-0.5-0.1-1-0.2-1.4-0.3C138.2,81.9,138.8,82.1,139.3,81.8L139.3,81.8z M136.1,85.5l-1.7,0.9c0.6,0.2,1.1,0.8,1.1,1.4h1.7
	c-0.2-0.5-0.4-1-0.6-1.4c0.5-0.1,1-0.2,1.4-0.3C137.5,85.9,136.8,85.7,136.1,85.5L136.1,85.5z M137.6,82.1c-0.1-0.4-0.4-0.7-0.9-0.9
	C137,81.5,137.3,81.8,137.6,82.1L137.6,82.1z M135,84.4c0.4,0.6,1.1,0.7,1.7,0.3c0.1-0.1,0.2-0.2,0.3-0.3H135z M134.7,82.4
	c-0.1-0.3,0.2-0.2-0.3-0.6C134.5,82,134.6,82.2,134.7,82.4L134.7,82.4z M133.9,84.9c0.5,0.7,0.2,0.3,0.8,0H133.9z M137,96.7l0.6,0.6
	C137.5,97,137.3,96.8,137,96.7L137,96.7z M137.3,114.4c-0.3,0.1-0.6,0.2-0.9,0.3v0.3c0.5,0,1.1-0.2,1.4-0.6L137.3,114.4L137.3,114.4
	z M133.6,98.7c-0.1-0.2-0.2-0.4-0.3-0.6c-0.1,0.2-0.2,0.4-0.3,0.6H133.6L133.6,98.7z M132.7,84.4h-0.3l-0.6,0.3
	C132.7,85,132.2,84.8,132.7,84.4L132.7,84.4z M133.3,82.4c-0.5-0.6,0-0.2-0.9-0.6C132.7,82,133,82.2,133.3,82.4L133.3,82.4z
	 M133,84.6c0.1,0.2,0.2,0.4,0.3,0.6c0.1-0.2,0.2-0.4,0.3-0.6H133L133,84.6z M134.2,82.4c-0.1-0.3-0.3-0.5-0.6-0.6L134.2,82.4z
	 M135.9,79.5c-0.1-0.2-0.2-0.4-0.3-0.6h-3.4C133.2,79.9,134.6,80.1,135.9,79.5L135.9,79.5z M138.2,78.9c0.6,0.6,0.8,0.6,1.7,0.3
	C139.3,79.1,138.7,79,138.2,78.9L138.2,78.9z M138.2,79.8c1,0.4,0.8,0.5,1.7,0H138.2z M140.4,78.9c0.6,0.6,0.3,0.4,1.4,0.6
	c-0.5,1.2-0.1,1.1-1.2,0.9c-0.5,0.2-0.9,0.4-1.4,0.6c4.3,0.1,5,2,7.1,0l-1.1-0.3H144c0.1-0.6,0.2-1.1,0.3-1.7L140.4,78.9L140.4,78.9
	z M142.2,105.8c-0.1-0.4-0.2-0.8-0.3-1.1v1.1H142.2z M141.9,116.4c0.1,0.3,0.3,0.5,0.6,0.6L141.9,116.4z M142.7,86.6
	c-0.1-0.3-0.3-0.5-0.6-0.6L142.7,86.6z M141.9,114.4h-0.6c-0.1-0.2-0.2-0.4-0.3-0.6c-0.1,0.3-0.2,0.6-0.3,0.9h1.2L141.9,114.4
	L141.9,114.4z M141.9,86.1h-0.6c0.1,0.2,0.2,0.4,0.3,0.6C141.7,86.4,141.8,86.3,141.9,86.1L141.9,86.1z M141.6,116.7
	c-0.3-0.2-0.6-0.4-0.9-0.6c-0.1,0.3-0.2,0.6-0.3,0.9l0.6,0.3l0.6-0.3L141.6,116.7L141.6,116.7z M143.6,84.1l0.6-0.6h-0.3
	C143.8,83.7,143.7,83.9,143.6,84.1L143.6,84.1z M145,116.7c0,0,1.2-0.1,0.6-0.3L145,116.7z M145,78.6c-0.1,0.2-0.2,0.4-0.3,0.6
	c0.2,0.1,0.4,0.2,0.6,0.3l0.6-0.9H145L145,78.6z M146.4,78.9c0.1,0.2,0.2,0.4,0.3,0.6C146.6,79.2,146.9,79.3,146.4,78.9L146.4,78.9z
	 M149.3,116.4h-0.9C148.9,117.1,148.6,116.7,149.3,116.4L149.3,116.4z M148.7,124.4c0.4-0.5,0.5,0,0.3-0.6
	C148.9,124,148.8,124.2,148.7,124.4L148.7,124.4z M149.6,115.3h-1.4C148.9,115.8,148.8,116,149.6,115.3L149.6,115.3z M153.9,112.7
	c-1.2-0.7-4.1-1.4-5.2-1.7c-0.5,1.5-0.2,0.8-1.7,1.1v1.1L153.9,112.7z M150.4,120.4h0.6c-0.1-0.2-0.2-0.4-0.3-0.6
	C150.6,120,150.5,120.2,150.4,120.4L150.4,120.4z M151.9,114.1c0.1,0.3,0.3,0.5,0.6,0.6L151.9,114.1z M150.7,88.4
	c-0.3-0.2-0.6-0.4-0.8-0.6C150.4,88.4,149.9,88,150.7,88.4L150.7,88.4z M149.6,93.2c0.5,0.6,1.4,0.7,2,0.3L149.6,93.2z M151.6,81.2
	l-1.1-0.3C151.1,81.5,150.7,81.4,151.6,81.2L151.6,81.2z M151,91.8c-0.1,0.2-0.2,0.4-0.3,0.6h1.2C151.7,92,151.4,91.8,151,91.8
	L151,91.8z M153.6,85.5c-0.6-0.5-0.8-0.5-2-0.6C152.2,85.5,152.3,85.4,153.6,85.5L153.6,85.5z M149.3,82.1c0.1-0.3,0.2-0.6,0.3-0.9
	c-0.3-0.1-0.6-0.2-0.9-0.3C148.9,81.3,149.1,81.7,149.3,82.1L149.3,82.1z M148.7,88.1v0.6C149,88.1,149,88.6,148.7,88.1L148.7,88.1z
	 M149,84.6v0.3c0.7-0.3,0.5-0.4,0.6-0.6L149,84.6z M148.2,87.8H147c-0.1,0.2-0.2,0.4-0.3,0.6C147.1,88.3,148.8,88.7,148.2,87.8
	L148.2,87.8z M148.4,85.2h-1.7c-0.1,0.2-0.2,0.4-0.3,0.6C147.1,85.6,147.8,85.4,148.4,85.2L148.4,85.2z M148.4,80.6h-0.6
	c0.1,0.2,0.2,0.4,0.3,0.6C148.3,81,148.3,80.8,148.4,80.6L148.4,80.6z M146.7,81.8h0.3c0.1-0.3,0.2-0.6,0.3-0.9
	c-0.1-0.1-0.2-0.2-0.3-0.3C146.9,81,146.8,81.4,146.7,81.8L146.7,81.8z M147.6,77.5c-0.1,0.2-0.2,0.4-0.3,0.6h0.8L147.6,77.5z
	 M155,79.2l-7.7-0.3c1.5,1.4,7.1,1.3,8.3,1.4C155.3,80,155.1,79.6,155,79.2L155,79.2z M155.6,84.9c-0.1,0.2-0.2,0.4-0.3,0.6
	C155.8,85.1,155.7,85.5,155.6,84.9L155.6,84.9z M156.4,81.2c-1.1,0.2-2.3,0.1-3.4-0.3c0.5,0.6,0,0.2,0.9,0.6
	c-0.2,1.2-0.6,0.6,0.6,1.1c0.6-1.1,0.3-0.3,1.1-0.9c-0.1,0.3-0.2,0.6-0.3,0.9C156.3,82.1,156.1,82.4,156.4,81.2L156.4,81.2z
	 M155,85.2l-1.1-0.3C154.5,85.5,154.2,85.4,155,85.2L155,85.2z M153.6,118.7c0.5,0.6,0,0.2,0.9,0.6
	C154.2,119.1,153.9,118.9,153.6,118.7L153.6,118.7z M154.2,121.6v1.1h0.3C154.3,122.3,154.3,121.9,154.2,121.6L154.2,121.6z
	 M138.4,138.7L138.4,138.7c-0.4-0.9,0.2-0.6-0.9-1.1C138.7,138.2,138,137.8,138.4,138.7L138.4,138.7z M138.4,134.1L138.4,134.1
	L138.4,134.1L138.4,134.1L138.4,134.1z M138.4,133.8c0,0.1,0,0.1,0,0.2C138.4,134,138.4,133.9,138.4,133.8L138.4,133.8z
	 M137.9,136.7c-0.2,0-0.4,0.1-0.5,0.3C137.5,136.8,137.7,136.7,137.9,136.7L137.9,136.7z M128.2,136.4c1,0.6,0.1,0.3,1.2,0
	c0.1,0.5,0.2,1,0.3,1.4c-0.1-0.5-0.2-1-0.3-1.4C128.3,136.7,129.2,137,128.2,136.4c-0.1,0.3-0.2,0.6-0.3,0.9
	C128,137,128.1,136.7,128.2,136.4L128.2,136.4z M120.7,143.6h-0.3l-0.6,0.9C120.2,144.2,120.5,143.9,120.7,143.6L120.7,143.6z
	 M115.3,136.4c0.1-0.2,0.2-0.4,0.3-0.6C115.5,136,115.4,136.2,115.3,136.4L115.3,136.4L115.3,136.4z M114.7,141.3
	c-0.1-0.3,0.2-0.2-0.3-0.6C114.5,140.9,114.6,141.1,114.7,141.3L114.7,141.3z M113.9,141.3c-0.2-0.3-0.5-0.5-0.9-0.6
	C113.3,140.9,113.6,141.1,113.9,141.3L113.9,141.3z M112.2,144.2c0.2-0.1,0.4-0.2,0.6-0.3c-0.4-0.2-0.8-0.4-1.2-0.6
	C111.8,143.6,112,143.9,112.2,144.2L112.2,144.2z M101.6,145l-0.6-0.9c-0.1,0.3-0.2,0.6-0.3,0.9H101.6z M100.7,141.9
	c-0.2-0.2-0.4-0.4-0.6-0.6C100.3,141.5,100.5,141.7,100.7,141.9L100.7,141.9z M99.3,144.1c-0.5-0.9-0.4-0.7-1.4-1.1
	C98.2,143.5,98.7,143.9,99.3,144.1z M98.1,154.7H97C97.8,155.3,97.3,155.4,98.1,154.7L98.1,154.7z M97.6,143.3
	c-1.1-0.9-3.3-0.9-5.4-0.9C94,142.7,95.8,143,97.6,143.3L97.6,143.3z M97.9,141.6l-0.6-0.6C97.4,141.3,97.6,141.5,97.9,141.6
	L97.9,141.6z M94.2,139.3c0.1,0.2,0.2,0.4,0.3,0.6C94.3,139.6,94.7,139.7,94.2,139.3L94.2,139.3z M93.9,139.6
	c-0.5-0.1-0.9-0.2-1.4-0.3C92.8,139.7,93.4,139.9,93.9,139.6L93.9,139.6z M92.2,139.9v-0.6c-0.7-0.1-1.3-0.2-2-0.3
	C90.8,139.8,90.8,139.7,92.2,139.9L92.2,139.9z M90.4,142.1c0.3,0.2,0.6,0.4,0.9,0.6C91.1,142.4,90.8,142.2,90.4,142.1z M91.9,155
	c-0.7-0.1-1.3-0.2-2-0.3C90.4,155.3,91.2,155.4,91.9,155L91.9,155z M88.2,143.6h1.7l-0.6-0.6l-1.1,0.3V143.6L88.2,143.6z
	 M89.9,142.1l-1.4-0.3c-0.1,0.2-0.2,0.4-0.3,0.6L89.9,142.1z M76.2,141.9c2.6-0.7,7.6,2.3,10.8,0.9c-3.8-0.3-7.5-1-11.1-2
	L76.2,141.9z M70.7,118.7c0.7,0.6,1,0.3,1.7,0.6C72,118.8,71.4,118.6,70.7,118.7L70.7,118.7z M71.9,108.4c-0.1-0.3-0.3-0.5-0.6-0.6
	C71.5,108,71.7,108.2,71.9,108.4L71.9,108.4z M71.6,79.5c0.7,0.5,0.1,0.3,0.9,0H71.6z M71,85.8c1,0.1,1.9,0.2,2.9,0.3v-0.3
	c-0.4-0.4-0.9-0.6-1.4-0.6C72,85.4,71.5,85.6,71,85.8L71,85.8z M74.7,84.3c-0.2-0.6-0.3-0.5-1.2-1.1c-0.3,0.4-0.4,0.9-0.3,1.4h2
	L74.7,84.3z M75,132.4c-0.3,0.1-0.6,0.2-0.8,0.3v0.3C75,132.9,76,132.2,75,132.4L75,132.4z M75.6,107.5c-0.5-0.6,0-0.2-0.8-0.6
	C75,107.1,75.3,107.3,75.6,107.5L75.6,107.5z M75.3,85.2c-0.3,0.4-0.6,0.8-0.9,1.1h1.4C75.7,86,75.5,85.6,75.3,85.2L75.3,85.2z
	 M77.3,110.1l-0.6-0.6c-0.1,0.2-0.2,0.4-0.3,0.6H77.3z M76.4,133h2.3v-0.3l-0.9-0.3C77.4,132.6,76.9,132.8,76.4,133L76.4,133z
	 M76.7,85.8c0.7,0.7,1.7,0.8,2.6,0.3L76.7,85.8z M77.9,107c0.7,0.6,1,0.3,1.7,0.6C79,106.9,79.1,107.1,77.9,107L77.9,107z
	 M87.9,88.9l-0.6-0.6L87,88.6l0.6,0.6c0.3-0.1,0.6-0.2,0.9-0.3C88.5,88.9,87.9,88.9,87.9,88.9z M86.2,93.8c0.7,0.4,0.3,0.5,1.1,0.3
	C86.9,94,86.5,93.9,86.2,93.8L86.2,93.8z M88.2,113.5c-0.1,0.2-0.2,0.4-0.3,0.6h0.6C88.3,113.9,88.3,113.7,88.2,113.5L88.2,113.5z
	 M89.9,98.4c0.2,0.2,0.4,0.4,0.6,0.6C90.3,98.7,90.1,98.5,89.9,98.4L89.9,98.4z M91,93.5c0.3,0.2,0.6,0.4,0.9,0.6
	C91.4,93.5,91.9,93.9,91,93.5L91,93.5z M91.3,116.4c0.5,0.6,0,0.2,0.8,0.6C91.9,116.8,91.6,116.6,91.3,116.4L91.3,116.4z
	 M88.1,131.6c-2,0-4.1-0.1-6.5-0.1v0.9l-2.6-0.3v0.3c1.4,0.4,1.4,0.7,3,0.8c-3.7,0.5-7.5,0.6-11.2,0.3c0.8-0.6,0.6-0.4,1.7,0
	l0.6-1.1l-4.3-0.6c0.3,0.8,1,1.5,1.9,1.7c-1.3-0.1-2.7-0.2-4-0.3c0.2,0.3,0.4,0.6,0.7,0.9c8.9,2.3,18.3,2.1,27.1-0.7
	c0.6,0,1.1,0,1.7,0c0.2,0.1,0.3,0.2,0.4,0.3c1.8,2.1,3.5,4.2,5.3,6.3l-6.4-0.8c-0.1,0.2-0.2,0.4-0.3,0.6c2.2,0.1,7.2,1.5,8.4,0.4
	c0.2,0,0.3,0,0.5,0.1c2,0.9,5.7,1.8,7.9,1c-2.6-0.3-5.3-0.6-7.9-1c-0.1-0.1-0.3-0.1-0.4-0.2l-0.1,0.1L102,140c1-2.4,1.6-4.9,1.9-7.4
	c0.6-0.1,1.2-0.2,1.8-0.2v-0.3c-0.6,0-1.2,0-1.8,0c0.7-5.1,1.2-10.3,5.3-14c0.7-0.7,1.8-0.6,2.4,0c0.2,0.2,0.3,0.4,0.4,0.7
	c0.9,4.4,2,8.8,3.3,13.2c-0.1,0.1-0.1,0.3-0.2,0.4c0.1,0,0.2,0,0.3-0.1c0.8,2.9,1.7,5.8,2.7,8.7c-0.4,0-0.9-0.1-1.3-0.1l1.4,0.5
	c0.3,1,0.7,1.9,1,2.9l1.5-2.5c0.4,0.1,0.8,0.2,1.2,0.3l-0.6-0.6h-0.5c1.2-2,2.5-4.1,3.8-6.1c0.2-0.1,0.3-0.1,0.4-0.2l-1.1,0.6
	c-0.1-0.3-0.2-0.6-0.3-0.9c0.4,0.1,0.8,0.2,1.2,0.2l0.1-0.1c1.5-2.3,3-3.5,5.7-3.8c7.6-1,15.6-0.5,23.3,0.5c0.6-0.8,1.2-1.6,1.8-2.4
	c-5.1-0.1-10.2-0.2-15.3-0.3c-4.2-0.1-17.5-2.3-17.9,4.1c0,0.4-0.1,0.7-0.4,1h0.1l-0.6,0.6c0-0.1,0.1-0.1,0.1-0.2
	c-0.8,0.5-1.8,0.3-2.3-0.5c-0.1-0.1-0.1-0.3-0.2-0.4c-3.4-9.8-5.7-20-6.8-30.4c-4,8.7-8.1,17.4-12.1,26.1c-0.5,0.8-1.5,1.1-2.3,0.6
	c-0.4-0.2-0.6-0.6-0.7-1c-0.3-1.5-1-2.8-1.9-4C94.3,128.1,91.2,130.3,88.1,131.6z M111.6,132.4c-0.5-0.6,0-0.2-0.8-0.6
	C111,132,111.3,132.2,111.6,132.4L111.6,132.4z M110.1,132.4c-0.3-0.2-0.6-0.4-0.8-0.6l-0.6,0.3
	C109.2,132.2,109.7,132.3,110.1,132.4L110.1,132.4z M104.4,136.1l-0.6-0.6l0,0L104.4,136.1z M122.4,106.7h-0.3
	c-0.1,0.2-0.2,0.4-0.3,0.6L122.4,106.7z M121.3,112.7l0.6,0.6C121.8,113,121.6,112.8,121.3,112.7L121.3,112.7z M119.3,91.8
	c0.3,0.4,0.7,0.7,1.1,0.9C120.1,92.4,119.7,92.1,119.3,91.8L119.3,91.8z M120.4,84.1c-0.1-0.3-0.3-0.5-0.6-0.6L120.4,84.1z
	 M118.7,99.5c0.7,0.5,0,0.3,0.8,0H118.7z M120.2,99.5c0.9,0.4,0.3,0.5,1.2,0H120.2z M119.6,119c0.8,0.5,0,0.2,1.2,0.3
	C120.3,119.2,120,119.1,119.6,119L119.6,119z M112.4,91.5c-0.4-0.7-0.8-1.3-1.1-2v1.7L112.4,91.5z M105.9,96.7
	c0.7,0.6,0.3,0.3,1.7,0.3v-0.3H105.9z M107.3,92.7c-0.2-0.3-0.5-0.5-0.9-0.6C106.7,92.3,107,92.5,107.3,92.7L107.3,92.7z
	 M104.2,85.8h-0.8C104,86.2,103.3,86.1,104.2,85.8L104.2,85.8z M103,96.9h0.6c-0.1-0.2-0.2-0.4-0.3-0.6
	C103.2,96.6,103.1,96.7,103,96.9L103,96.9z M101,94.1l-0.6-0.9C100.5,93.6,100.7,93.9,101,94.1L101,94.1z M98.4,84.1
	c0.1,0.2,0.2,0.4,0.3,0.6C98.6,84.4,99,84.4,98.4,84.1L98.4,84.1z M98.7,96.7c-0.1,0.2-0.2,0.4-0.3,0.6h1.1
	C99.3,97,99,96.8,98.7,96.7L98.7,96.7z M94.4,116.4l-0.6,0.3v0.3C94.6,116.6,94.4,116.5,94.4,116.4L94.4,116.4z M93.6,115
	c0.3,0.2,0.6,0.4,0.9,0.6C93.9,114.9,94.4,115.3,93.6,115L93.6,115z M94.4,79.5c1.4-0.1,1.3-0.4,1.4-0.6
	C95.4,79.1,94.9,79.3,94.4,79.5L94.4,79.5z M95.6,96.7c-0.1,0.2-0.2,0.4-0.3,0.6l0.6-0.6H95.6L95.6,96.7z M97.3,78.9
	c-0.1,0.2-0.2,0.4-0.3,0.6C97.5,79.1,97.2,79.2,97.3,78.9L97.3,78.9z M97.6,81.8c1,0.6,2.3,0.7,3.4,0.3L97.6,81.8z M100.2,85.5
	c-0.1,0.2-0.2,0.4-0.3,0.6h2C101.4,85.6,100.8,85.4,100.2,85.5L100.2,85.5z M101.9,94.9c-0.1,0.2-0.2,0.4-0.3,0.6l0.6-0.6H101.9
	L101.9,94.9z M102.4,80.3c0.9,0.4,0.3,0.5,1.1,0H102.4z M109,80.6l-1.1-0.3l-3.7,0.6h4.9v-0.3H109z M109.6,90.4
	c-0.1,0.2-0.2,0.4-0.3,0.6c0.1,0.1,0.2,0.2,0.3,0.3l0.6-0.3L109.6,90.4z M111.9,93.2v-0.3c-0.2-1-0.4-0.2,0.3-1.1h-0.8
	c-0.2,0.3-0.4,0.6-0.6,0.9L111.9,93.2z M111,83.2v0.3l7.1,0.3c-1-0.7-4.4-0.6-6.6-0.9L111,83.2z M126.7,81.5v-1.2
	c-0.8,0.4-1.7,0.5-2.6,0.3c0.1-1,0.1-2.1,0-3.1l-2.8,0.3l0.8-0.9c-1,0.1-3.6,0.7-2.8-0.3c0.7-0.1,0.2,0.3,0.8-0.3v-1.1
	c-0.4-0.2-0.8-0.4-1.1-0.6c0.2,1.1,1.1,0.8,0.3,1.1c-1,0.4-1.9,0.8-2.9,1.1l0.6,0.9c1.2,0.4,0.5-0.3,0.9,0.9
	c1.5-0.4,1.2-0.8,2.9-1.1v0.3c-0.9,0.4-0.3,0-0.9,0.6c1,0.2,0.6-0.2,0.9,0.6v1.4h-8.9c4.3,0.1,8.5,0.8,12.6,2.3c3,1,5.8-1.6,9.1-1.1
	c-1-0.9-1.6-1.1-1.7-2.3c-1.3,0.1-2.7-0.6-4,0.3c0.8,0.2,1.7,0.4,2.6,0.6l0.6,0.3L126.7,81.5z M85.3,132.1c0.3,0.1,0.5,0.1,0.7,0.2
	c-0.3,0.1-0.7,0.2-1,0.3L85.3,132.1z M83.9,132.9c-0.4,0.1-0.9,0.2-1.4,0.3C83.2,132.3,83.3,132.5,83.9,132.9L83.9,132.9z
	 M119.6,137.9c0.1-0.2,0.2-0.4,0.3-0.6C119.9,137.9,120.2,137.6,119.6,137.9L119.6,137.9z M121.6,136.1c-0.1,0.2-0.2,0.4-0.3,0.6
	H121v-1.1l1.1-0.3C122,135.8,122.5,135.6,121.6,136.1L121.6,136.1z M111,67.8c-0.1-0.2-0.2-0.4-0.3-0.6
	C111.2,67.6,110.9,67.5,111,67.8L111,67.8z M109,65.5l-0.6-0.6C108.7,65,108.9,65.2,109,65.5L109,65.5z M105.3,64.3V64l0.6-0.3
	C105.8,63.9,106,64,105.3,64.3L105.3,64.3z M103,64.9c1.5-0.1-1,0.6-2,0.6C101.7,65.3,102.3,65.1,103,64.9L103,64.9z M100.7,70.9
	c0.1-0.2,0.2-0.4,0.3-0.6C101.2,71,101.2,70.5,100.7,70.9L100.7,70.9z M98.2,66.3h1.7C99.3,66.9,99,66.8,98.2,66.3L98.2,66.3z
	 M101.9,14.6l-3,0.3l0.4,5.4l-2.5,0.2L95.6,5.9l5.6-0.5c1.4-0.2,2.8,0.1,4,0.9c1,0.8,1.7,2,1.7,3.3c0.2,1.3-0.2,2.5-1.1,3.5
	C104.7,14,103.3,14.5,101.9,14.6L101.9,14.6z M104.4,9.8c0-0.7-0.3-1.4-0.9-1.8c-0.6-0.4-1.3-0.7-2.1-0.6l-3.1,0.3l0.4,5.1l3-0.3
	c0.7,0,1.5-0.3,2-0.8C104.3,11.2,104.5,10.5,104.4,9.8L104.4,9.8z M91.3,65.2H95C93.8,65.7,92.5,65.7,91.3,65.2L91.3,65.2z
	 M88.4,61.5c-0.8,0.3-0.1,0.5-0.9,0H88.4z M87.6,62.6c0.5,0.4,0.2,0.3,0.3,0.6C87.8,63,87.7,62.8,87.6,62.6L87.6,62.6z M86.7,62
	v-0.6C87,62,87,61.5,86.7,62L86.7,62z M86.2,55.2h-1.7v-0.3l1.1-0.3C85.8,54.7,86,54.9,86.2,55.2L86.2,55.2z M87.9,21.5
	c-1.6,1.6-3.9,2.3-6.1,1.7c-1.1-0.3-2-1-2.7-1.8c-0.8-1-1.4-2.1-1.7-3.4l-0.2-0.8c-0.4-1.2-0.5-2.6-0.3-3.9c0.2-1.1,0.7-2.1,1.4-3
	c1.6-1.6,3.9-2.3,6.1-1.7c1.1,0.3,2,1,2.7,1.8c0.8,1,1.4,2.2,1.7,3.4l0.2,0.8c0.4,1.2,0.5,2.6,0.3,3.8
	C89.1,19.7,88.7,20.7,87.9,21.5L87.9,21.5z M86.6,15.4l-0.2-0.7c-0.3-1.3-0.9-2.5-1.9-3.4c-1.4-1.1-3.4-0.9-4.6,0.6
	c-0.2,0.2-0.3,0.5-0.5,0.8c-0.4,1.2-0.4,2.6,0,3.8l0.2,0.8c0.3,1.3,0.9,2.5,1.9,3.4c0.8,0.7,1.9,0.9,2.9,0.6c1-0.2,1.8-1,2.2-1.9
	C87,18,87,16.6,86.6,15.4L86.6,15.4z M76.7,64.9c1.4,0.1,1.4-0.1,2,0.6C78.1,65.3,77.4,65.1,76.7,64.9L76.7,64.9z M78.4,55.7h0.9
	c-1.4,1.3-1.7,0.7-4,0.6C76.3,56.1,77.4,55.9,78.4,55.7L78.4,55.7z M74.4,54.9l1.1-0.3c0.2,0.2,0.4,0.4,0.6,0.6h-1.7V54.9L74.4,54.9
	z M58.4,85.2c0.5,0,1.1,0.2,1.4,0.6l-1.1,0.3C58.6,85.8,58.5,85.5,58.4,85.2L58.4,85.2z M59.3,65.5l-0.6-0.6
	C59,65,59.2,65.2,59.3,65.5L59.3,65.5z M60.7,66.6c-1.3,0-1.4,0-2-0.6C59.4,66.2,60.1,66.4,60.7,66.6L60.7,66.6z M60.7,61.2l1.1,0.3
	c-0.5,0.1-0.9,0.2-1.4,0.3C60.5,61.6,60.6,61.4,60.7,61.2L60.7,61.2z M65.9,60l-0.6,0.6c0.1-0.2,0.2-0.4,0.3-0.6H65.9L65.9,60z
	 M65.6,64.6c0.6,0.2-0.6,0.3-0.6,0.3L65.6,64.6z M66.4,64.6c0.5,0.4,0.2,0.3,0.3,0.6C66.6,65,66.5,64.8,66.4,64.6L66.4,64.6z
	 M65.3,70.6h2.3v0.3C66.4,71.1,66.2,71.2,65.3,70.6L65.3,70.6z M67.6,64.6c0.4,0.1,0.8,0.2,1.2,0.3C67.9,65.1,68.2,65.2,67.6,64.6
	L67.6,64.6z M70.2,52.3l0.6-0.3c-0.1,0.1,0.2,0.2-0.6,0.6V52.3z M68.7,70.9c0.1-0.2,0.2-0.4,0.3-0.6c0.1,0.2,0.2,0.4,0.3,0.6H68.7
	L68.7,70.9z M71.6,62.3c-1,0.8-2.4,0.8-3.4,0C70.2,62.4,70.3,62.7,71.6,62.3L71.6,62.3z M67.3,62.3c-1,0.8-5.9,1-6.9,0H67.3z
	 M61,65.2l3.2-0.6h0.3C63.8,65.3,62.5,65.3,61,65.2L61,65.2z M60.7,70.6c0.3-0.1,0.6-0.2,0.8-0.3l1.2,0.3c-0.7,0.1-1.3,0.2-2,0.3
	V70.6z M62.4,80.4c0.5,0.4,0.2,0.3,0.3,0.6C62.6,80.7,62.5,80.5,62.4,80.4L62.4,80.4z M72.4,27.3l-8.7,4.2l1.6,3.2l-2.2,1.1l-2.6-5
	l1.1-0.5c0.3-0.9,0.4-1.9,0.2-2.8c-0.2-1.2-0.5-2.4-1-3.6l-2.5-6l8.3-4.1l5.5,11.3l1.7-0.8l2.4,5.1L74,30.5L72.4,27.3z M65.2,16.8
	l-3.8,1.9l1.6,3.8c1,2,1.4,4.3,1.3,6.6l5.6-2.8L65.2,16.8z M55.9,71.2h0.3l-0.6,0.6C55.7,71.6,55.8,71.4,55.9,71.2L55.9,71.2z
	 M53.2,38.7c-0.8,0.6-1.6,1-2.6,1.2c-0.8,0.2-1.6,0.2-2.4-0.1c-0.7-0.3-1.4-0.8-1.8-1.4l2-1.5c0.4,0.5,1,0.8,1.6,0.8
	c0.7,0,1.4-0.2,2-0.7c0.6-0.4,1.1-1.1,1.4-1.8c0.2-0.6,0.1-1.3-0.3-1.8c-0.4-0.6-1-1-1.7-1s-1.5,0.3-2,0.8l-1.4,1l-1.2-1.6l1.3-1
	c1.4-1.1,1.7-2.2,0.9-3.4c-0.3-0.5-0.9-0.8-1.5-0.8c-0.7,0-1.4,0.3-2,0.7c-0.5,0.4-0.9,0.9-1.1,1.6c-0.2,0.6-0.1,1.2,0.3,1.6l-2,1.5
	c-0.5-0.6-0.7-1.4-0.7-2.1c0-0.8,0.2-1.6,0.6-2.3c0.4-0.8,1-1.4,1.8-2c1.1-0.9,2.4-1.4,3.8-1.4c1.2,0,2.3,0.7,2.9,1.6
	c0.4,0.5,0.6,1.2,0.6,1.8c0,0.7-0.2,1.4-0.6,2.1c0.7-0.3,1.5-0.3,2.3-0.1c0.7,0.2,1.4,0.7,1.8,1.3c0.8,1,1,2.2,0.7,3.4
	C55.3,36.7,54.4,37.9,53.2,38.7L53.2,38.7z M41.3,131v-0.6C41.6,130.9,41.6,130.5,41.3,131L41.3,131z M41,141
	c0.4,0.1,0.8,0.2,1.2,0.3C41.4,141.5,41.7,141.4,41,141L41,141z M39.6,95.8c0.1-0.3,0.2-0.6,0.3-0.9c0.3,0.2,0.6,0.4,0.9,0.6v0.3
	l-0.6,0.3L39.6,95.8z M37.9,119.5l0.6-0.3h2C39.7,119.9,38.7,120,37.9,119.5z M31.1,54.7c-1.1-0.4-1.7-1.6-1.3-2.7s1.6-1.7,2.7-1.3
	s1.7,1.6,1.3,2.7l0,0C33.4,54.5,32.2,55.1,31.1,54.7L31.1,54.7z M31.3,162.1c0.9,0.7,1,2.1,0.3,3s-2.1,1-3,0.3s-1-2.1-0.3-3l0,0
	C29.1,161.4,30.4,161.3,31.3,162.1L31.3,162.1z M22.8,69.3c-1.1-0.2-1.9-1.3-1.7-2.4c0.2-1.1,1.3-1.9,2.4-1.7
	c1.1,0.2,1.9,1.3,1.7,2.4l0,0C25,68.7,23.9,69.5,22.8,69.3L22.8,69.3z M23.4,147.6c0.7,0.9,0.6,2.2-0.3,3c-0.9,0.7-2.2,0.6-3-0.3
	c-0.7-0.9-0.6-2.2,0.3-3C21.3,146.6,22.7,146.7,23.4,147.6L23.4,147.6L23.4,147.6z M17.1,85C16,85,15,84.1,15,82.9s0.9-2.1,2.1-2.1
	s2.1,0.9,2.1,2.1l0,0C19.2,84.1,18.3,85,17.1,85L17.1,85z M16,99.1c0.2,1.1-0.6,2.2-1.7,2.4s-2.2-0.6-2.4-1.7
	c-0.2-1.1,0.6-2.2,1.7-2.4l0,0C14.7,97.2,15.8,98,16,99.1L16,99.1z M12.9,114.4c1.1-0.4,2.3,0.2,2.7,1.2c0.4,1.1-0.2,2.3-1.2,2.7
	c-1.1,0.4-2.3-0.2-2.7-1.2l0,0C11.3,116,11.8,114.8,12.9,114.4L12.9,114.4L12.9,114.4z M15.3,131.2c1-0.6,2.3-0.2,2.9,0.8
	s0.2,2.3-0.8,2.9c-1,0.6-2.3,0.2-2.9-0.8l0,0C13.9,133,14.2,131.8,15.3,131.2C15.2,131.2,15.2,131.2,15.3,131.2L15.3,131.2z
	 M38.7,157v-0.6C39,157,39,156.5,38.7,157L38.7,157z M41.6,175c1,0.6,1.4,1.9,0.8,2.9c-0.6,1-1.9,1.4-2.9,0.8
	c-1-0.6-1.4-1.9-0.8-2.9l0,0C39.3,174.7,40.6,174.4,41.6,175L41.6,175z M44.4,79.2H45c-0.3,0.4-0.6,0.8-0.8,1.1
	c-0.3-0.1-0.6-0.2-0.9-0.3v-0.6C44.4,79.4,43.6,79.7,44.4,79.2L44.4,79.2z M44.4,136.7c-0.3-0.2-0.6-0.4-0.8-0.6
	C44.4,136.5,43.9,136.1,44.4,136.7L44.4,136.7z M44.4,82.1l-0.6-0.6C44.1,81.6,44.3,81.8,44.4,82.1L44.4,82.1z M44.2,96.7
	c0.3,0.2,0.6,0.4,0.8,0.6C44.2,96.9,44.7,97.2,44.2,96.7L44.2,96.7z M45,136.1c0.3,0.2,0.6,0.4,0.9,0.6
	C45.5,136.7,45.2,136.5,45,136.1L45,136.1z M45.3,132.1h1.1v0.3c-0.5,0.1-0.9,0.2-1.4,0.3C45.1,132.5,45.2,132.3,45.3,132.1
	L45.3,132.1z M46.7,141v0.3h-2c0.5-0.2,0.9-0.4,1.4-0.6L46.7,141z M47.3,78.9c0.2,0.3,0.4,0.6,0.6,0.9c-1-0.4,0-0.3-1.1,0
	C46.9,79.5,47.1,79.2,47.3,78.9L47.3,78.9z M49,67.8h-0.6c0.1-0.2,0.2-0.4,0.3-0.6C48.8,67.4,48.9,67.6,49,67.8L49,67.8z M48.4,84.6
	l-0.6-0.9l1.1,0.3L48.4,84.6z M49.9,84.1c0.5,0.4,0.2,0.3,0.3,0.6C50.1,84.4,50,84.3,49.9,84.1L49.9,84.1z M51,129.8l-3.4,0.3
	l0.6-0.3H51L51,129.8z M48.2,162.7c-0.1-0.2-0.2-0.4-0.3-0.6C48.4,162.5,48,162.5,48.2,162.7L48.2,162.7z M52.2,129.6h0.6
	c-0.1,0.2-0.2,0.4-0.3,0.6C52.3,129.9,52.3,129.7,52.2,129.6L52.2,129.6z M53,85.5l-0.6,0.6c0.1-0.2,0.2-0.4,0.3-0.6H53L53,85.5z
	 M53.3,129.6h0.3l-0.6,0.6C53.1,129.9,53.2,129.7,53.3,129.6L53.3,129.6z M53.9,129.6h1.4l-1.1,0.6C54.1,129.9,54,129.7,53.9,129.6
	L53.9,129.6z M54,185.9c1.1,0.4,1.7,1.6,1.3,2.7c-0.4,1.1-1.6,1.7-2.7,1.3c-1.1-0.4-1.7-1.6-1.3-2.7l0,0
	C51.7,186,52.9,185.5,54,185.9C54,185.8,54,185.8,54,185.9L54,185.9z M55.6,129.6h1.7C56.5,130.1,56.4,130.3,55.6,129.6L55.6,129.6z
	 M61.3,141l2.9,0.3C63.4,142,62.3,141.9,61.3,141L61.3,141z M64.7,140.1c1.2,0.1,1.5-0.1,2.3,0.6C65.5,140.7,65.3,140.8,64.7,140.1
	L64.7,140.1z M67.3,141.9c-0.9,0.7-1.2,0.6-2-0.3C66,141.7,66.6,141.8,67.3,141.9L67.3,141.9z M97.4,195.5l-0.4,2l-6.8-1.5l-0.9,4
	l5.9,1.3l-0.4,2l-5.9-1.3l-1,4.4l6.9,1.5l-0.4,2l-9.3-2.1l3.2-14.3L97.4,195.5z M102.3,208.8c0.7-0.7,1.2-1.5,1.4-2.4
	c0.4-1.2,0.6-2.4,0.7-3.6l0.5-6.5l9.2,0.1L114,209h1.9l-0.2,5.7h-2.4l0.1-3.6l-9.6-0.2l-0.1,3.6h-2.4v-5.7H102.3z M111.5,209
	l0.2-10.6l-4.3-0.1l-0.3,4.1c-0.1,2.3-0.7,4.5-1.9,6.4L111.5,209z M123.6,170.5l-0.6-0.6C123.3,170,123.5,170.2,123.6,170.5
	L123.6,170.5z M124.1,170.5v-0.6C124.4,170.4,124.4,170,124.1,170.5L124.1,170.5z M125.6,170.5c-0.3-0.1-0.5-0.3-0.6-0.6
	L125.6,170.5z M125.9,170.5v-0.6C126.1,170.4,126.2,170,125.9,170.5L125.9,170.5z M129.3,169.9h0.8
	C129.5,170.4,130.1,170.3,129.3,169.9L129.3,169.9z M131.3,160.7h-0.6c0.1-0.2,0.2-0.4,0.3-0.6C131.1,160.4,131.2,160.5,131.3,160.7
	L131.3,160.7z M135.3,161v-0.6C135.6,161,135.6,160.5,135.3,161L135.3,161z M127.4,194.5l8.3,13.3l-2.6,0.5l-1.9-3.1l-5.6,1.1
	l-0.5,3.6l-2.6,0.5l2.5-15.5L127.4,194.5z M130.1,203.3l-3.3-5.5l-0.9,6.4L130.1,203.3z M136.2,154.4c0.3,0.2,0.6,0.4,0.9,0.6
	C136.6,155,136.3,154.8,136.2,154.4L136.2,154.4z M140.2,170.7v0.6h-0.6c0.1,0.2,0.2,0.4,0.3,0.6c-0.7-0.1-1.3-0.2-2-0.3
	c0.2-0.3,0.4-0.6,0.6-0.9L140.2,170.7L140.2,170.7z M140.4,170.7h0.9C140.5,171,141.2,171.2,140.4,170.7L140.4,170.7z M153.9,149
	h-0.6c0.1-0.2,0.2-0.4,0.3-0.6C153.7,148.6,153.8,148.8,153.9,149L153.9,149z M156.4,149h-2.3c0.1-0.2,0.2-0.4,0.3-0.6
	C155.1,148.6,155.8,148.8,156.4,149L156.4,149z M162.2,152.7v0.3c-0.8-0.1-0.7-0.1-1.4-0.9h1.2C162,152.3,162.1,152.5,162.2,152.7
	L162.2,152.7z M165.4,188.1c0.9,0.7,1,2.1,0.3,3s-2.1,1-3,0.3s-1-2.1-0.3-3l0,0C163.2,187.5,164.5,187.4,165.4,188.1L165.4,188.1z
	 M166.2,143l0.6,0.3c-0.1,0.3-0.2,0.6-0.3,0.9h-0.3V143L166.2,143z M167,81.5v-0.6C167.3,81.4,167.3,81,167,81.5L167,81.5z
	 M167.3,71.8c-0.2-0.2-0.4-0.4-0.6-0.6C167,71.3,167.2,71.5,167.3,71.8L167.3,71.8z M166.7,83.5h1.2c-0.2,0.4-0.4,0.8-0.6,1.1V84
	l-0.6,0.3L166.7,83.5L166.7,83.5z M168.2,108.1h0.3l-0.6,0.6C168,108.5,168.1,108.3,168.2,108.1L168.2,108.1z M170.2,99.5
	c0,0.6,0.3,0.3-0.3,0.6C170,99.9,170.1,99.7,170.2,99.5L170.2,99.5z M168.7,112.7c-0.1-0.2-0.2-0.4-0.3-0.6c0.8,0.6,1.8,0.9,2.8,0.9
	l-4,0.3C168.1,112.3,167.3,112.8,168.7,112.7L168.7,112.7z M170.4,133.6c-0.1-0.2-0.2-0.4-0.3-0.6
	C170.7,133.4,170.3,133.3,170.4,133.6L170.4,133.6z M171,86.4c0.8,0.1,3.1-0.1,4,0.6c-1.3,0.2-0.9-0.2-1.1,0.6
	c-1.2-0.4-0.3,0-0.9-0.9c-0.5,0.3-0.9,0.6-1.4,0.9l-0.6-0.3V86.4L171,86.4z M173.6,103.8h0.6c-0.2,0.4-0.5,0.7-0.9,0.9
	C173.4,104.4,173.5,104.1,173.6,103.8L173.6,103.8z M173.6,107.5c-0.5-0.4-0.9-0.8-1.4-1.1c1.4,0,1.9,0,2.6,0.6
	C173.5,107.2,173.9,106.8,173.6,107.5L173.6,107.5z M173.3,118.1c0.5,0,1.1,0.2,1.4,0.6C174.3,118.5,173.8,118.3,173.3,118.1
	L173.3,118.1z M174.2,114.1c0.3,0.2,0.6,0.4,0.9,0.6C174.6,114.7,174.3,114.4,174.2,114.1L174.2,114.1z M175.6,104.7v-0.6l1.7,0.3
	c-0.7,0.6-1.6,0.6-2.3,0L175.6,104.7z M176.2,106.4l1.1,0.3c-0.5,0.1-0.9,0.2-1.4,0.3C176,106.8,176.1,106.6,176.2,106.4
	L176.2,106.4z M176.2,118.1l1.1,0.3h-1.7L176.2,118.1z M177.3,84.4c0.2,0.2,0.4,0.4,0.6,0.6C177.6,84.8,177.4,84.6,177.3,84.4
	L177.3,84.4z M175.3,93.8c0.1-0.2,0.2-0.4,0.3-0.6l0.6,0.6H175.3z M175.3,86.9c0.1-0.2,0.2-0.4,0.3-0.6l1.7,0.3L175.3,86.9z
	 M175,69.5h0.9C175.2,70,175.8,69.8,175,69.5L175,69.5z M176.7,84.9c-1-0.3-2.1-0.4-3.1-0.3c0.1-0.3,0.2-0.6,0.3-0.9
	C175.3,83.9,176,83.6,176.7,84.9L176.7,84.9z M204,120c-0.2-1.1,0.6-2.2,1.7-2.4s2.2,0.6,2.4,1.7s-0.6,2.2-1.7,2.4l0,0
	C205.3,121.9,204.2,121.1,204,120L204,120z"/>
</svg>
