<svg xmlns="http://www.w3.org/2000/svg" width="220" height="220" viewBox="0 0 220 220">
  <defs>
    <style>
      .cls-1 {
        fill: #b19f83;
        fill-rule: evenodd;
      }
    </style>
  </defs>
  <path class="cls-1" d="M1789.58,475.4a2.13,2.13,0,1,1,1.28-2.728A2.137,2.137,0,0,1,1789.58,475.4Zm-2.36-17.036a2.132,2.132,0,1,1,.79-2.908A2.12,2.12,0,0,1,1787.22,458.363Zm0.21,48.9a2.14,2.14,0,1,1-2.14-2.13A2.136,2.136,0,0,1,1787.43,507.268Zm-8.66,18.057a2.13,2.13,0,1,1,2.48-1.728A2.126,2.126,0,0,1,1778.77,525.325Zm-10.97-95.779,4.37-3.451-1.8-2.256-6.16,1.2-1.73-2.168,7.05-1.327a4.5,4.5,0,0,1,5.03-5.489,5.969,5.969,0,0,1,3.4,2.315l3.16,3.959-11.71,9.237Zm5.95-4.694,4.12-3.248-1.5-1.88a2.95,2.95,0,0,0-1.87-1.238,2.529,2.529,0,0,0-1.91.623,2.667,2.667,0,0,0-1.11,1.77,2.879,2.879,0,0,0,.77,2.092Zm-16.09-6.782,1.39-3.395-4.33-3.82-3.22,1.788-2.01-1.782,14.14-7.39,1.74,1.537-5.69,14.85Zm4.73-11.475-5.73,3.182,3.24,2.86Zm-19.62-.232,3.41-5.657-5.73-3.414-3.41,5.657-2.23-1.327,7.68-12.75,2.23,1.327-3.2,5.306,5.73,3.414,3.2-5.307,2.22,1.323-7.68,12.75Zm-16.45-8.476,2.02-5.483a14.178,14.178,0,0,1-3.41-.794,6.081,6.081,0,0,1-3.4-2.49,4.424,4.424,0,0,1-.07-3.8l1.63-4.433,2.43,0.883-1.64,4.448a2.676,2.676,0,0,0-.08,2.123,3.178,3.178,0,0,0,1.86,1.316,13.833,13.833,0,0,0,3.4.783l2.4-6.508,2.43,0.885-5.14,13.957Zm-3.24,32.87,5.07,0.315c-2.32.105-4.65,0.209-6.97,0.315C1721.81,431.177,1722.45,430.967,1723.08,430.757Zm-6.33,2.2V432.33C1717.04,432.892,1717.06,432.412,1716.75,432.961Zm-0.32,1.259c0.11-.209.21-0.419,0.32-0.63,0.1,0.211.21,0.421,0.31,0.63h-0.63Zm-0.32-1.259-1.89-.315,0.63-.316C1716,432.635,1715.49,432.311,1716.11,432.961Zm-3.48-.315c0.21-.105.42-0.21,0.64-0.316l0.63,0.631Zm-37.04.63,1.26-.315a1.214,1.214,0,0,1,.64.629h-1.9v-0.314Zm-9.5,34.634h-1.59c0.32-.42.64-0.84,0.95-1.259C1665.67,467.07,1665.88,467.49,1666.09,467.91Zm-4.75-7.557h0.95C1661.39,460.663,1662.14,460.865,1661.34,460.353Zm2.53,6.927V467.6l-3.17-.315,1.59-.629A2.163,2.163,0,0,1,1663.87,467.28Zm-0.32-2.834c0.98,0.657,1.03.637,1.27,1.259,0.21,0.105.42,0.211,0.63,0.315h-2.21A2.193,2.193,0,0,1,1663.55,464.446Zm5.7-19.52c-0.74-.211-1.47-0.421-2.21-0.63C1668.6,444.4,1668.58,444.216,1669.25,444.926Zm-2.21,22.354,2.85,0.315A2.392,2.392,0,0,1,1667.04,467.28Zm12.84-28.109a1.67,1.67,0,0,1-.59-0.08c-0.21-.031-0.41-0.068-0.62-0.107l1.6-.026A0.449,0.449,0,0,1,1679.88,439.171Zm-0.81,31.888-0.63-.631,0.31-.314c0.21,0.209.42,0.42,0.64,0.629h0.63C1679.7,470.848,1679.39,470.953,1679.07,471.059Zm0.95-30.542c-0.9.311-.15,0.512-0.95,0h0.95Zm-0.95,1.26c0.57,0.416.18,0.337,0.32,0.63C1679.28,442.2,1679.17,441.986,1679.07,441.777Zm-0.95-.63v-0.63C1678.41,441.078,1678.43,440.6,1678.12,441.147Zm0,11.335h0.95C1678.17,452.791,1678.92,452.994,1678.12,452.482Zm4.43-26.448c-0.93.656-.55,0.509-1.58,0h1.58Zm-1.58,3.463c0.1-.209.21-0.419,0.32-0.629h1.26A2.067,2.067,0,0,1,1680.97,429.5Zm20.35,26.551c-0.95.393-.46,0.038-0.91,0.561a0.457,0.457,0,0,1-.46-0.474,5.183,5.183,0,0,1,1.37-.417v0.33Zm-5.79,5.25h1.27C1695.89,461.888,1696.57,461.7,1695.53,461.3Zm-1.58-11.02c0.16,0.685.25,0.208-.32,0.63C1693.74,450.7,1693.85,450.488,1693.95,450.278Zm-1.27,17.317c0.11-.21.22-0.42,0.32-0.63,1.28,0.142,1.24.1,1.9,0.63h-2.22Zm1.27-4.409a4.215,4.215,0,0,1-3.8-.314Zm-2.85,2.205c0.57,0.417.18,0.337,0.32,0.629C1691.31,465.81,1691.21,465.6,1691.1,465.391Zm-1.58-5.038c0.1-.21.21-0.42,0.31-0.63C1689.69,460.072,1690.11,459.96,1689.52,460.353Zm13.93-29.281v-0.315l0.63-.315C1704.07,431.046,1704.32,430.853,1703.45,431.072Zm-20.26,13.539h4.11A4.874,4.874,0,0,1,1683.19,444.611Zm3.48,6.611-4.12-.629C1684.22,450.5,1685.88,450.437,1686.67,451.222Zm0,9.131c0.53-.21,1.05-0.42,1.58-0.63C1688.06,459.968,1688.24,460.286,1686.67,460.353Zm-0.77-.883-1.41-.248a1.425,1.425,0,0,1-.34-2.589,3.671,3.671,0,0,1,4.09.6,1.41,1.41,0,0,1-1.69,2.226A1.8,1.8,0,0,1,1685.9,459.47Zm2.67-24.305c0.1-.316.21-0.629,0.31-0.945,0.32,0.1.64,0.21,0.95,0.316v0.313Zm1.58-6.927-0.63-.629A1.2,1.2,0,0,1,1690.15,428.238Zm8.87,2.2c0.28,0.644.35,0.41-.32,0.63C1698.81,430.862,1698.91,430.652,1699.02,430.442Zm4.11,4.723a2.738,2.738,0,0,1-2.85-.316Zm-2.7,2.876h0c0.36,0.286.7,0.578,1.03,0.881a3.707,3.707,0,0,1,.63.713,0.909,0.909,0,0,1,.2.231,0.522,0.522,0,0,1,.36.387,0.284,0.284,0,0,1,.01.158c-0.83.2-1.35,0.121-2.38,0.421,0.11,0.315.21,0.63,0.32,0.945-0.81-.016-1.85-0.069-3.03-0.134a1.462,1.462,0,0,1,1.54-1.25,0.2,0.2,0,0,1-.02-0.075c-0.89-1.14-3.81-.7-4.98-1.079a3.857,3.857,0,0,1-1.86-1.26l-0.2.019v-0.3l-0.06-.091a4.3,4.3,0,0,0-1.01-.2c-0.02,0-.03-0.006-0.05-0.009l-2.55.016a0.445,0.445,0,0,1-.34-0.143,0.459,0.459,0,0,1-.78-0.335c0.01-.208.02-0.417,0.04-0.626a0.477,0.477,0,0,1,.47-0.472c0.24-.016,1.12-0.013,1.98-0.065a0.477,0.477,0,0,1,.37-0.747c0.8-.1,1.65-0.256,2.49-0.387-0.86,0-1.73-.059-2.46-0.1l3.17-.631h2.85a2.492,2.492,0,0,1-1.15.53c0.04,0,.09,0,0.14,0a3.077,3.077,0,0,1,1.77.9,0.582,0.582,0,0,1,.09.067c0.01,0.014.03,0.027,0.04,0.041,0.11,0.094.22,0.186,0.33,0.273,0.77,0.6,1.57,1.182,2.36,1.784,1.44,0.061,2.89.12,4.33,0.18C1703.19,437.767,1701.81,437.974,1700.43,438.041Zm-7.82-2.494v0.006c-0.01.018-.01,0.033-0.02,0.05,0.06,0,.11-0.01.17-0.013a0.167,0.167,0,0,1,.02-0.068C1692.72,435.529,1692.66,435.538,1692.61,435.547Zm3.01,2.87c-0.01.015-.01,0.031-0.02,0.046,0.16,0.019.33,0.035,0.5,0.049C1695.94,438.479,1695.78,438.448,1695.62,438.417Zm11.37,2.617a0.477,0.477,0,0,1,.41-0.71,6.362,6.362,0,0,1,.94.164,1.916,1.916,0,0,1,.93-0.214c0.07-.128.13-0.258,0.2-0.386a1.013,1.013,0,0,0,.09.423,1.363,1.363,0,0,1,.58.261c0.34,0.258.68,0.518,1.01,0.777a20.992,20.992,0,0,1-4.11-.22A0.435,0.435,0,0,0,1706.99,441.034Zm4.66-.12a3.458,3.458,0,0,1,2.5.315c-0.97.046-1.92,0.093-2.84,0.117A0.446,0.446,0,0,1,1711.65,440.914Zm7.89-.041a2.525,2.525,0,0,0,.3.321c-0.62-.041-1.25-0.061-1.88-0.065-0.09-.112-0.18-0.223-0.26-0.339a1.421,1.421,0,0,1-.31-0.135c0.18,0.163.35,0.319,0.53,0.473-0.43,0-.86,0-1.3.01a15.159,15.159,0,0,0-1.93-1.59l4.4-.093c0.06,0.2.13,0.4,0.19,0.592,0.1-.053.21-0.106,0.32-0.159,0.44,0.118.05,0.215-.29,0.269h0C1719.39,440.4,1719.46,440.633,1719.54,440.873Zm1.81-1.179-0.66-.273,1.22-.026A0.426,0.426,0,0,1,1721.35,439.694Zm2.99,0.752a4.18,4.18,0,0,0-.71-1.086l1.19-.026c0.01,0.026.03,0.05,0.04,0.075l0.09,0.146c0.07,0.136.15,0.272,0.21,0.415C1725.41,440.517,1724.6,441,1724.34,440.446Zm17.11-6.856h-0.95c0.1-.21.21-0.419,0.31-0.629C1741.02,433.171,1741.23,433.38,1741.45,433.59Zm-4.44,5.353h3.49A2.859,2.859,0,0,1,1737.01,438.943Zm-0.31-18.891h0.31l-0.63.63C1736.48,420.472,1736.59,420.262,1736.7,420.052Zm0.95,9.76c-0.64.551-.06,0.686-0.95,0.315l0.63-.315h0.32Zm-0.95,3.464c-0.85.1-1.69,0.209-2.54,0.314v-0.314l1.27-.315C1735.85,433.066,1736.27,433.171,1736.7,433.276Zm-5.7-3.464,4.11,0.315C1733.99,430.7,1731.73,430.607,1731,429.812Zm3.8,9.131a2.346,2.346,0,0,1-3.17,0h3.17Zm-7.35.336,3.56-.076a0.163,0.163,0,0,0,.04.037l0.26,0.019h-0.24q1.485,1.471,2.82,3.082c-1.14-.018-2.27-0.049-3.36-0.1Q1729.03,440.727,1727.45,439.279Zm14.31,25.482-0.63.63c0.1-.21.21-0.42,0.32-0.63h0.31Zm2.62-.467h0.39c-0.1.116-.19,0.218-0.28,0.312C1744.45,464.5,1744.42,464.4,1744.38,464.294Zm-10.53,59.03h0.95C1733.9,523.635,1734.64,523.837,1733.85,523.324Zm1.58,2.2a1.72,1.72,0,0,1-.95-1.259C1735.69,524.917,1734.93,524.575,1735.43,525.527Zm-5.38-22.039c-0.95-.407-0.38.014-0.95-0.63C1729.41,503.068,1729.73,503.279,1730.05,503.488Zm-0.95,5.668c0.68,0.182-.64.314-0.64,0.314C1728.67,509.365,1728.89,509.26,1729.1,509.156Zm-2.85-5.353c0.1-.21.21-0.42,0.31-0.63h0.95Zm-1.27,9.13c0.11-.209.21-0.419,0.32-0.629C1725.48,512.984,1725.45,512.408,1724.98,512.933Zm-1.9-9.76c0.63,0.21,1.27.42,1.9,0.63l-1.58.315C1723.29,503.8,1723.19,503.488,1723.08,503.173Zm-3.8,19.206c-0.1-.314-0.21-0.63-0.32-0.945q0.8,0.161,1.59.315C1720.13,521.96,1719.7,522.169,1719.28,522.379Zm-1.9-1.889-0.63.63c0.1-.21.21-0.42,0.31-0.63h0.32Zm-0.63,2.2c-0.11.21-.21,0.42-0.32,0.63h-0.32v-1.259c0.43-.105.85-0.211,1.27-0.316C1717.22,522.376,1717.74,522.136,1716.75,522.694Zm-13.62-4.722c0.32,0.209.64,0.42,0.95,0.629-0.52-.105-1.05-0.209-1.58-0.316Zm2.54,0.629c-0.32-.209-0.64-0.42-0.95-0.629C1705.66,518.379,1705.1,517.959,1705.67,518.6Zm-0.64,3.464a1.214,1.214,0,0,1,.64.629C1705.46,522.485,1705.24,522.274,1705.03,522.065Zm3.17,6.3c-0.32-.21-0.63-0.42-0.95-0.63C1708.19,528.139,1707.63,527.719,1708.2,528.362Zm-2.53,2.2,1.26,0.631-0.63.314C1706.09,531.2,1705.88,530.88,1705.67,530.565Zm0.63-8.5c0.53,0.1,1.05.209,1.58,0.314C1706.91,522.687,1707,522.741,1706.3,522.065Zm2.53,5.667c0.57,0.417.18,0.337,0.32,0.63C1709.04,528.152,1708.94,527.942,1708.83,527.732Zm0.95-4.723c0.11-.21.21-0.419,0.32-0.63h0.32Zm0-5.037h1.27a2.088,2.088,0,0,1-1.58.629C1709.57,518.392,1709.68,518.181,1709.78,517.972Zm4.44,11.019-2.85-.944C1713.02,528.071,1713.48,528.109,1714.22,528.991Zm1.58-24.873c-1.23-.088-0.38.267-1.27-0.315Zm-1.27,20.466c0.11-.211.21-0.421,0.32-0.631C1714.88,524.589,1715.18,524.309,1714.53,524.584Zm7.93-91.935a0.413,0.413,0,0,1,.5-0.022q0.7,0.505,1.38,1.033l5.07,0.56-4.16.16c0.12,0.1.24,0.187,0.35,0.283,0.43,0.3.86,0.616,1.28,0.937h-3.34a3.01,3.01,0,0,0,3.49.12c0.38,0.294.76,0.592,1.13,0.9,0.16,0.1.32,0.2,0.48,0.3a0.457,0.457,0,0,1,.2.274c0.61,0.524,1.2,1.072,1.78,1.631a106.653,106.653,0,0,1-11.54.309,0.271,0.271,0,0,1-.06-0.018,0.017,0.017,0,0,0-.01.018c-2.05-.051-4.02-0.15-5.81-0.287-0.02,0-.03-0.011-0.05-0.015,0.01,0,.01.008,0.02,0.012l-0.57-.045a1.125,1.125,0,0,0,.11-0.055,4.2,4.2,0,0,0-.62-0.056c-0.23,0-.47,0-0.71,0q-0.675-.069-1.29-0.141a1.749,1.749,0,0,1-1.03-.7c-1.6.135-4.32,0.074-4.66-.478l4.53,0.25c-0.02-.06-0.05-0.122-0.08-0.19a1.234,1.234,0,0,1,.5-1.5h8.22l-6.63-.47-0.58-.117c0.02-.012.05-0.025,0.07-0.037q-0.93-.56-1.86-1.116a0.475,0.475,0,0,1,.24-0.88c0.14,0.013.28,0.036,0.42,0.057a0.319,0.319,0,0,1,.08-0.063,2.639,2.639,0,0,1,.43-0.188,3.307,3.307,0,0,1-1.2-1.024,0.5,0.5,0,0,1-.21-0.221,2.152,2.152,0,0,0,.29-0.228h-0.33a0.032,0.032,0,0,0-.02,0,0.184,0.184,0,0,1-.01-0.073c-0.02-.047-0.04-0.089-0.06-0.139a0.382,0.382,0,0,1,.04-0.344,0.823,0.823,0,0,1,.01-0.157l2.28-.088a1.551,1.551,0,0,0,.53.452,2.273,2.273,0,0,1,1.08.995,0.445,0.445,0,0,1,.04.333,37.19,37.19,0,0,1,3.33,1.7,0.413,0.413,0,0,1,.29-0.02,4.767,4.767,0,0,1,1.61.864h0.29c-0.03.069-.05,0.134-0.07,0.193a5.264,5.264,0,0,1,.56.591,0.037,0.037,0,0,0,.02.019l-0.01,0c0.01,0.014.03,0.027,0.04,0.04a0.287,0.287,0,0,1,.05-0.081,2.213,2.213,0,0,0,1.92.188c0.03,0.008.06,0.016,0.1,0.024a0.111,0.111,0,0,1-.01-0.057,3.751,3.751,0,0,0,.92-0.484h-1.18l0.33-.059a0.549,0.549,0,0,1,.46-0.15c0.06,0.008.12,0.021,0.18,0.033,0.18-.031.35-0.062,0.52-0.094,0.01-.016.02-0.034,0.03-0.051a0.51,0.51,0,0,1-.04-0.531c-0.1-.072-0.21-0.142-0.31-0.213h-0.03c0-.01-0.01-0.02-0.01-0.029q-0.75-.515-1.5-1.024a30.048,30.048,0,0,0-5.3-2.785c0.4-.014.81-0.03,1.21-0.046l-1.81-.2c-1.38-.552-2.79-1.049-4.23-1.551q-1.62-.569-3.24-1.134a0.145,0.145,0,0,0,.01.018,3.921,3.921,0,0,0-2.34-.43c0.66,0.535,1.15.5,2.49,0.642a2.3,2.3,0,0,0,.87.721,3.106,3.106,0,0,0,1.56.22,1.216,1.216,0,0,1,1.12.538,2.227,2.227,0,0,1,.25.588c-0.22-.023-0.43-0.048-0.65-0.071-0.42.046-.84,0.094-1.27,0.14,0.01-.039.01-0.079,0.02-0.118-0.53-.11-1.42.132-1.86,0.032-1.46-.326-1.62-1.837-2.64-2.666a0.539,0.539,0,0,1-.14.081c-0.7.256-1.4,0.513-2.09,0.769a0.381,0.381,0,0,1-.48-0.138,5.616,5.616,0,0,0-2.54,0,4.418,4.418,0,0,1-.92.259,1.09,1.09,0,0,1-1.05-.673,4.692,4.692,0,0,0-.61-0.715,29.236,29.236,0,0,1-5.99-1.232,0.473,0.473,0,0,1,.25-0.912c1.57,0.368,3.37.03,4.93,0.5a0.41,0.41,0,0,1,.39-0.206,3.141,3.141,0,0,1,.71.131l0.27,0.055a0.4,0.4,0,0,1,.39-0.188c0.11,0.009.22,0.02,0.33,0.031-6.19-1.545-12.72-1-18.91.6a96.169,96.169,0,0,0-10.98,3.689c-1.91.75-3.95,1.444-5.88,2.309a0.458,0.458,0,0,1-.04.2,9.182,9.182,0,0,0-.5,1.281q1.755-.376,3.48-0.923a0.49,0.49,0,0,1,.54-0.062c0.02,0.011.05,0.022,0.07,0.033a0.384,0.384,0,0,1,.21.273,14.283,14.283,0,0,0,2.52-1,0.488,0.488,0,0,1,.71.347,3.68,3.68,0,0,1,1.63.158,3.136,3.136,0,0,1,1.52,1.04,1.67,1.67,0,0,1,.25.467,0.784,0.784,0,0,1,.07.09,5.681,5.681,0,0,0,1.44,1.477,0.477,0.477,0,0,1,.09.743,1.86,1.86,0,0,0-.61.754c0.15,0,.3,0,0.45,0a0.547,0.547,0,0,1,.18-0.1c0.54-.167,1.07-0.335,1.61-0.5a0.885,0.885,0,0,1,.29-0.2,0.487,0.487,0,0,1,.65.17,0.015,0.015,0,0,1,.01.016,0.96,0.96,0,0,1,1.28.152,0.485,0.485,0,0,1,.1.494,4.989,4.989,0,0,1,.66.336,3.3,3.3,0,0,1,.76.534,0.039,0.039,0,0,1,.02.021,0.427,0.427,0,0,1,.42.332c0.18,0.121.35,0.243,0.53,0.366a0.558,0.558,0,0,1,.23.08c-1.44-.081-2.97-0.164-4.52-0.221-0.06-.043-0.12-0.085-0.19-0.126-0.32-.143-0.64-0.3-0.95-0.464a13.184,13.184,0,0,1-1.63.064,0.476,0.476,0,0,1-.93.111l-0.06-.3a0.336,0.336,0,0,1-.1-0.189c-0.09-.549-0.18-1.1-0.26-1.646v-0.013c-0.19-.086-0.38-0.171-0.57-0.258a0.478,0.478,0,0,1-.22-0.534c0.7-1.987-1.81-2.311-3.15-1.459a3.864,3.864,0,0,1-.35.274h0l-0.09.074a0.451,0.451,0,0,1-.69-0.291,0.125,0.125,0,0,1,.01.06c-0.01.063-.01,0.122-0.02,0.183,0,0,.01.01,0.01,0.015h-0.01a2.9,2.9,0,0,1-.4,1.163l2.95-.533h0.95c-1.43,1.356-1.86.892-3.99,0.67-0.86,1.257-2.63,1.657-3.92,2.565a1.17,1.17,0,0,1-.13-0.206v0.3a3.446,3.446,0,0,0-1.02,1.146,0.408,0.408,0,0,1-.31.229,16.692,16.692,0,0,1-3.19,2.61l0.6,0.6a2.618,2.618,0,0,0,.92-0.024,2.157,2.157,0,0,1-1.31-.647,15.619,15.619,0,0,1,1.59.105,0.918,0.918,0,0,1,.36-0.378,4.178,4.178,0,0,1,2.71-.628,0.962,0.962,0,0,1,.91,1.2,2.224,2.224,0,0,0,1.06,2.286,1.719,1.719,0,0,1,.75.287,1.7,1.7,0,0,1,.57,2.207c-0.56,1.027-2.77,1.315-2.15,2.742,0.43,0.971,1.35,1.381,1.39,2.555a0.431,0.431,0,0,1-.45.455,3.213,3.213,0,0,1-.19,1.869,45.214,45.214,0,0,1-2.65,5.216l-1.89,3.634a0.835,0.835,0,0,1,.17.339c0.13,0.55.26,1.1,0.38,1.649,0.35,0.02.66,0.046,0.92,0.08a2.573,2.573,0,0,1-.85.239c0.26,1.1.51,2.2,0.76,3.3a0.842,0.842,0,0,1,.39.358,9.062,9.062,0,0,1,.84,5.385l0.03-.007a0.987,0.987,0,0,1,.81.185,15.2,15.2,0,0,1-.38-1.927c-0.15-1.206,1.75-1.191,1.9,0a9.613,9.613,0,0,0,1.56,4.193,12.443,12.443,0,0,1,1.74,2.474,5.071,5.071,0,0,1,.21,1.149,3.8,3.8,0,0,0,.82,1.806,1.611,1.611,0,0,1,.19,1.823,1.548,1.548,0,0,1-.43.431c-0.31.164-.25,0.235,0.2,0.211a6.226,6.226,0,0,1,.78.456c0.77,0.669.77,1.726,1.39,2.485,0.79,0.96,2.32,1.454,3.4,1.981,0.65,0.316,3.57,1.3,3.57,2.026a0.961,0.961,0,0,1,1.62-.668,2.9,2.9,0,0,1,.76,1.174,0.46,0.46,0,0,1,.43.014l0.39,0.2a0.52,0.52,0,0,1,.66-0.191q0.66,0.358,1.32.717a7.445,7.445,0,0,1,1.5.371c1.18,0.043,2.39.059,3.11,1.107a4.4,4.4,0,0,1,.53,1.62,2.239,2.239,0,0,0,.14.428,2.765,2.765,0,0,1,.14.255,1.832,1.832,0,0,0,.99.685,1.593,1.593,0,0,1,.88.124,3.036,3.036,0,0,1-.96-1.135,1.808,1.808,0,0,1-.12-1.181,3.693,3.693,0,0,1,.06-0.789,0.487,0.487,0,0,1,.46-0.347c0.11,0,.2-0.007.3-0.014a2.483,2.483,0,0,1,.99-0.325c0.09-.015.18-0.026,0.25-0.035a1.281,1.281,0,0,0,.16-0.109,45.363,45.363,0,0,0-6.25-1.756c-1.3-.269-1.26-1.946-0.34-2.59a4.191,4.191,0,0,1,.72-0.4q0.63-1.527,1.26-3.059c0.07-.195.16-0.352,0.22-0.5-0.12-.074-0.24-0.149-0.36-0.221a2.8,2.8,0,0,0-.51-0.264l-0.6.361a0.48,0.48,0,0,1-.59.582,2.9,2.9,0,0,0-.88-0.179c0.03,0.41.04,0.8,0.05,1.115a0.964,0.964,0,0,1-.7.911,2.152,2.152,0,0,0-1.22.51,0.8,0.8,0,0,1-.49.13,0.784,0.784,0,0,1-1.13.2,3.641,3.641,0,0,1-3.26-1.618c-2.27-3.055-1.3-7.452.92-10.261h0c-0.44.114-.31-0.019-0.91-0.416,0.34,0.086.69,0.171,1.03,0.257,0.08-.089.15-0.177,0.23-0.264a0.484,0.484,0,0,1,.57-0.073,0.146,0.146,0,0,0,.02,0l-0.24.475,0.4-.4a16.916,16.916,0,0,0,2.33.862,3.494,3.494,0,0,1,1.09-.693,1.752,1.752,0,0,1,.5-0.118c0.13,0.089.27,0.176,0.4,0.265-0.32-.21-0.63-0.42-0.95-0.63,0.76,0.327.54,0.121,0.72,0.36,0.31,0.011.58,0.1,0.99,0.112,0.69,0.015.48-.157,0.89-0.539a1.969,1.969,0,0,1,2.24-.256,2.288,2.288,0,0,0,.3.257l0.09,0.092a2.222,2.222,0,0,1,.28.048c1.55,0.38,2.32,2.076,2.83,3.811l0.21-.422c0.31,0.21.63,0.42,0.95,0.631h-1.11c0.24,0.838.41,1.674,0.59,2.363,1.74-.932,1.79-2.84,1.1-4.573a5.193,5.193,0,0,1-.55-3.062c0.39-1.877,2.13-3.053,3.75-3.925a2.377,2.377,0,0,1-.15-1.788,2.175,2.175,0,0,1,.41-1.183c0.05-.124.11-0.245,0.16-0.365a0.543,0.543,0,0,0-.09-0.062h0.12c0.1-.22.2-0.43,0.29-0.62a19.461,19.461,0,0,1,2.6-4.732h-2.06l2.41-.369a4.634,4.634,0,0,1,.79-0.628,5.972,5.972,0,0,1,1.24-.418c1.28,0.351,2.49.74,3.76,1.142,3.52,1.112,6.79-1.9,10.62-1.319-1.19-1.085-1.91-1.248-1.99-2.639-1.49.17-3.15-.725-4.65,0.329,1,0.219,1.99.441,2.99,0.661q0.33,0.163.66,0.33-2.49.657-4.97,1.319v-1.319a4.6,4.6,0,0,1-2.99.329v-0.011a1.305,1.305,0,0,0,.29-0.257,1.57,1.57,0,0,0-.14-0.122c-0.04,0-.09,0-0.14,0a13.47,13.47,0,0,0-.01-3.236l-3.32.33,1-.99c-0.6.03-1.71,0.25-2.52,0.289a2.76,2.76,0,0,1,1.03-.555,0.621,0.621,0,0,1,.08-0.109,1.52,1.52,0,0,1,1.76-.92,5.257,5.257,0,0,1,1.08.51,1.989,1.989,0,0,0,1.6-1.147c0.01-.017.02-0.031,0.03-0.047a1.708,1.708,0,0,1-.45-0.5,1.934,1.934,0,0,1-.25-1.2,1.992,1.992,0,0,1-.5-0.46l-0.21-.274a36.816,36.816,0,0,1-4.7-3.244,4.492,4.492,0,0,1-.47-0.164l-0.13-.1,0.03,0.059c-0.01-.006-0.03-0.011-0.04-0.017a1.9,1.9,0,0,1-.68.176,1.307,1.307,0,0,1-.18.123,0.485,0.485,0,0,1-.57-0.074,8.1,8.1,0,0,0-2.36-1.7,2.556,2.556,0,0,0-1.38.053,2.133,2.133,0,0,1-.46,0,2.88,2.88,0,0,0-1.65.909,2.433,2.433,0,0,0,.04.916,5.454,5.454,0,0,0,1.62,2.126,0.492,0.492,0,0,1,0,.669,3.043,3.043,0,0,0-.42.472v0.074a0.425,0.425,0,0,1-.27.419,2.563,2.563,0,0,0,.53,2.821,0.477,0.477,0,0,1-.58.742c-0.51-.315-1.01-0.63-1.52-0.944a5.808,5.808,0,0,1-1.53-.942,2.7,2.7,0,0,1-.25-1.143c-0.22-.858-1.59-1.283-2.35-1.7q-1.53-.848-3.03-1.736a0.475,0.475,0,0,1-.09-0.742,2.686,2.686,0,0,1,3.68-.2,12.852,12.852,0,0,1,2.17-2.8,5.5,5.5,0,0,1,4.05-1.812,1.286,1.286,0,0,1,1.33,1.071,4.5,4.5,0,0,0,.57.328,1.4,1.4,0,0,0-.31.209c0.13-.029.51-0.105,1-0.2,0.05,0.033-.07.1-0.28,0.174a4.311,4.311,0,0,0,1.12.247,0.973,0.973,0,0,1,.13-0.1,0.256,0.256,0,0,1,.04-0.074c-0.21-.116-0.42-0.223-0.63-0.324,1.63-.334,3.95-0.817,2.93-0.708-0.88.31-2.3,0.273-3.34,0.535-0.11-.045-0.21-0.094-0.32-0.135-0.47-.172-0.44-0.968.12-0.927a4.391,4.391,0,0,1,1.7.451c-0.03-.131-0.06-0.264-0.09-0.4-0.1-.17-0.21-0.339-0.32-0.508a1.324,1.324,0,0,1-.17-0.416l5.98-.1c0.06,0.063.12,0.129,0.19,0.19a0.586,0.586,0,0,1,.07-0.195l0.8-.013a0.352,0.352,0,0,1,.05.1,0.993,0.993,0,0,0,.42.639,0.462,0.462,0,0,1,.48.455l1.77,0.409a0.48,0.48,0,0,1,.82,0c0.13,0.054.27,0.107,0.4,0.16-0.35-.6-0.69-1.209-1.04-1.813l7.43-.123a3.328,3.328,0,0,1,.79,1.325l0.34-.021c0.08-.263.15-0.526,0.22-0.789a0.482,0.482,0,0,1,.94.126,4.776,4.776,0,0,0,.09.938,1.325,1.325,0,0,1,.79.615c0.22,0.395.44,0.793,0.64,1.194a1.3,1.3,0,0,1,.27-0.188c0.03-.191.07-0.38,0.11-0.568a1.965,1.965,0,0,1-.8-0.484h0.86a1.378,1.378,0,0,1-.22-0.986,9.9,9.9,0,0,1-1.62-1.2l0.98-.016,4.71,0.453a6.7,6.7,0,0,1,.93,1.217c0.19,0.282.39,0.566,0.58,0.849h0.56a1.325,1.325,0,0,1,.74-0.434,5.932,5.932,0,0,0,.05-0.953,0.455,0.455,0,0,1,.21-0.384c0.21,0.019.41,0.039,0.61,0.059a0.721,0.721,0,0,1,.07.086,4.755,4.755,0,0,0,1.31,1.538,5.329,5.329,0,0,1,1.5.88c0.24,0.118.49,0.237,0.75,0.364a2.638,2.638,0,0,1,1.59,1.514,1.628,1.628,0,0,1-1.19,1.973v0c0.23,0.306.46,0.611,0.69,0.912s0.45,0.571.68,0.855c0.31,0.253.66,0.49,0.99,0.722,0.03-.07.07-0.139,0.1-0.21,0.21,0.21.43,0.42,0.64,0.63h-0.16c0.15,0.112.29,0.225,0.43,0.339a11.381,11.381,0,0,1,1.2,1.225,1.328,1.328,0,0,1,.95.712c0.04,0.021.08,0.045,0.12,0.069a10.623,10.623,0,0,0-1.42-3.919h-1.12l0.63-.315c0.12,0.03.24,0.059,0.36,0.09-0.16-.282-0.32-0.562-0.49-0.842-1.03-1.748-2.08-3.49-3.12-5.235a0.412,0.412,0,0,1-.04-0.383,1.924,1.924,0,0,1-.15-0.691,2.2,2.2,0,0,1-.13-0.206c-0.01-.01-0.01-0.022-0.02-0.032l3.21-.069a39.317,39.317,0,0,1,3.59,5.185q0.825,0.968,1.59,1.959a26.442,26.442,0,0,1,3.38,5.979h-1.54c0.69,0.7,1.13.745,1.71,0.418,0.09,0.218.18,0.435,0.27,0.654a40.077,40.077,0,0,1,3.29,7.523c0.05,0.161.09,0.324,0.14,0.487a19.674,19.674,0,0,1-1.1-2.157,2.077,2.077,0,0,1-1.31.876q-0.195-.561-0.42-1.111c-1.41.973-2.37,0.328-4.46-.133,0.14,0.581.28,1.163,0.41,1.743a0.487,0.487,0,0,1-.77.489c0,0.017.01,0.035,0.01,0.052a4.428,4.428,0,0,0-1.75-.265,1.947,1.947,0,0,0,1.84.644c0.22,0.948.49,1.889,0.8,2.819a0.824,0.824,0,0,1,.4.468c-0.12-.122-0.25-0.244-0.37-0.366,0.36,1.106.76,2.2,1.13,3.281a37.169,37.169,0,0,1,1.63,5.853,20.947,20.947,0,0,1,.27,2.737c0.01,0.39.17,4.12,1.46,2.864a0.965,0.965,0,0,1,1.59.417,5.019,5.019,0,0,0,.38.98,0.806,0.806,0,0,0,.36.485c0.09-.281.19-0.561,0.29-0.838a1.063,1.063,0,0,1,.24-0.374c-0.05-.448-0.1-0.9-0.15-1.347,0.22-.2-0.04-0.178.08-0.474-0.04.073-.07,0.147-0.11,0.22-0.23-2.12-.47-4.243-0.7-6.364-0.19-1.722-.35-3.45-0.6-5.165-0.41.008-.89-0.054-1.07-0.02,0.11-.21.21-0.42,0.32-0.63h0.66l-0.21-1.252,1.05,0.348a2.046,2.046,0,0,0-1.18-.965c-0.03-.191-0.07-0.384-0.11-0.575l-0.84.24c0.1-.21.21-0.42,0.31-0.629h0.44c-0.04-.171-0.08-0.34-0.13-0.51,0.27-.22.24-0.058,1.99,0.112a50.677,50.677,0,0,1,.87,5.349,0.372,0.372,0,0,1,.24.316c0.19,1.213.4,2.438,0.61,3.668l1.36,0.195a2.237,2.237,0,0,1-1.28.257c0.85,5.014,1.68,10.142,1.04,15.153-0.07.558-.17,1.111-0.27,1.661a0.352,0.352,0,0,1,.01.332c-0.01.037-.03,0.074-0.04,0.112h0a1.1,1.1,0,0,0-.07.149,0.7,0.7,0,0,0-.05.127c-0.15.664-.32,1.321-0.52,1.969,0.46,0.128.95,0.267,1.43,0.415-0.05.109-.11,0.219-0.16,0.328h0.99l-0.03-.064a8.579,8.579,0,0,1,1.49.656c-1.44.119-2.87,0.237-4.3,0.357-0.1.258-.21,0.512-0.31,0.767l-2.82-.067-5.31.659h4.98v1.651q1.02,0.068,2.04.139c-0.15.288-.3,0.574-0.47,0.856a17.022,17.022,0,0,1-.74,1.966c-0.06-.108-0.11-0.216-0.17-0.324l0.33-.659h-0.66c0.15,1.015-.26.537,0.43,1.122a28.83,28.83,0,0,1-1.83,3.318c-0.7,1.125-1.42,2.245-2.13,3.364a90.548,90.548,0,0,1-6.17,10.341,0.354,0.354,0,0,0,.03.124c-0.02-.032-0.03-0.065-0.05-0.1-0.27.393-.54,0.786-0.82,1.175a58.7,58.7,0,0,1-5.37,6.728h0a59.422,59.422,0,0,1,8.77,1.01c0.11-.21.21-0.42,0.32-0.63-0.53-.629-1.06-1.259-1.58-1.888,1.68,0.379,2.6.148,5.38,0l-2.85,1.259c-0.11.21-.21,0.42-0.32,0.629a4.427,4.427,0,0,0,1.53.7c0.07,0.23.13,0.458,0.2,0.689l-13.85.157a4.188,4.188,0,0,1-1.26-.631l0.33-.659c1-.441,1.99-0.881,2.99-1.32-2.92.157-3.87,0.4-5.64,0,0.55,0.66,1.11,1.32,1.66,1.979l-0.33.659a75.3,75.3,0,0,0-8.01-1.027,0.377,0.377,0,0,0,.07-0.054c-0.58-.165-1.17-0.331-1.75-0.5h1.58c0.12,0.114.23,0.228,0.34,0.343a21.476,21.476,0,0,0,3.67-4.2l0.03-.071v0a0.011,0.011,0,0,1,.01-0.012,3.74,3.74,0,0,1,.33-0.558,1.715,1.715,0,0,1,.41-0.194h-0.26c0.03-.035.06-0.076,0.09-0.111,0.03-.052.07-0.1,0.1-0.151l-0.6-.4a1.293,1.293,0,0,1,.67.294,4.138,4.138,0,0,1,.96-1.028,11.98,11.98,0,0,1,2.38-1.072c0.05-.031.11-0.062,0.16-0.1,0.32-.2.65-0.4,0.97-0.6,1.71-1.371,2.35-3.671,2.9-5.719a16.256,16.256,0,0,1,2.54-5.733c1.23-1.646,2.99-3.381,2.94-5.549a1.6,1.6,0,0,1-1.14-.011,10.288,10.288,0,0,0-2.12-1.156,32.312,32.312,0,0,0-4.66-.358,7.2,7.2,0,0,1-3.5-1.122,5.732,5.732,0,0,1-.64-0.525h-1.15c-0.1-.21-0.21-0.42-0.31-0.629,0.06-.233.11-0.465,0.17-0.7-0.16-.177-0.33-0.35-0.5-0.52a1.638,1.638,0,0,0,1-.544h-0.66c-0.23.075-.45,0.15-0.68,0.224a3.642,3.642,0,0,0-1.98-.98c0.87-.357-0.37-1,2.33-1.223-0.73-.577-0.89-0.578-2.33-0.658-0.54.633-2.39,0.935-3.6,0.988-0.19-.088-0.37-0.177-0.55-0.269a9.2,9.2,0,0,1-3.96-1.684c-0.1-.078-0.21-0.147-0.31-0.212-1.53-.077-2.84.89-4.43,0.572a4.319,4.319,0,0,1-1.65-.7,7.334,7.334,0,0,1-1.47.4,1.174,1.174,0,0,1-.23.26c-0.77.662-1.78,0.113-2.59,0.489L1698,497.6a0.8,0.8,0,0,1-.09.136q-0.135.318-.27,0.641a0.48,0.48,0,0,1-.54.216,8.387,8.387,0,0,0-1.66-.316c-0.17.05-.34,0.09-0.51,0.124a0.474,0.474,0,0,1-.02.368,13.787,13.787,0,0,0,2.36,1.24,0.474,0.474,0,0,1,0,.816,0.819,0.819,0,0,0-.34.364,1.4,1.4,0,0,1,.57,1.96c-0.16.215-.31,0.428-0.46,0.642a1.63,1.63,0,0,1-.03.232,2.417,2.417,0,0,1-.53,1.022,11.029,11.029,0,0,0-1.79,2.174,4.774,4.774,0,0,0-.29,3.18,0.483,0.483,0,0,1-.59.581l-0.57-.084a1.2,1.2,0,0,1-.27.146c0.51,2.781,3.56,4.484,4.88,6.889,0.06,0.109.11,0.225,0.17,0.342l1,0.013V518.6l-0.82.111c0.04,0.1.07,0.2,0.11,0.291l1.65,1.811c0.48,0.167.99,0.253,1.47,0.381a8.89,8.89,0,0,1,.97.311,1.347,1.347,0,0,0-.08.174l0.15-.148a2.164,2.164,0,0,1,1.32,1.114,6.418,6.418,0,0,1-.13,3.014,1.115,1.115,0,0,1-.01.86c-0.13.33-.27,0.659-0.41,0.984-0.03.173-.08,0.343-0.12,0.513l2.86,0.345a7.555,7.555,0,0,1-3.04.348c-0.14.469-.28,0.935-0.44,1.394-0.17-.169-0.35-0.339-0.52-0.509h-1.65l2.13,0.608q-0.285.821-.63,1.619a24.539,24.539,0,0,1-1.4,2.718,1.27,1.27,0,0,1-.07.5,5.1,5.1,0,0,1-2.21,2.713,25.788,25.788,0,0,1-1.98,2.1,11.993,11.993,0,0,0,2,.434c0.47-.077.94-0.159,1.41-0.251-0.11-.179-0.23-0.359-0.35-0.539a0.478,0.478,0,0,1,.28-0.694,23.232,23.232,0,0,1,3.38-1.076,0.786,0.786,0,0,1,1.14-.237,0.568,0.568,0,0,1,.45.161,6.727,6.727,0,0,0,.61-0.533q0.705-.969,1.41-1.935a0.973,0.973,0,0,1,.81-0.432c0.08-.064.15-0.133,0.23-0.2a1.007,1.007,0,0,1,.9-0.2c0.7-.419,1.42-0.8,2.13-1.171,1.1-.575,2.16-1.185,3.17-1.846l11.36,0.325a42.57,42.57,0,0,1-4.39,2.479,85.814,85.814,0,0,1-19.03,7.381,42.052,42.052,0,0,1-9.8,1.131,22.13,22.13,0,0,1-8.08-1.21l-4.62-.433c-3.53-.331-6.99-0.584-10.25-2.065a79.265,79.265,0,0,1-7.89-4.679c-2.38-1.429-4.96-2.543-7.32-4,2.8,0.672,6.03,1.712,8.46.656a59.4,59.4,0,0,1-9.79-1.536c-0.25-.173-0.48-0.349-0.72-0.53a3.083,3.083,0,0,1-1.73-.8l0.83,0.081a45.517,45.517,0,0,1-7.26-7.95c0.69-.535.63-0.231,1.76,0.182l0.66-1.319-3.59-.476c-0.69-.974-1.36-1.948-2-2.908-0.07.142-.15,0.284-0.22,0.425-0.1-.21-0.21-0.419-0.31-0.629h0.39a63.619,63.619,0,0,1-4.39-8.665,48.782,48.782,0,0,1-3.48-9.024,100.732,100.732,0,0,1-1.73-10.066,49.437,49.437,0,0,1-.58-10.451,0.922,0.922,0,0,1,.44-0.737c0.04-.9.12-1.789,0.23-2.677,0-.126-0.01-0.249-0.01-0.373a0.891,0.891,0,0,1,.13-0.479,41.31,41.31,0,0,1,1.6-6.631c0.2,0.194.39,0.387,0.59,0.582a1.111,1.111,0,0,0-.58-0.6c0.37-1.141.79-2.273,1.24-3.392,4.67,0.419,9.24.639,10.28,0.032-1.93-.26-6.63-0.016-10.06-0.56,0.27-.64.54-1.278,0.83-1.91-0.51-.271.14-0.111-0.92,0.165l0.63-.945,0.39,0.571a94.236,94.236,0,0,1,5.88-10.652,54.759,54.759,0,0,1,10.3-12.365,35.974,35.974,0,0,1,8.76-6.554v-0.281c0.22-.105.43-0.211,0.64-0.315a0.929,0.929,0,0,1-.07.274h0c0.25-.139.49-0.272,0.74-0.408h0.13a0.214,0.214,0,0,1-.04-0.052c0.45-.25.91-0.5,1.36-0.749a0.444,0.444,0,0,1,.4-0.029,42.185,42.185,0,0,1,12.41-4.286c7.85-1.582,16.82-3.331,24.48-.38l3.18,1.111c1.78,0.546,3.59,1.066,5.41,1.6-0.48.158-.95,0.316-1.43,0.474l2.63-.119a75.8,75.8,0,0,1,9.87,3.556,2.283,2.283,0,0,1,1.4.581c-0.08-.011-0.16-0.018-0.24-0.026C1721.24,431.985,1721.86,432.305,1722.46,432.649Zm-10.53,3.824c-0.23.088-.46,0.174-0.7,0.261v0.48a1.384,1.384,0,0,1,.08.644,10,10,0,0,0,1.24-.076A5.173,5.173,0,0,1,1711.93,436.473Zm-0.81-2.738c-0.04.02-.09,0.037-0.13,0.053,0.07,0.026.14,0.058,0.22,0.087a0.306,0.306,0,0,1,.07-0.069Zm8.25,3.146a0.159,0.159,0,0,0,.04.032v-0.02Zm2.83-3.286,0.18,0.143,0.06-.007C1722.36,433.687,1722.28,433.641,1722.2,433.6Zm2.22,5.174,2.69,0.19c-0.04-.041-0.09-0.086-0.13-0.128-1.31-1.082-2.68-2.111-4.08-3.111a2.013,2.013,0,0,1-.57.194c-0.03.114-.06,0.226-0.08,0.34a5.044,5.044,0,0,0,.02.785,10.106,10.106,0,0,0,1.7,1.226A3.588,3.588,0,0,1,1724.42,438.769Zm-3.09-.635c-0.18-.033-0.35-0.064-0.52-0.1q0.45,0.381.9,0.778c0.24-.061.49-0.122,0.74-0.184l0.78,0.055-0.47-.032A4.183,4.183,0,0,0,1721.33,438.134Zm-59.02,7.223c-0.02.1-.04,0.2-0.06,0.3,0.05-.07.11-0.14,0.16-0.209C1662.38,445.419,1662.34,445.39,1662.31,445.357Zm0.54,4.424h-1C1662.69,450.318,1661.91,450.106,1662.85,449.781Zm-1.55,2.052h0.05c-0.02-.048-0.03-0.1-0.05-0.148v0.148Zm-0.74-8.813a0.477,0.477,0,0,1,.08-0.119,1.251,1.251,0,0,0,.02-0.194c-0.04.022-.09,0.048-0.13,0.073a0.5,0.5,0,0,1,.03.181v0.059Zm19.09,37.775a0.121,0.121,0,0,0,.01.058,0.1,0.1,0,0,1,.02-0.053Zm1.44-3.31-0.33.66h0.66C1681.31,477.926,1681.2,477.705,1681.09,477.485Zm1.8,1.31c0.02,0.007.03,0.017,0.05,0.026,0.01-.031.03-0.06,0.04-0.091Zm1.44,3.238v-0.115a0.88,0.88,0,0,1-.08.138A0.6,0.6,0,0,1,1684.33,482.033Zm1.73-4.218h-1.99c0.7,0.582.47,0.44,1.46,0.36a0.818,0.818,0,0,1,.11.078c-0.01-.028-0.03-0.055-0.04-0.083,0.13-.01.28-0.019,0.46-0.025v-0.33Zm0.27-1.464c0.02,0.026.04,0.054,0.06,0.085,0.11-.091.22-0.172,0.33-0.248A0.93,0.93,0,0,0,1686.33,476.351Zm1,10.934c-0.04.09-.07,0.18-0.11,0.271,0.04-.036.08-0.074,0.12-0.1C1687.34,487.4,1687.33,487.34,1687.33,487.285Zm-1.91-39.31-0.03.013c0.02,0.014.05,0.026,0.07,0.04A0.152,0.152,0,0,1,1685.42,447.975Zm2.99,0.522a0.012,0.012,0,0,0-.01.013l0.03,0.021A0.065,0.065,0,0,1,1688.41,448.5Zm2.97,4.195a0.758,0.758,0,0,1-.09.058c0.04,0.029.08,0.059,0.12,0.091,0.01,0,.01.009,0.02,0.014A1.047,1.047,0,0,1,1691.38,452.692Zm3.31-8.847-0.33.659,0.66-.659h-0.33Zm10.94,4.617c-0.77-.22-1.55-0.439-2.32-0.659,0.66-.22,1.33-0.44,1.99-0.66h-2.98a2.975,2.975,0,0,1-.34,1.649C1703.2,448.683,1704.42,448.572,1705.63,448.462Zm-3.98-4.947-0.33.66,6.3-.33Zm5.71,9.914a1.405,1.405,0,0,1-.25.02c-0.05,0-.1-0.009-0.15-0.015,0.05,0.412.09,0.82,0.1,1.227a1.461,1.461,0,0,1,.65,1.065,2.236,2.236,0,0,0,.11-0.245,0.481,0.481,0,0,1,.82,0c0.14,0.065.27,0.129,0.41,0.194A5.517,5.517,0,0,0,1707.36,453.429Zm1.26-9.584-0.33.659,1.32-.659h-0.99Zm1.32,0c0.34,0.22.67,0.44,1,.659C1710.34,443.83,1710.93,444.271,1709.94,443.845Zm25.91,6-0.03,0c0.03,0.06.07,0.12,0.1,0.18A1.321,1.321,0,0,1,1735.85,449.849Zm10.25,41.158c-0.11.221-.23,0.44-0.34,0.66l0.67-.66h-0.33Zm0.66-18.8-0.33.659h0.99Zm0.66,25.395v-1.649c-0.66.329-1.32,0.658-1.99,0.989A2.794,2.794,0,0,1,1747.42,497.6Zm-4.01-12.831a0.055,0.055,0,0,0,.02.031,1.879,1.879,0,0,1,.02-0.235c-0.09-.021-0.19-0.044-0.28-0.074A1.834,1.834,0,0,1,1743.41,484.773Zm0.36,15.8c0.11-.22.23-0.44,0.34-0.66h-0.67Zm-22.88,24.4a1.814,1.814,0,0,0,.99,1.32C1721.36,525.3,1722.16,525.657,1720.89,524.977Zm-5.97-64.312,0.99,0.66C1715.32,460.651,1715.91,461.092,1714.92,460.665Zm3.98-2.639-0.33-.659h-3.98C1715.69,458.666,1717.75,458.552,1718.9,458.026Zm-2.65,2.639,0.66,0.66A1.246,1.246,0,0,0,1716.25,460.665Zm0.99,0,0.33,0.66C1717.43,461.019,1717.84,461.1,1717.24,460.665Zm0.66,2.969c0.91,1,1.64.634,2.33,0h-2.33Zm2.99-2.639a1.4,1.4,0,0,0-1-.99C1720.23,460.336,1720.56,460.665,1720.89,461Zm-9.29-17.15V444.5C1711.93,443.929,1711.9,444.432,1711.6,443.845Zm0.33,9.234c0.11,0.22.23,0.44,0.34,0.66C1712.12,453.433,1712.53,453.516,1711.93,453.079Zm3.65-9.234-0.66.33S1716.3,444.037,1715.58,443.845Zm0.67,4.617c-0.11.22-.23,0.44-0.34,0.659h0.67Zm0.33,4.948v0.658C1716.9,453.493,1716.88,454,1716.58,453.41Zm2.65-4.289h1c-0.23-.219-0.45-0.439-0.67-0.659Zm0.83-4.444c0,0.008-.01.015-0.01,0.023a0.154,0.154,0,0,1,.03,0A0.175,0.175,0,0,0,1720.06,444.677Zm0.83,2.466-0.66.33h1.99C1721.77,447.363,1721.33,447.252,1720.89,447.143Zm-6.97,8.245-0.33.66c2.74,0.122,9.39.914,9.95-.33Zm9.62,2.309c-0.66-.111-1.32-0.22-1.99-0.33C1722.27,458.1,1722.51,458.1,1723.54,457.7Zm-1.99.659c1.15,0.5.97,0.561,1.99,0h-1.99Zm3.28-13.644c0.01,0.009.01,0.018,0.02,0.027a0.018,0.018,0,0,1,.01-0.019Zm-1.29,2.431-0.33.66h1.66C1724.22,447.122,1724.74,447.461,1723.54,447.143Zm6.48,5.475c0.05,0.1.1,0.207,0.14,0.31,0.04,0,.08,0,0.11,0C1730.19,452.824,1730.11,452.722,1730.02,452.618Zm-0.51,4.419c-0.11.221-.22,0.44-0.33,0.66l0.66,0.329c0.23-.329.45-0.659,0.67-0.989h-1Zm1.66,0.33,0.33,0.659C1731.36,457.721,1731.77,457.8,1731.17,457.367Zm0.66,1.979-0.33,1.319h0.33c0.11-.329.23-0.66,0.34-0.989C1732.06,459.566,1731.94,459.455,1731.83,459.346Zm0.67-3.628c-0.11.22-.22,0.439-0.33,0.66h0.99C1732.94,456.157,1732.72,455.938,1732.5,455.718Zm9.62,2.638c0.56,0.818.2,0.386,0.99,0h-0.99Zm-3.18,2.782c0.06-.169.13-0.417,0.29-0.785-0.23-.036-0.39-0.056-0.53-0.072C1738.78,460.566,1738.86,460.851,1738.94,461.138Zm-0.23.3a2.576,2.576,0,0,1-.54-0.1A2.508,2.508,0,0,0,1738.71,461.438Zm-0.05-2.561a1.016,1.016,0,0,1-.01.172q-0.06.338-.09,0.674h0.28c0.52,0.6-.01.2,0.95,0.613-0.17,1.338-.7.739,0.67,1.319,0.66-1.324.36-.389,1.32-0.99l-0.33.99c0.13-.067.24-0.121,0.33-0.169a0.543,0.543,0,0,1-.02.126h1.27l0.38,0.1c-0.21-.505-0.44-1-0.67-1.5-0.01,0-.01-0.006-0.02-0.009,0.02-.062.04-0.124,0.06-0.195l-0.37.043a0.094,0.094,0,0,1-.01-0.01c0.04-.088.08-0.177,0.13-0.266a64.352,64.352,0,0,0-4.89-8.123c-0.14-.17-0.29-0.342-0.43-0.512a9.762,9.762,0,0,1,.18,3.59v0.006h0c-0.01.043-.01,0.084-0.02,0.126a0.376,0.376,0,0,1-.27.322c0.22,0.728.41,1.459,0.58,2.2a1.6,1.6,0,0,1,.08.195l-5.59-.206C1733.24,458.38,1736.24,458.73,1738.66,458.877Zm-5.83.469,0.33,0.659,0.33-.659h-0.66Zm1.66,1.649c0.11-.33.22-0.659,0.33-0.99-0.33-.109-0.66-0.219-1-0.329C1734.05,460.115,1734.27,460.555,1734.49,461Zm-0.67,6.926v0.659C1734.15,468.005,1734.13,468.507,1733.82,467.921Zm0.34-3.958v0.331c0.85-.377.57-0.519,0.66-0.66Zm0.99,3.627c0.6,0.674.01,0.233,1,.661C1735.81,468.031,1735.48,467.811,1735.15,467.59Zm1.99-7.585c-0.44-.109-0.88-0.219-1.33-0.329C1736.57,460.36,1736.16,460.225,1737.14,460.005Zm-2.32,13.852a1.716,1.716,0,0,0,2.32.331C1736.37,474.077,1735.59,473.967,1734.82,473.857Zm1.66-1.648-0.33.659h1.32C1736.88,472.194,1737.47,472.635,1736.48,472.209Zm3.65,35.619h0.33l-0.33-1.32v1.32Zm0.33-3.959c-0.33-.219-0.67-0.439-1-0.659C1740.06,503.884,1739.47,503.444,1740.46,503.869Zm-2.32-5.277c-0.23-.22-0.45-0.439-0.67-0.659A1.256,1.256,0,0,0,1738.14,498.592Zm-1.66,6.6q-0.165-.329-0.33-0.66c-0.11.221-.23,0.441-0.34,0.66h0.67Zm-4.65,15.5c0.23,0.22.45,0.44,0.67,0.659A1.263,1.263,0,0,0,1731.83,520.69Zm1.99-10.884c0.5-.551.53,0.052,0.34-0.659C1734.05,509.367,1733.93,509.587,1733.82,509.806Zm0.67-9.234h-1C1734.05,501.389,1733.69,500.958,1734.49,500.572Zm0.33-1.32h-1.66C1734.08,499.848,1733.93,500.173,1734.82,499.252Zm-2.56,2.97c-0.01-.023-0.03-0.045-0.04-0.068s-0.03-.02-0.05-0.029c-0.07-.018-0.13-0.032-0.2-0.048C1732.07,502.124,1732.16,502.172,1732.26,502.222Zm-0.43-5.278,7.96-.66c-1.4-.859-4.75-1.58-5.97-1.979-0.61,1.688-.24.97-1.99,1.321v1.318Zm1.33-29.354h-1.33l-0.33.661C1731.93,468.173,1733.9,468.594,1733.16,467.59Zm0.33-2.967h-1.99l-0.33.659C1731.94,465.063,1732.72,464.843,1733.49,464.623Zm-3.31,35.949c-0.23.11-.45,0.22-0.67,0.33C1729.51,500.9,1730.89,500.763,1730.18,500.572Zm0.99-40.9c-0.44-.11-0.88-0.221-1.33-0.33h-1.32l0.33-1.979h-4.64c0.67,0.686.33,0.45,1.65,0.659-0.57,1.334-.1,1.237-1.32.991-0.56.219-1.11,0.438-1.66,0.659C1727.85,459.806,1728.71,461.938,1731.17,459.676Zm-7.96,1.979v0.659C1723.53,461.738,1723.51,462.242,1723.21,461.655Zm0.33-.33c0.46-.708.61-0.178,0.33-0.989Zm1.66,4.287,0.33,0.66,0.33-.66h-0.66Zm3.32-2.969h-0.33c-0.11.221-.23,0.441-0.34,0.661Zm-1.14,14.727v-0.026c-0.03.027-.07,0.053-0.1,0.079C1727.31,477.406,1727.35,477.387,1727.38,477.37Zm-0.21-3.386a2.884,2.884,0,0,0-.02-0.294,1.154,1.154,0,0,1-.19.1,0.243,0.243,0,0,1-.02.014A0.925,0.925,0,0,1,1727.17,473.984Zm-0.97-8.372c0.22,0.219.44,0.44,0.66,0.66A1.243,1.243,0,0,0,1726.2,465.612Zm-0.34,21.438v1.319h0.34C1726.09,487.929,1725.97,487.489,1725.86,487.05Zm0.67,14.182c-0.22-.221-0.44-0.44-0.67-0.66A1.3,1.3,0,0,0,1726.53,501.232Zm-0.67-2.969h-0.66l-0.33-.659-0.33.988h1.32v-0.329Zm-0.99,3.3,0.66-.329V500.9c-0.33-.22-0.66-0.441-0.99-0.659l-0.33.989Zm-1.33-3.957-0.33.988C1723.67,497.885,1723.81,498.415,1723.54,497.6Zm0.67-19.459c-0.45-.219-0.89-0.44-1.33-0.66-0.11.22-.22,0.441-0.33,0.66h1.66Zm0-12.2v-0.33h-1.66C1723.44,466.283,1722.73,465.894,1724.21,465.942Zm-1.33-5.277-1.66-.329C1722.01,460.889,1721.88,460.963,1722.88,460.665Zm-1.99,17.809a1.248,1.248,0,0,0-.66-0.659Zm-2.32-10.884h1.99c-0.22-.549-0.44-1.1-0.67-1.648l1.66-.33c-0.77-.22-1.55-0.439-2.32-0.659-0.66.329-1.33,0.659-1.99,0.989A1.959,1.959,0,0,1,1718.57,467.59Zm-1-3.3h-0.99C1717.14,465.111,1716.78,464.679,1717.57,464.294Zm-1.32,15.83c-0.11-.22-0.23-0.44-0.34-0.66l-0.33.66h0.67Zm-0.34-15.5c0.11-.22.23-0.44,0.34-0.66h-0.67Zm-0.66-.989h-0.33l-0.66.329C1715.19,464.352,1714.59,464.21,1715.25,463.634Zm-13.6,60.353h0.33c0.11-.219.22-0.439,0.34-0.659,1.04-.585.49-0.332,0.66-0.989l-1.33.33v1.318Zm-0.33,7.916h-0.33l-0.66.99A2.4,2.4,0,0,0,1701.32,531.9Zm-0.99-7.255c-0.11.22-.23,0.44-0.34,0.659C1700.68,525.019,1700.36,525.314,1700.33,524.648Zm-68.09-54.127c0.6-2.26,1.29-4.5,2.09-6.693A45.738,45.738,0,0,0,1632.24,470.521Zm4.74-12.5c0.22,0.219.44,0.441,0.66,0.661A1.245,1.245,0,0,0,1636.98,458.026Zm6.3,0h-2.65c-0.12.219-.23,0.441-0.34,0.661l2.99-.331v-0.33Zm15.31-10.492-0.03.157c-0.08.431-.08,0.551-0.04,0.5,0.02-.22.04-0.438,0.08-0.655Zm2.6,26.983c0.76,0.5.4,0.6,1.33,0.33C1662.07,474.737,1661.63,474.627,1661.19,474.517Zm4.71,5.547a0.175,0.175,0,0,1,.02-0.019c-0.46-1.221-1.49-2.147-2.11-3.368a11.31,11.31,0,0,1-.47-1.076,0.96,0.96,0,0,1-.41.481,4.966,4.966,0,0,0-.43.263c0.26,0.646.53,1.292,0.79,1.938a3.474,3.474,0,0,1,.62.756,17.638,17.638,0,0,1,.92,2.49,4.561,4.561,0,0,1,.7-0.5,1.013,1.013,0,0,1,.3-0.908l0.33,0.33C1665.94,480.15,1665.93,480.092,1665.9,480.064Zm-2.72,17.869h0.66l-0.33-.659Zm3.5-15.325c-0.01-.015-0.02-0.027-0.03-0.04q-0.06.027-.12,0.057a0.414,0.414,0,0,1,.17.331,0.512,0.512,0,0,1,.24,0C1666.88,482.88,1666.8,482.774,1666.68,482.608Zm0.48,17.964c0.6,0.673,0,.233.99,0.66Zm2.65-1.65c0.33,0.221.67,0.44,1,.66C1670.21,498.909,1670.8,499.349,1669.81,498.922Zm0.33,1.98v0.33c0.86-.376.58-0.518,0.67-0.66C1670.59,500.682,1670.36,500.792,1670.14,500.9Zm3.49-8.2a1.284,1.284,0,0,0,.13.093,0.013,0.013,0,0,1,.01-0.013A1.294,1.294,0,0,1,1673.63,492.7Zm14.42,25.685-0.66.329,1.66,0.33C1688.72,518.821,1688.39,518.6,1688.05,518.382Zm1.66,0c0.33,0.219.67,0.439,1,.659C1690.11,518.368,1690.7,518.808,1689.71,518.382Zm0.33,4.287c0.23,0.22.45,0.44,0.67,0.659A1.266,1.266,0,0,0,1690.04,522.669Zm10.87-60.741a2.827,2.827,0,0,0-.35.3,0.688,0.688,0,0,1,.1-0.039c0.09-.089.19-0.175,0.28-0.262h-0.03Zm-0.58.715,0.66,0.661A1.248,1.248,0,0,0,1700.33,462.643Zm3.64-.659v2.639a2.794,2.794,0,0,0,1.66-1.98c0.22-.109.44-0.219,0.67-0.329Zm0.67,5.277,0.99,0.66C1705.04,467.247,1705.63,467.688,1704.64,467.261Zm2.32-2.308c-0.6-.674-0.01-0.234-1-0.659C1706.56,464.967,1705.97,464.526,1706.96,464.953Zm-0.66,10.883a1.246,1.246,0,0,0,.66.66Zm0.66-13.522-0.33.659h0.66Zm0.66,0a1.256,1.256,0,0,0,.67.659C1708.06,462.754,1707.84,462.534,1707.62,462.314Zm2.32,2.968-1.32.33v0.66c1.38-.265,1.25-0.434,2.32-0.33C1710.61,465.722,1710.28,465.5,1709.94,465.282Zm-0.66,7.256,0.33,0.66,0.33-.66h-0.66Zm1.66-.329-0.33.659h0.66Zm2.22,3,0.51-.387-0.57.324C1713.12,475.164,1713.14,475.182,1713.16,475.205Zm-0.56,4.919v-0.99h-0.33c-0.23.11-.45,0.221-0.67,0.33C1712.2,480.138,1711.61,479.7,1712.6,480.124Zm-0.67-2.309h-0.99C1711.78,478.352,1710.99,478.14,1711.93,477.815Zm-0.66,2.309-0.99-.66C1710.87,480.138,1710.28,479.7,1711.27,480.124Zm-0.99-3.628a2.285,2.285,0,0,0-1.66-.66C1709.17,476.056,1709.72,476.276,1710.28,476.5Zm-3.6,11.363a0.531,0.531,0,0,1,0,.178l1.47-.143c0.08-.108.15-0.216,0.23-0.324l0.24,0.469,0.66-.329v-0.33c-0.22-.11-0.44-0.221-0.66-0.33l-0.21.2a0.811,0.811,0,0,0-.01-0.331,0.288,0.288,0,0,0,.05-0.071c-0.09.044-.18,0.089-0.28,0.135-0.13.063-.27,0.127-0.41,0.179a3.909,3.909,0,0,1-1.43.227A0.682,0.682,0,0,1,1706.68,487.859Zm1.27-1.469v0.33c0.86-.376.58-0.517,0.67-0.66C1708.4,486.17,1708.18,486.28,1707.95,486.39Zm0.67-6.266c-0.22-.22-0.44-0.44-0.67-0.66l-0.66.33Zm-2.32,0a1.3,1.3,0,0,0-.67-0.66C1705.85,479.684,1706.07,479.9,1706.3,480.124Zm3.31-2.639h-2.98c-0.56.22-1.11,0.441-1.66,0.66C1707.08,478.22,1710.35,478.744,1709.61,477.485Zm-4.9,16.462c-0.03-.019-0.06-0.035-0.09-0.056l-0.05,0C1704.62,493.914,1704.66,493.93,1704.71,493.947Zm0.77-5.326a0.794,0.794,0,0,1-.16-0.261,5.086,5.086,0,0,0-1.24-.061C1704.54,488.422,1705.01,488.528,1705.48,488.621Zm-2.17.737h-0.33c-0.11.219-.22,0.44-0.33,0.66Zm-2.07-2.442a1.424,1.424,0,0,1,.03.605,5.212,5.212,0,0,0,.61.935,1.4,1.4,0,0,1,.34-0.272,3.4,3.4,0,0,1,2.87-.783,1.824,1.824,0,0,0-1.88-.741c-0.63.039-1.34,0.173-2.01,0.165A0.308,0.308,0,0,1,1701.24,486.916Zm0.74-5.8h-1.32C1701.74,481.539,1701.03,481.731,1701.98,481.113Zm-0.99-7.915c-0.44-.33-0.89-0.66-1.33-0.989A2.972,2.972,0,0,0,1700.99,473.2Zm-1,7.915H1699C1699.83,481.649,1699.05,481.438,1699.99,481.113Zm-4.13,7.175c-0.04-.03.54,0.217,0.89,0.366a0.472,0.472,0,0,1-.03-0.834C1696.21,487.769,1695.22,487.727,1695.86,488.288Zm0.53-2.576a0.476,0.476,0,0,1-.21.79c-0.14.033-.28,0.071-0.41,0.115a4,4,0,0,0,2.3-.167c0.49-.236,1.02-0.331.39-1.008a1.916,1.916,0,0,0-.65-0.342l-0.08,0a1.391,1.391,0,0,1-1.17-.61c-1.52-.76-3.08-1.455-4.83-1.089-0.01,0-.02,0-0.03.005l0.09,0.277a2.29,2.29,0,0,1,.28.084A7.641,7.641,0,0,1,1696.39,485.712Zm-3.24,13.66a0.47,0.47,0,0,1,.69-0.4h0a1.388,1.388,0,0,1-.14-0.345,0.381,0.381,0,0,1-.01-0.107,6.4,6.4,0,0,1-2.16-.423c0.13,0.134.23,0.276,0.38,0.419A5.939,5.939,0,0,0,1693.15,499.372Zm6.51,30.552c-0.77-.925-1.25-0.963-2.98-0.988Zm-4.18,10.69c-0.11-.039-0.22-0.073-0.33-0.115a0.8,0.8,0,0,0-.04.147C1695.23,540.637,1695.36,540.626,1695.48,540.614Zm0.2-17.615h-0.33l-0.33.66Zm0.67-4.617h-1.33l-0.33.659A2.205,2.205,0,0,0,1696.35,518.382Zm-1.99,10.883c-0.15-.306.26-0.222-0.34-0.66C1694.13,528.825,1694.25,529.045,1694.36,529.265Zm-1,0c-0.6-.674,0-0.232-0.99-0.66ZM1693.03,523l-1.66-.33C1692.1,523.377,1692.01,523.321,1693.03,523Zm-1.66,9.563,0.66-.329-1.32-.659Zm-10.09-4.468,0.59,0.071c2.33,1.063,6.64,2.061,9.17,1.1-3.06-.366-6.11-0.733-9.17-1.1-0.16-.073-0.31-0.147-0.45-0.22a1.094,1.094,0,0,1-.14.149l-9.48-1.138-0.33.66C1674.07,527.739,1679.86,529.317,1681.28,528.094Zm1.14-4.766c-0.23-.219-0.45-0.439-0.67-0.659A1.263,1.263,0,0,0,1682.42,523.328Zm-3.32,10.224-0.66-.99c-0.12.331-.23,0.661-0.34,0.99h1Zm-1-3.628-0.66-.659A1.244,1.244,0,0,0,1678.1,529.924Zm-1.65,2.638c-0.61-1.037-.48-0.849-1.66-1.318A3.466,3.466,0,0,0,1676.45,532.562Zm-2.33-3.626a1.3,1.3,0,0,0,.67.659C1674.57,529.375,1674.34,529.155,1674.12,528.936Zm0.34,2.638c-1.32-1.047-3.85-1.078-6.31-.99Zm-3.98-4.618,0.33,0.66C1670.67,527.31,1671.07,527.393,1670.48,526.956Zm-0.34.33-1.65-.33C1669.27,527.511,1669.14,527.584,1670.14,527.286Zm-2.98,3.628c-0.6-.673-0.01-0.233-1-0.66C1666.5,530.475,1666.83,530.694,1667.16,530.914Zm0.99-3.3v-0.66c-0.77-.109-1.54-0.22-2.32-0.329C1666.56,527.58,1666.52,527.49,1668.15,527.616Zm-4.64,4.287h1.99l-0.66-.659-1.33.33V531.9Zm1.99-1.649c-0.55-.109-1.11-0.219-1.66-0.33-0.11.221-.22,0.44-0.33,0.66ZM1652.57,519.7V519.37c-0.34-.109-0.67-0.219-1-0.329-0.55.22-1.11,0.44-1.66,0.66h2.66Zm-3.65-29.352c-0.6-.675-0.01-0.234-1-0.661C1648.25,489.908,1648.59,490.128,1648.92,490.349Zm-1.66,29.352c0.99-.134,2.16-0.935.99-0.66l-0.99.329V519.7Zm-1.99-15.832c-0.7-.554-0.66-0.51-1.99-0.659C1644.13,503.879,1644.41,503.593,1645.27,503.869Zm-0.66-12.532a1.3,1.3,0,0,0-.67-0.66C1644.16,490.9,1644.38,491.117,1644.61,491.337Zm-0.34-33.311c0.84,0.537.06,0.326,1,0h-1Zm-0.66,7.256,3.32,0.33v-0.33a2.274,2.274,0,0,0-1.66-.659C1644.72,464.843,1644.16,465.063,1643.61,465.282Zm4.31-1.648c-0.26-.654-0.3-0.631-1.32-1.32a2.292,2.292,0,0,0-.34,1.649h2.33C1648.36,463.853,1648.14,463.743,1647.92,463.634Zm0.67,0.989c-0.34.44-.67,0.879-1,1.319h1.66Zm2.32,28.693c-0.22-.22-0.45-0.44-0.67-0.659l-0.33.659h1Zm-0.67-52.11,2.33,0.66C1651.85,441.123,1651.88,441.316,1650.24,441.206Zm0,24.076a2.513,2.513,0,0,0,2.99.33Zm1.33,24.406c0.85,0.668,1.13.384,1.99,0.661C1652.88,489.656,1652.98,489.808,1651.57,489.688Zm1.33,29.023v0.33c1.72,0.439,1.65.869,3.98,0.989,1.17-1.446.98-.6,2.65,0l0.66-1.319c7.73,2.4,14.18,1.615,23.55.33v-0.33c-11.16-.149-17.11-0.63-27.86-0.659v0.989Zm3.65-75.163a1.492,1.492,0,0,0,.02.209,0.327,0.327,0,0,1,.07-0.025Zm3.18-9.582c0.05-.01.1-0.018,0.15-0.027a0.414,0.414,0,0,1,0-.221V433.71Zm12.26-7.348a0.328,0.328,0,0,1,.03.1c0.38-.135.77-0.266,1.16-0.4C1672.78,426.413,1672.39,426.513,1671.99,426.618Zm29.99,0.477-0.6-.039,0.24,0.174c0.12-.045.25-0.09,0.37-0.136h-0.01Zm0.42-.278a0.382,0.382,0,0,1-.11.165c0.08-.03.16-0.059,0.25-0.089C1702.49,426.866,1702.45,426.843,1702.4,426.817Zm17.17,5.4q-0.33-.159-0.66-0.312c0.22,0.131.44,0.267,0.66,0.405v-0.093Zm22.45,27.871a7.316,7.316,0,0,1-3.03-.364h3.09Zm-34.14-24.716a2.059,2.059,0,0,1-.31-0.206l0.31-.316,3.06,0.61c-0.88-.064-1.77-0.126-2.65-0.189C1708.15,435.3,1708.01,435.337,1707.88,435.371Zm8.55-19.727c0.21,0.209.42,0.42,0.63,0.63A1.2,1.2,0,0,1,1716.43,415.644Zm-6.96,1.259c0.31,0.211.63,0.421,0.95,0.631C1709.47,417.126,1710.04,417.547,1709.47,416.9Zm-3.17,1.26h0.32c0.1,0.209.21,0.42,0.31,0.63Zm-0.95-1.26a1.2,1.2,0,0,1,.63.631Zm-4.12,4.409a1.211,1.211,0,0,1,.64.629C1701.66,421.731,1701.44,421.521,1701.23,421.312Zm8.06-28.5,1.76-10.44-8.23,9.364-2.56-.426,2.47-14.659,2.56,0.426-1.76,10.451,8.23-9.374,2.56,0.426-2.47,14.659Zm-12.49,25.038c0.11,0.419.21,0.84,0.32,1.26h-0.32v-1.26Zm-4.75.63c0.21,0.21.42,0.419,0.63,0.63A1.2,1.2,0,0,1,1692.05,418.478Zm-5.7-3.149h1.27C1686.7,415.919,1687.39,415.736,1686.35,415.329Zm1.22-24.354-2.58.041-0.24-14.86,9.48-.154,0.03,2.083-6.89.111ZM1683.5,416.9h0.64c-0.11.211-.22,0.421-0.32,0.631C1683.71,417.324,1683.61,417.114,1683.5,416.9Zm-18.36-3.463c0.53,0.105,1.05.21,1.58,0.314C1665.79,414.277,1666.21,414.172,1665.14,413.44Zm10.57-22.218a6.406,6.406,0,0,1-6.39,1.134,5.842,5.842,0,0,1-2.6-2.092,8.857,8.857,0,0,1-1.44-3.571l-0.15-.824a8.977,8.977,0,0,1,.08-3.914,5.8,5.8,0,0,1,1.71-2.89,5.94,5.94,0,0,1,3.03-1.435,6.021,6.021,0,0,1,3.34.293,5.746,5.746,0,0,1,2.59,2.09,8.927,8.927,0,0,1,1.44,3.617l0.15,0.814a8.94,8.94,0,0,1-.07,3.906A5.694,5.694,0,0,1,1675.71,391.222Zm-0.8-6.324-0.13-.763a6.481,6.481,0,0,0-1.6-3.564,3.319,3.319,0,0,0-5.21.921,6.323,6.323,0,0,0-.3,3.823l0.15,0.844a6.425,6.425,0,0,0,1.62,3.559,3.087,3.087,0,0,0,2.85.851,3.03,3.03,0,0,0,2.38-1.75A6.488,6.488,0,0,0,1674.91,384.9Zm-14.84,29.172c0.11-.21.21-0.42,0.32-0.63C1660.57,414.12,1660.54,413.544,1660.07,414.07Zm-6.33,16.057c0.1-.21.21-0.42,0.32-0.63l1.26,0.315Zm-0.95-.315h-1.27c0.21-.105.42-0.209,0.64-0.315C1652.37,429.6,1652.58,429.707,1652.79,429.812Zm-4.75.63,0.63,0.63A1.2,1.2,0,0,1,1648.04,430.442Zm5.51-46.237-4.28,1.624,1.81,5.463a16.471,16.471,0,0,1,.89,4.14,4.186,4.186,0,0,1-.6,2.549,4.383,4.383,0,0,1-2.17,1.557l-0.62.232-0.74-1.945,0.37-.173a2.031,2.031,0,0,0,1.07-1.071,3.63,3.63,0,0,0,.1-1.79,19.849,19.849,0,0,0-.83-3.139l-2.34-6.89,9.01-3.42,5.33,13.884-2.41.918Zm-11.53,45.922c0.11,0.21.21,0.42,0.32,0.63h-0.63C1641.81,430.547,1641.92,430.337,1642.02,430.127Zm-5.7,17.317h-0.63c0.11-.209.21-0.42,0.32-0.629C1636.11,447.024,1636.22,447.235,1636.32,447.444Zm2.8-42.1a5.988,5.988,0,0,1-3.22.931,5.888,5.888,0,0,1-3.2-1.005,8.945,8.945,0,0,1-2.65-2.8l-0.44-.713a8.989,8.989,0,0,1-1.35-3.676,5.727,5.727,0,0,1,.53-3.307,5.886,5.886,0,0,1,2.29-2.436,6.047,6.047,0,0,1,3.22-.938,5.771,5.771,0,0,1,3.18,1.008,9.087,9.087,0,0,1,2.67,2.845l0.43,0.7a9.092,9.092,0,0,1,1.37,3.663,5.669,5.669,0,0,1-.52,3.286A5.891,5.891,0,0,1,1639.12,405.342Zm-0.75-8.041-0.41-.661a6.457,6.457,0,0,0-2.79-2.741,3.081,3.081,0,0,0-2.96.261,3.043,3.043,0,0,0-1.56,2.486,6.355,6.355,0,0,0,1.13,3.669l0.45,0.73a6.429,6.429,0,0,0,2.8,2.731,3.111,3.111,0,0,0,2.98-.245,3.026,3.026,0,0,0,1.57-2.491A6.556,6.556,0,0,0,1638.37,397.3Zm-7.11,65.885c-0.21-.209-0.42-0.419-0.64-0.629A1.188,1.188,0,0,1,1631.26,463.186Zm-1.27-2.833c1.22-.087.38,0.267,1.27-0.315h0.63c-0.32.42-.63,0.84-0.95,1.26-0.32-.105-0.63-0.21-0.95-0.315v-0.63Zm-2.06-47.416-7.67-1.745-1.32,1.166,4.25,4.762-1.93,1.709-9.93-11.109,1.94-1.709,4.17,4.669,1.06-.942-0.88-7.572,2.37-2.1,0.92,8.709,9.35,2.1Zm-13.86,8.954a5.444,5.444,0,0,1,.63,3.168,5.807,5.807,0,0,1-1.29,3.015,6.022,6.022,0,0,1-3.58,2.365,5.416,5.416,0,0,1-4.02-.911l1.6-2.02a3.617,3.617,0,0,0,2.42.656,3.344,3.344,0,0,0,1.96-1.36,2.891,2.891,0,0,0,.61-2.657,5.8,5.8,0,0,0-2.07-2.812l-3.26,4.121-1.65-1.29,3.27-4.121a5.841,5.841,0,0,0-3.28-1.311,3.509,3.509,0,0,0-3.29,3.434,3.686,3.686,0,0,0,1.25,2.182l-1.6,2.02a5.609,5.609,0,0,1-1.9-3.7,5.688,5.688,0,0,1,1.4-3.948,6.039,6.039,0,0,1,2.68-2,5.682,5.682,0,0,1,3.27-.161,8.719,8.719,0,0,1,3.38,1.683l0.99,0.777A8.825,8.825,0,0,1,1614.07,421.891Zm-12,96.958a2.119,2.119,0,0,1-.27,3A2.134,2.134,0,1,1,1602.07,518.849Zm-6.38-63.408a2.13,2.13,0,1,1,2.14-2.129A2.136,2.136,0,0,1,1595.69,455.441Zm-1.16,14.28a2.142,2.142,0,1,1-2.48-1.727A2.141,2.141,0,0,1,1594.53,469.721Zm-3.14,15.458a2.132,2.132,0,1,1-1.28,2.728A2.149,2.149,0,0,1,1591.39,485.179Zm2.36,17.037a2.153,2.153,0,0,1,2.93.779,2.121,2.121,0,0,1-.79,2.909A2.132,2.132,0,1,1,1593.75,502.216Zm16.4,31.315a2.125,2.125,0,0,1,.26,3,2.152,2.152,0,0,1-3.02.264,2.126,2.126,0,0,1-.26-3A2.152,2.152,0,0,1,1610.15,533.531Zm6.23-39.174c0.28,0.644.35,0.41-.32,0.63C1616.17,494.778,1616.27,494.567,1616.38,494.357Zm1.9,10.706c-1.38.209-2.75,0.419-4.12,0.629v-0.316c0.32-.1.63-0.208,0.95-0.313h3.17Zm2.53-45.97c-0.32.211-.63,0.421-0.95,0.63,0.1-.314.21-0.63,0.32-0.944Zm2.53,45.339a5.6,5.6,0,0,1-3.48.631v-0.316c0.32-.1.63-0.209,0.95-0.315h2.53Zm4.43-39.041-0.63-.63A1.2,1.2,0,0,1,1627.77,465.391Zm-0.63,12.909-0.63.314-0.63-.314c0.1-.316.21-0.63,0.31-0.945,0.32,0.21.64,0.421,0.95,0.629V478.3Zm-0.31,25.818a2.426,2.426,0,0,1-2.85.314l0.63-.314h2.22Zm-3.49,8.186v-0.629C1623.63,512.234,1623.65,511.754,1623.34,512.3Zm0-2.519c0.11-.21.21-0.42,0.32-0.629h0.95C1624.19,509.365,1623.76,509.575,1623.34,509.785Zm-0.95-45.339a2.175,2.175,0,0,1,1.59.63Zm1.27,37.468c-0.83.859-1.05,0.928-2.85,0.944,0.84-.419,1.69-0.839,2.53-1.259C1623.45,501.7,1623.55,501.809,1623.66,501.914Zm-2.53-43.135a5.066,5.066,0,0,1,2.21.944C1622.33,459.4,1622.04,459.744,1621.13,458.779Zm0-11.65c0.1-.21.21-0.42,0.31-0.629C1621.3,446.848,1621.71,446.737,1621.13,447.129Zm3.16,17.317,2.54,0.315A2.174,2.174,0,0,1,1624.29,464.446Zm0.95-2.834c0.95,0.408.38-.013,0.95,0.63C1625.88,462.033,1625.56,461.823,1625.24,461.612Zm0-15.112c0.11,0.209.21,0.419,0.32,0.629h-0.63C1625.03,446.919,1625.14,446.709,1625.24,446.5Zm0.95,13.223h-1.26c0.1-.209.21-0.419,0.31-0.63,0.11,0.106.21,0.211,0.32,0.316Zm1.9,5.038,1.27,0.315C1628.13,464.988,1628.98,465.343,1628.09,464.761Zm3.17,58.563c-0.32-.21-0.64-0.42-0.95-0.63C1631.25,523.1,1630.69,522.681,1631.26,523.324Zm2.53,5.038h-2.22l1.59-.63,0.63,0.315v0.315Zm-1.9-5.668c0.32,0.21.63,0.42,0.95,0.63C1631.9,522.917,1632.46,523.337,1631.89,522.694Zm0.32-4.409h1.26V518.6c-0.52.105-1.05,0.21-1.58,0.315C1632,518.706,1632.1,518.5,1632.21,518.285Zm-7.67,37.875a1.6,1.6,0,0,0,1.78.359l1.24-.561,3.56-11.42,2.09,1.9-2.69,8.071,7.48-3.73,2.13,1.931-12.2,5.623-0.98.371a3.543,3.543,0,0,1-3.69-.888l-0.75-.761,1.41-1.509A6.822,6.822,0,0,0,1624.54,556.16Zm15.9-26.854-0.63-.63A1.2,1.2,0,0,1,1640.44,529.306Zm-2.85,3.149a4.472,4.472,0,0,1,.95-0.945,2.77,2.77,0,0,1,1.27.945h-2.22Zm1.27-3.779c-0.21-.419-0.43-0.839-0.64-1.259q0.795,0.156,1.59.315C1638.74,528.538,1639.08,527.36,1638.86,528.676Zm-0.32-12.908-3.8.314,0.63-.314h3.17Zm-0.95,12.908c-1.87.009-2.31,0.032-3.17-.629C1635.98,528.013,1636.81,528.061,1637.59,528.676Zm-2.53,22.67c0.57,0.417.18,0.338,0.31,0.63C1635.27,551.766,1635.16,551.556,1635.06,551.346Zm6.96-23.929c0.11,0.21.21,0.42,0.32,0.63-0.53-.105-1.06-0.21-1.58-0.315,0.21-.105.42-0.211,0.63-0.315h0.63Zm7.29,0.63a6.667,6.667,0,0,1-6.02-.63Zm5,33.566-7.61,12.794-2.23-1.308,6.54-11-5.66-3.329-6.54,11-2.23-1.31,7.61-12.794Zm11.88,4.575,0.64,15.88-2.57-.853-0.06-3.667-5.5-1.82-2.25,2.9-2.56-.849,10.08-12.325Zm-2.02,9.155-0.1-6.529-4.01,5.167Zm19.65-31.869a1.776,1.776,0,0,1-2.22-.315Zm-5.02,25.662-0.74,6.2,1.42,0.167,5.1-5.691,3.16,0.372-5.94,6.467,4.64,8.345-3.1-.364-3.79-6.859-1.75-.206-0.75,6.326-2.57-.3,1.75-14.759Zm10.72-25.977h1.26C1689.89,543.878,1690.4,543.844,1689.52,543.159Zm5.36,27.517a5.966,5.966,0,0,1,3.16-1.144,6.054,6.054,0,0,1,3.3.606,5.758,5.758,0,0,1,2.38,2.326,9.062,9.062,0,0,1,1.09,3.736l0.07,0.824a9.143,9.143,0,0,1-.44,3.883,5.747,5.747,0,0,1-1.96,2.7,6.411,6.411,0,0,1-6.47.528,5.785,5.785,0,0,1-2.39-2.329,8.662,8.662,0,0,1-1.09-3.69l-0.07-.833a9.042,9.042,0,0,1,.45-3.889A5.83,5.83,0,0,1,1694.88,570.676Zm0.16,6.292,0.07,0.853a6.4,6.4,0,0,0,1.26,3.7,3.119,3.119,0,0,0,2.77,1.116,3.06,3.06,0,0,0,2.54-1.518,6.583,6.583,0,0,0,.61-3.881l-0.06-.773a6.555,6.555,0,0,0-1.25-3.7,3.324,3.324,0,0,0-5.28.426A6.32,6.32,0,0,0,1695.04,576.968Zm23.57-10.416a3.556,3.556,0,0,1,2.12,2.517,3.137,3.137,0,0,1,0,1.917,3.537,3.537,0,0,1-1.2,1.67,3.334,3.334,0,0,1,2.15.653,3.608,3.608,0,0,1,1.25,1.894,3.931,3.931,0,0,1-.38,3.465,5.874,5.874,0,0,1-3.39,2.164l-5.23,1.534-4.22-14.257,4.91-1.44A6.285,6.285,0,0,1,1718.61,566.552Zm-2.78,13.085,2.77-.81a2.829,2.829,0,0,0,1.66-1.113,2.051,2.051,0,0,0,.18-1.792,2.123,2.123,0,0,0-2.95-1.592l-2.97.872Zm-1.85-6.256,2.44-.717a2.937,2.937,0,0,0,1.66-1.056,2.219,2.219,0,0,0-.84-3.025,3.228,3.228,0,0,0-2.03.082l-2.42.711Zm11-28.647c-0.91.583-1.01,0.471-2.22,0h2.22Zm2.22,4.407c0.1,0.211.21,0.42,0.31,0.631h-0.63C1726.99,549.561,1727.09,549.352,1727.2,549.141Zm4.75,0.946v-0.63C1732.24,550.017,1732.26,549.537,1731.95,550.087Zm1.9-6.613c-0.95-.407-0.38.014-0.95-0.629C1733.21,543.055,1733.53,543.264,1733.85,543.474Zm-3.42,23.779,1.26-.665,0.94-7.565,2.81-1.479-1.19,8.674,8.59,4.248-2.76,1.453-7.04-3.5-1.56.822,3,5.63-2.28,1.2-7-13.135,2.29-1.2Zm25.58-66.913h0.63c-0.1.209-.21,0.419-0.31,0.63C1756.22,500.759,1756.12,500.549,1756.01,500.34Zm-3.17,7.555v-1.259c0.11,0.421.22,0.84,0.32,1.259h-0.32Zm-0.63-4.407c0.32,0.21.63,0.42,0.95,0.63C1752.22,503.71,1752.78,504.131,1752.21,503.488Zm0.32,33.375h-0.64c0.11-.211.22-0.42,0.32-0.63C1752.32,536.443,1752.42,536.652,1752.53,536.863Zm-9.5,9.13h1.27C1743.44,546.488,1743.85,546.893,1743.03,545.993Zm2.53-25.188-0.63-.63A1.2,1.2,0,0,1,1745.56,520.8Zm1.27-11.02c0.1-.21.21-0.42,0.31-0.629C1747.33,509.835,1747.3,509.259,1746.83,509.785Zm-0.32-8.815h0.95C1746.7,501.338,1747.05,501.75,1746.51,500.97Zm2.85,4.406h-0.63c0.1-.208.21-0.418,0.31-0.629C1749.15,504.958,1749.26,505.168,1749.36,505.376Zm1.58-6.3a1.2,1.2,0,0,1-.63-0.629Zm1.27,30.856-10.22.117a3.858,3.858,0,0,1-.2-0.384C1745.84,530.315,1752.02,529.718,1752.21,529.936Zm5.07-29.281V499.08h-4.75c1.69-.21,3.38-0.419,5.06-0.629Zm-3.17-33.69c0.11-.21.21-0.419,0.32-0.63C1754.59,467.02,1754.68,466.544,1754.11,466.965Zm-1.58-.63,1.26,0.316C1752.86,466.86,1753.25,466.988,1752.53,466.335Zm1.58-2.518-0.68-.506c0.3-.476.25,0.028,1-0.439C1754.32,463.186,1754.22,463.5,1754.11,463.817Zm-1.59-1.189,0.91,0.683c-0.06.11-.15,0.27-0.27,0.506C1751.88,463.274,1752.34,463.808,1752.52,462.628Zm-0.94-.7,0.71,0.532A0.85,0.85,0,0,1,1751.58,461.928Zm0.95,0.629a0.18,0.18,0,0,0-.01.071l-0.23-.168C1752.36,462.487,1752.43,462.517,1752.53,462.557Zm-4.44,6.927c0.32,0.21.64,0.42,0.95,0.63C1748.1,469.706,1748.66,470.127,1748.09,469.484Zm1.9-7.242c-0.93.21-.54,0.338-1.26-0.314Zm2.22,4.723c-1.4-.05-1.56.04-2.22-0.63C1751.36,466.413,1751.52,466.414,1752.21,466.965Zm-2.85,6.927c0.95,0.407.38-.013,0.95,0.629h-1.27C1749.15,474.311,1749.26,474.1,1749.36,473.892Zm-2.22-7.557V466.02c0.22-.1.43-0.21,0.64-0.315C1747.69,465.841,1747.96,465.977,1747.14,466.335Zm0.64-4.093c-0.11.315-.21,0.63-0.32,0.944l-0.63-1.258C1747.14,462.033,1747.46,462.137,1747.78,462.242Zm-1.9-.63h0.63c-0.1.211-.21,0.421-0.32,0.63C1746.09,462.033,1745.98,461.823,1745.88,461.612Zm1.9-22.669h0.95C1747.83,439.253,1748.58,439.456,1747.78,438.943Zm0.63,1.26v0.314l-2.22.315v-0.315c0.32-.105.64-0.209,0.95-0.314h1.27Zm-3.17,18.576c0.11-.21.22-0.42,0.32-0.629l0.63,0.629h-0.95Zm-0.63-22.04c0.04,0.636.34,0.355-.31,0.63C1744.4,437.159,1744.51,436.949,1744.61,436.739Zm-2.53,2.2c1.3,0.115,3.63-.5,4.75.629C1745.85,439.5,1743.13,439.761,1742.08,438.943Zm8.23,1.889-0.63-.629A1.193,1.193,0,0,1,1750.31,440.832Zm-0.63,5.038v-0.315l0.63-.315C1750.22,445.376,1750.5,445.511,1749.68,445.87Zm4.43-17-0.63-.63A1.194,1.194,0,0,1,1754.11,428.868Zm-8.87,30.855,8.55,0.315a2.49,2.49,0,0,0,.64,1.26C1753.07,461.2,1746.87,461.251,1745.24,459.723Zm-0.65,90.83,13.88,7.889-2.09,1.714-3.16-1.9-4.47,3.663,1.28,3.437-2.08,1.707-5.15-15.039Zm3.39,9.3,3.34-2.741-5.61-3.387Zm10.25-57.312c-0.11.211-.21,0.42-0.32,0.63,0.11,0.21.21,0.42,0.32,0.63-0.97-.852-0.48-0.2-0.64-1.26h0.64Zm0.63-10.7-0.63.63c0.1-.209.21-0.42,0.31-0.63h0.32Zm0.95,6.3a2.681,2.681,0,0,0-1.9-.629c0.63-.315,1.27-0.63,1.9-0.944v1.573Zm11.22,37.746a2.132,2.132,0,1,1-2.75,1.273A2.132,2.132,0,0,1,1771.03,535.881Zm15.42-45.022a2.142,2.142,0,1,1,2.48,1.726A2.132,2.132,0,0,1,1786.45,490.859Z" transform="translate(-1580.5 -370.5)"/>
</svg>
