<?xml version="1.0" encoding="utf-8"?>
<!-- Generator: Adobe Illustrator 19.2.1, SVG Export Plug-In . SVG Version: 6.00 Build 0)  -->
<svg version="1.1" id="Layer_1" xmlns="http://www.w3.org/2000/svg" xmlns:xlink="http://www.w3.org/1999/xlink" x="0px" y="0px"
	 viewBox="0 0 220 220" style="enable-background:new 0 0 220 220;" xml:space="preserve">
<style type="text/css">
	.st0{fill:#B19F83;}
</style>
<g>
	<path class="st0" d="M8.7,75.8l0.8-2.3L23,78.3l-0.8,2.3l-9.6-3.5l7.5,9.4L19.2,89L5.7,84.1l0.8-2.3l9.6,3.5L8.7,75.8z"/>
	<path class="st0" d="M31.6,62.7l-1.3,2.1l-5.5-3.3L21.5,67l5.5,3.3l-1.3,2.1l-12.3-7.3l1.3-2.1l5.1,3.1l3.3-5.5L18,57.5l1.3-2.1
		L31.6,62.7z"/>
	<path class="st0" d="M46.9,50l-1.6,1.8l-2.6-2.4l-6.3,7l2.6,2.4l-1.6,1.8L33.2,57l0.8-0.9c0-0.8-0.3-1.7-0.9-2.6
		c-0.6-1-1.3-1.9-2.2-2.9L26.4,46l6.1-6.7l9.2,8.3l1.2-1.4L46.9,50z M35.8,54l4.1-4.6l-7.7-6.9l-2.8,3.1l2.8,2.9
		C34.2,50.4,35.4,52.2,35.8,54z"/>
	<path class="st0" d="M46.7,27.3l2-1.5l8.6,11.5l-2,1.5l-6.2-8.2l1.1,12l-2,1.5l-8.6-11.5l2-1.5l6.2,8.2L46.7,27.3z"/>
	<path class="st0" d="M62.9,33.9l-6.4-12.8l4.4-2.2c1.5-0.7,2.7-1,3.8-0.8c1,0.2,1.9,0.9,2.4,2c0.3,0.6,0.4,1.2,0.3,1.8
		c-0.1,0.6-0.4,1.2-0.8,1.8c0.8-0.2,1.5-0.1,2.1,0.3c0.6,0.3,1.1,0.9,1.5,1.6c0.6,1.2,0.7,2.3,0.2,3.4c-0.4,1-1.4,1.9-2.8,2.6
		L62.9,33.9z M61.4,25.4l2.2-1.1c0.7-0.3,1.2-0.8,1.4-1.3s0.2-1.1-0.1-1.6c-0.3-0.6-0.7-1-1.2-1.1c-0.5-0.1-1.1,0-1.9,0.4l-2.2,1.1
		L61.4,25.4z M62.2,27l2,4l2.5-1.2c0.7-0.4,1.2-0.8,1.4-1.3c0.2-0.5,0.2-1.1-0.1-1.7c-0.7-1.3-1.7-1.7-3.1-1L62.2,27z"/>
	<path class="st0" d="M82,10.9l2.4-0.7l4,13.8L86,24.7l-2.9-9.8l-3.2,11.6l-2.4,0.7l-4-13.8l2.4-0.7l2.9,9.8L82,10.9z"/>
	<path class="st0" d="M108.3,25.1l-2.4,0.2l-0.3-3.5l-9.4,0.8l0.3,3.5l-2.4,0.2l-0.6-5.5l1.1-0.1c0.5-0.6,0.9-1.4,1.2-2.5
		c0.2-1.1,0.4-2.3,0.3-3.6l-0.2-6.4l9-0.8l1.1,12.3l1.8-0.2L108.3,25.1z M97.6,20.5l6.1-0.5l-0.9-10.3L98.6,10l0.1,4
		C98.8,16.7,98.4,18.9,97.6,20.5z"/>
	<path class="st0" d="M119.3,15.5l3.6-7.2l2.8,0.3L119.6,20l-0.5,0.8c-0.8,1.1-1.9,1.6-3.3,1.4l-1-0.2l0.2-2c0.2,0,0.4,0.1,0.8,0.1
		c0.7,0.1,1.2-0.2,1.6-0.8l0.6-1.1l-4-10.8l2.7,0.3L119.3,15.5z"/>
	<path class="st0" d="M137.3,22.6l-5.4-1.5l-2,2.9l-2.5-0.7l9-12.4l2.2,0.6l1.5,15.3l-2.5-0.7L137.3,22.6z M133.1,19.4l4,1.1
		l-0.5-6.3L133.1,19.4z"/>
	<path class="st0" d="M161.3,20.7L155,33.6l-2.2-1.1l5.4-11.1l-4-1.9l-2.7,4.9c-0.8,1.5-1.6,2.6-2.3,3.4c-0.7,0.7-1.4,1.1-2.2,1.3
		c-0.7,0.1-1.6,0-2.5-0.5l-0.6-0.3l0.9-1.8l0.4,0.1c0.5,0.2,1,0.2,1.5,0c0.4-0.2,0.9-0.5,1.3-1.1c0.5-0.6,1-1.4,1.7-2.7l3.3-6.2
		L161.3,20.7z"/>
	<path class="st0" d="M167.8,31.3l2.4,1.7c0.8,0.6,1.5,1.3,1.9,2.1s0.6,1.5,0.5,2.3s-0.4,1.5-0.9,2.2c-0.8,1.1-1.8,1.7-3,1.8
		s-2.5-0.3-3.7-1.2l-4.4-3.2l8.5-11.6l2,1.5L167.8,31.3z M166.6,32.9l-2.9,3.9l2.4,1.7c0.7,0.5,1.3,0.7,2,0.6c0.6-0.1,1.2-0.4,1.6-1
		c0.4-0.6,0.6-1.2,0.5-1.8s-0.5-1.2-1.2-1.7L166.6,32.9z"/>
	<path class="st0" d="M181.1,55.2l-1.7-1.8L184,49l-4.4-4.7l-4.6,4.4l-1.7-1.8l10.4-9.9l1.7,1.8l-4.3,4.1l4.4,4.7l4.3-4.1l1.7,1.8
		L181.1,55.2z"/>
	<path class="st0" d="M194,57.7l1.5,2.5c0.6,0.9,0.9,1.8,1,2.6c0.1,0.9,0,1.6-0.4,2.3s-0.9,1.3-1.6,1.7c-1.1,0.7-2.3,0.9-3.5,0.5
		s-2.2-1.2-3-2.5l-2.9-4.7l12.2-7.5l1.3,2.1L194,57.7z M192.3,58.7l-4.1,2.5l1.5,2.5c0.4,0.7,1,1.2,1.6,1.3c0.6,0.2,1.3,0,1.9-0.3
		c0.6-0.4,1-0.9,1.1-1.5s0-1.3-0.5-2L192.3,58.7z M192.7,72.5l-1.3-2.1l12.2-7.5l1.3,2.1L192.7,72.5z"/>
	<path class="st0" d="M211.9,81.8l0.8,2.3L199.2,89l-0.8-2.3l9.6-3.5l-11.8-2.5l-0.8-2.3l13.5-4.9l0.8,2.3l-9.6,3.5L211.9,81.8z
		 M215.3,80.6c-0.8,0.3-1.5,0.2-2.2-0.1c-0.7-0.4-1.2-1-1.5-1.9s-0.3-1.7-0.1-2.4c0.3-0.7,0.8-1.2,1.6-1.5l0.6,1.7
		c-0.4,0.1-0.7,0.4-0.8,0.7c-0.1,0.3-0.1,0.7,0,1.1s0.4,0.7,0.7,0.8c0.3,0.1,0.7,0.2,1.1,0L215.3,80.6z"/>
</g>
<g>
	<path class="st0" d="M67.9,199.7l-2.2-1.2l6.1-10.7l-5.5-3.1l-6.1,10.7l-2.2-1.2l7.1-12.5l9.8,5.6L67.9,199.7z"/>
	<path class="st0" d="M89,200.2c-0.4,1.3-1,2.4-1.8,3.3c-0.8,0.9-1.7,1.4-2.7,1.7s-2.1,0.2-3.2-0.1s-2-0.9-2.7-1.7s-1.1-1.8-1.3-2.9
		c-0.2-1.2,0-2.4,0.4-3.7l0.2-0.8c0.4-1.3,1-2.4,1.8-3.3c0.8-0.9,1.7-1.5,2.7-1.7c1-0.3,2.1-0.2,3.2,0.1s2,0.9,2.7,1.7
		s1.1,1.8,1.3,2.9c0.2,1.2,0,2.4-0.4,3.7L89,200.2z M86.9,198.7c0.5-1.5,0.5-2.8,0.2-3.8s-1-1.6-2.1-2c-1-0.3-2-0.2-2.8,0.5
		c-0.8,0.6-1.5,1.7-2,3.1l-0.2,0.8c-0.5,1.5-0.5,2.8-0.2,3.8s1,1.7,2.1,2s2,0.2,2.8-0.4c0.8-0.6,1.5-1.7,1.9-3.3L86.9,198.7z"/>
	<path class="st0" d="M107.8,212.9l-2.4-0.2l0.3-3.5l-9.4-0.8l-0.3,3.5l-2.4-0.2l0.4-5.5l1.2,0.1c0.6-0.5,1.1-1.3,1.6-2.3
		c0.4-1,0.8-2.2,1-3.5l0.9-6.3l9,0.8l-1.1,12.3l1.8,0.2L107.8,212.9z M98,206.5l6.1,0.5l0.9-10.3l-4.2-0.4l-0.6,4
		C99.8,203,99.1,205.1,98,206.5z"/>
	<path class="st0" d="M119.7,199.3l2.4-5.5l2.9-0.4l-3.4,7.6l5.3,6.6L124,208l-3.7-4.8l-2.4,5.6l-2.9,0.4l3.5-7.7l-5.2-6.5l2.9-0.4
		L119.7,199.3z"/>
	<path class="st0" d="M142.7,195.9c0.5,1.3,0.6,2.6,0.5,3.7s-0.5,2.2-1.2,3s-1.6,1.4-2.7,1.8c-1.1,0.4-2.2,0.4-3.2,0.2
		s-2-0.8-2.8-1.6s-1.4-1.9-1.9-3.2l-0.3-0.8c-0.4-1.3-0.6-2.6-0.5-3.7c0.1-1.2,0.5-2.2,1.2-3s1.6-1.4,2.7-1.8
		c1.1-0.4,2.2-0.4,3.2-0.2s2,0.8,2.8,1.6s1.4,1.9,1.9,3.2L142.7,195.9z M140.1,195.9c-0.5-1.5-1.2-2.6-2-3.2
		c-0.8-0.6-1.8-0.7-2.8-0.4s-1.7,1-2,2s-0.2,2.2,0.3,3.7l0.3,0.8c0.5,1.5,1.2,2.6,2,3.2c0.9,0.6,1.8,0.8,2.8,0.4c1-0.4,1.7-1,2-2
		s0.2-2.2-0.3-3.8L140.1,195.9z"/>
	<path class="st0" d="M165.3,195.1l-2,1.2l-1.8-3l-8.1,4.9l1.8,3l-2.1,1.2l-2.9-4.7l1-0.6c0.2-0.8,0.2-1.7-0.1-2.8
		c-0.2-1.1-0.7-2.2-1.3-3.4l-3-5.6l7.8-4.7l6.4,10.6l1.6-0.9L165.3,195.1z M153.6,195.7l5.3-3.2l-5.3-8.8l-3.6,2.2l1.9,3.6
		C153.1,191.8,153.7,193.9,153.6,195.7z"/>
</g>
<g>
	<path class="st0" d="M134,52.4c-2.2-1.6-4.5-3.4-7-4.9c-2.1-1.2-4.6-2.4-7.1-2.2c-4.7,0.2-4.1,2.4-0.9,3.4
		c4.2,1.2,9.7,3.9,12.8,5.6C134.5,55.7,135.7,53.6,134,52.4z"/>
</g>
<g>
	<path class="st0" d="M101.1,50.4L101.1,50.4c0,0-0.1,0-0.1-0.1l0,0c0,0-0.1,0-0.1-0.1l0,0c0,0-0.1,0-0.1-0.1l0,0l-0.1-0.1l0,0l0,0
		c0.7,0.1,1.5,0.2,2.2,0.4l0,0l0,0c-0.1,0-0.1,0-0.2,0.1l0,0h-0.1l0,0h-0.1l0,0h-0.1c1.9,0.4,3.7,0.7,5.6,1.1
		c-0.1-0.5-0.1-0.9-0.2-1.4c0-0.1,0-0.2-0.1-0.5l0,0l0,0l0.1,0.1c0.1,0.1,0.1,0.1,0.2,0.2l0.1,0.1c0.1,0.2,0.1,0.4,0.2,1.1
		c0,0.1,0,0.1,0,0.2l0,0l0,0H108c0.1,0,0.4,0.1,0.5,0.1v-0.9l0,0h0.4l0,0l0,0c-0.1,0.2-0.2,0.6-0.2,0.9c8.5,2.1,16.7,5.4,24,10.5
		c1.5,1,2.7,2,4.1,3.1c5.7,5,6.3-0.5,0.1-5.4c-2.9-2.2-6-4.2-9.3-6c-6.6-3.4-13.9-5.9-21.3-6.6C101.3,47,95.2,49.1,101.1,50.4z
		 M103.3,49.3c-0.2-0.1-0.4-0.2-0.4-0.2l0,0l0,0c0,0,0,0-0.1-0.1c0-0.1-0.1-0.1-0.2-0.2l0,0l0,0C102.8,48.8,103,49,103.3,49.3
		L103.3,49.3L103.3,49.3z M125.1,54.2c0.7,0.5,0.2,0,0.7,0.7l0,0l0,0C125.6,54.7,125.3,54.5,125.1,54.2L125.1,54.2L125.1,54.2z
		 M110.5,52.5v-0.7l0,0c0.1,0.4,0.2,0.4,0.2,0.4l0,0c0,0,0,0-0.1,0.1C110.5,52.4,110.6,52.4,110.5,52.5
		C110.6,52.4,110.6,52.5,110.5,52.5L110.5,52.5z"/>
</g>
<g>
	<path class="st0" d="M94.3,56.6c3.9,0,7.6,0.4,11.5,1.1v-0.1h0.4l-0.1,0.1c0.6,0.1,1.4,0.2,2,0.4v-0.6c0.2,0.6,0.4,0.1,0.1,0.6
		c15.7,3.6,30,13.6,38.1,27.6c9.2,15.8,6,0.4,1.2-5.9c-1.1-1.4-2.2-2.7-3.4-4c-7.8-8-16.7-15.8-27.3-19.9c-6.7-2.6-13.9-3.9-21-4
		C90.5,52,83.3,56.6,94.3,56.6z M112.8,56.5c-0.7-0.5-0.2,0-0.7-0.7C112.3,56,112.5,56.2,112.8,56.5z M111.6,56.1
		c-1.6-0.2-2.1-0.4-2.9-1.5C109.8,55.1,110.6,55.6,111.6,56.1z M106.9,56.1h-0.7c0.1-0.2,0.2-0.5,0.4-0.7
		C106.7,55.6,106.8,55.9,106.9,56.1z M103.7,54c0.9,0.1,1.7,0.2,2.5,0.4c-1.7,0.1-3.4,0.2-5.1,0.4C101.9,54.4,102.8,54.2,103.7,54z"
		/>
</g>
<g>
	<g>
		<path class="st0" d="M155.9,122.3c-1.4,0-2.6,0-4,0.1C153.1,131.8,155.4,127.9,155.9,122.3z"/>
	</g>
	<g>
		<path class="st0" d="M155.9,117.2c-0.1,0.5,0.1,0.5-1.1,0.6v-0.4C155.2,117.4,155.6,117.2,155.9,117.2c0-0.2-0.1-0.4-0.1-0.5
			c-1.2-6.6-3.4-12.8-6.1-18.7c-0.1,0-0.1-0.1-0.2-0.1c0.1,0,0.1,0,0.2,0c-0.5-1-1-2-1.5-2.9c-0.7,0.4-0.4,0.7-1-0.1h0.9
			c-0.2-0.5-0.5-0.9-0.7-1.4c-3-5.4-7.1-12.1-11.9-15.7c-1.4-1-2.5-2.4-3.7-3.9c-0.6,0.1-1.2,0.1-1.9,0.2c0.1-0.2,0.2-0.5,0.4-0.7
			c0.4,0,0.9,0.1,1.2,0.1c-1.1-1.5-2.4-3-3.9-4.1c-3.2-2.5-6.7-4.5-10.5-6c-10.1-4.4-18.5-5.9-28.8-4c-6.8,1.2-8.8,5.7-2.1,4.4
			c6.2-1.2,12.3-1.6,17.6-0.7c5,0.9,15.4,3.9,14.6,5.7c-0.5,1-7.5-2.1-14.9-3c-5.2-0.6-14.9-1.1-22.3,2.9c-4.7,2.5-8.1,9.3-1.4,5.9
			c6.5-3.4,15.7-5.1,23.2-4.6c4.9,0.2,9.8,1.2,14.3,3.2c6.3,2.7,14.3,5.7,18.9,11.3c3.6,4.9,6.8,9.7,9.5,14.9
			c0.1-0.1,0.1-0.2,0.2-0.5h0.7c-0.2,0.2-0.6,0.4-0.9,0.6c3.4,6.6,5.6,13.6,6.2,21.3c0,0.2,0,0.5,0.1,0.7c1.4,0,2.7,0,4.1,0
			C156.2,120.1,156.2,118.6,155.9,117.2z M99.7,60.1c0.1-0.2,0.2-0.5,0.4-0.7C100.2,60.2,100.3,59.6,99.7,60.1z M103.3,61.6
			c0.7,0.5,0.2,0,0.7,0.7C103.8,62.1,103.5,61.8,103.3,61.6z M146.9,96.4h1.1c-0.5,0.2-1,0.5-1.5,0.7
			C146.6,96.9,146.7,96.7,146.9,96.4z M147.2,98.6c0.1-0.2,0.2-0.5,0.4-0.7c0.6,0.5,1.2,1,1.9,1.5C148.7,99.1,148,98.8,147.2,98.6z
			 M153.5,118.6c0.2,0.2,0.5,0.5,0.7,0.7C153.5,118.8,154,119.3,153.5,118.6z M153.8,116.7c0.1-0.2,0.2-0.5,0.4-0.7
			C154.2,116.7,154.6,116.5,153.8,116.7z"/>
	</g>
</g>
<g>
	<g>
		<path class="st0" d="M105.9,122.1c-0.2-1-0.6-2-1-2.9h-2V119c0.5-0.1,1-0.2,1.5-0.4c0.1,0,0.1,0,0.2,0c-0.4-0.9-0.7-1.5-1.2-1.9
			c-1-0.9-1.5,0.2-1.5,2.1c0.2,0,0.5,0,0.7,0.1c-0.2,0.1-0.5,0.1-0.7,0.2c0,0.7,0.1,1.5,0.1,2.4c0.6,0,1.4,0.1,2,0.2
			C104.5,122,105.2,122.1,105.9,122.1z"/>
	</g>
	<g>
		<path class="st0" d="M89.7,128.1L89.7,128.1L89.7,128.1c0.5,1.9,1,3.6,1.5,5.4c0.4,0.1,0.7,0.2,1.1,0.5c-0.4,0-0.6,0.1-1,0.1
			c0.2,1,0.6,1.9,0.9,2.9c0,0,0,0,0-0.1c0.1,0.2,0.2,0.5,0.4,0.7h-0.2c0.2,0.7,0.5,1.4,0.7,2.1c0.5-0.2,1.1-0.4,1.6-0.6
			c1.1-0.5-0.1,0-0.4-1.5c0.5,0.2,1,0.5,1.5,0.7v1.5c-0.9,0.7-0.1,0.2-1.1,0.4c-0.9,1.1,1.9,0.5,3.2,0.4c-0.6-1.6-1.1-3.2-1.5-4.7
			c-0.7-2.4-1.6-5-2.4-7.7c-1.4,0.2-3.4,0.7-3.7,0.7c0.7-0.7,2.4-0.6,3.7-0.9c-0.2-0.9-0.5-1.9-0.7-2.7c0,0,0-0.1-0.5-0.4h0.4
			c-0.2-0.7-0.4-1.6-0.5-2.5c-1.5,0-3,0-4.4,0.1C89,124.3,89.4,126.2,89.7,128.1z M95,136.8V136C95.3,136.6,95.3,136.1,95,136.8z
			 M95,132.4c-0.1-0.2-0.2-0.5-0.4-0.7C95.2,132.2,94.8,132,95,132.4z"/>
	</g>
	<g>
		<path class="st0" d="M98.6,141.4c-0.1-0.2-0.2-0.5-0.2-0.7l-0.9,0.9C97.8,141.4,98.2,141.4,98.6,141.4z"/>
	</g>
	<g>
		<path class="st0" d="M93.1,149.1c-2.2-0.1-4.5-0.1-6.8-0.2c0.7,1,1.5,2,2.2,3.1c1.2,1.7,3.5,9,6.8,7
			C97.6,157.6,94,152.1,93.1,149.1z"/>
	</g>
	<g>
		<path class="st0" d="M82,114.6c-1.1,0.5-2.2,0.1-3.1-0.4C80,114.4,81,114.5,82,114.6c0.6-2.7,1.5-5.6,2.4-8
			c1.1-3.5,3.6-7.2,5.7-10.2c2.2-3.1,9.1-6.1,10-4.5c0.4,0.6-7.1,5.4-9,8.5c-2,3.1-6.7,12.6-6.2,16.6v0.1c1.7,0.1,3.5,0.2,5.4,0.2
			c-0.6,0.2-3.5,0.4-5.2,0.1c0.7,4,2.6,1,3.5,4.1c1.4,0.1,2.9,0,4.5,0c-0.4-2.2-0.6-4.5-0.7-6.6c-0.1-0.1-0.2-0.2-0.5-0.5
			c0.1,0,0.2,0.1,0.5,0.1c-0.1-5.2,0.9-10.3,4-14.7c2.1-2.7,4-4.5,7.6-5.4c1-0.2,4.2-0.6,5.6-0.4c2.2,0.4,6.2,2.7,6.7,3.1
			c3,2.4,4.9,4.2,7,6.8c2.6,3.2,4.9,8.8,5.7,14.7c1.4-0.1,2.7-0.1,3.6,0.7c-0.7,0-2.2,0-3.5-0.1c0.1,1,0.1,2,0.2,2.9
			c1.4-0.1,2.6-0.2,3.7-0.5c0-0.4,0-0.7,0-1.1c-0.4,0-0.7,0.1-1.1,0.1v-0.4c0.4-0.1,0.7-0.2,1.1-0.4l0,0c-0.1-1.2-0.2-2.5-0.5-3.6
			c-2-8.8-4.9-19.8-19.2-26.4c-2.7-1.2-11.3-2.7-13.3-2.9c-13.6-1-20.4,15.7-22.4,29.7c1.4,0,2.9,0.1,4.2,0.1
			C81.6,116.5,81.9,115.6,82,114.6z M89.1,120.7c0.1-0.2,0.2-0.5,0.4-0.7C89.5,120.7,89.9,120.5,89.1,120.7z M91,113.1
			c-0.7-0.5-0.2,0-0.7-0.7C90.5,112.6,90.7,112.9,91,113.1z M87.4,114.6l0.4-0.4c1.2,0.2,2.4,0.5,3.6,0.7
			C89.7,115.7,88.1,115.2,87.4,114.6z M91.3,117.8v-0.7C91.6,117.7,91.7,117.2,91.3,117.8z M129.8,116.4c0,0.7,0.4,0.4-0.4,0.7
			C129.6,116.9,129.7,116.6,129.8,116.4z M120.7,97.2h0.4l-0.7,0.7C120.5,97.7,120.6,97.4,120.7,97.2z M90.6,94.2
			c-1.1-0.5-0.4,0-1.1-0.7C89.9,93.8,90.2,94,90.6,94.2z M86.2,94.9c0.1,0.2,0.2,0.5,0.4,0.7c-0.2-0.2-0.5-0.5-0.7-0.7H86.2z
			 M82.6,109.5c0.2-0.1,0.5-0.2,0.7-0.4c0,0.7,0.2,0.5-0.7,0.7V109.5z"/>
	</g>
	<g>
		<path class="st0" d="M76.7,129.5c0.6,7.3,4.7,12.9,9,18.5c2.4,0.2,5.7,0.1,7.3,0.7c-0.1-0.2-0.1-0.6-0.1-0.7
			c0-0.9-0.1-1.7-0.2-2.7c-2-0.4-4.2-0.5-7.1-0.6h7c-0.2-1.4-0.6-2.7-1-4.1c0-0.1-0.1-0.1-0.1-0.2c0,0,0,0,0.1,0
			c-2-6-5.5-12.2-9.1-16.1c-0.4-0.4-0.6-1-0.9-1.7c-1.6,0-3.1,0-4.7,0.1C76.5,125.2,76.5,127.6,76.7,129.5z M84.4,128.8
			c-0.1-0.2-0.2-0.5-0.4-0.7C84.8,128.6,84.3,128.4,84.4,128.8z M87.5,139.1c0.7,1.2,0.9,4.4,0.5,4.6c-0.6,0.2-2.1-1.7-2.9-2.9
			c-0.7-1.2-3.7-7.6-3.4-8.1C83.5,129.2,86.9,138.3,87.5,139.1z M81.9,125.8c-0.2-0.2-0.5-0.5-0.7-0.7
			C81.9,125.6,81.4,125.2,81.9,125.8z M77.9,123.7c-0.1,0.1,0.2,0.4-0.7,0.7v-0.4C77.4,123.9,77.7,123.8,77.9,123.7z"/>
	</g>
	<g>
		<path class="st0" d="M96.8,141.5v-0.4c-1.5,0.2-1.7,0.6-2.5,1c0,0.1,0.1,0.2,0.1,0.2c0.2,0.7,0.6,1.5,0.9,2.4h1.5v-1.9
			c-0.2-1,0.2-0.5-1.1-0.7C96.3,141.5,95.7,141.9,96.8,141.5z"/>
	</g>
	<g>
		<path class="st0" d="M145.2,131.3c0.6,0.1,1.4,0.2,2,0.4c-0.6,0.1-1.4,0.2-2,0.2c0,0.5-0.1,1-0.2,1.4c0.1,0,0.2,0.1,0.4,0.1
			c-0.1,0-0.2,0-0.4,0c0,0.1,0,0.4-0.1,0.5c-0.5,2.7-1.1,5-2.1,7h0.1c-0.1,0-0.1,0.1-0.2,0.1c-0.5,1-1.1,2.1-1.9,3.1
			c0.1,0.1,0.1,0.2,0.2,0.4c-0.1,0-0.4,0-0.6,0c-0.2,0.4-0.6,0.7-1,1.1c0.7,0.1,1.4,0.1,2.6,0c-0.5,1.5-0.2,1.1-1.5,1.9
			c0.1-0.4,0.2-0.7,0.4-1.1c-1,0.6-0.7-0.4-1.5,1.1c-1.2-0.5-1-0.1-0.9-0.9c-1,1.2-3.6,4.1-5.7,5.4c-1.4,0.7-4.1,2-5,2.4
			c-3.5,1.2-6.7,1.9-10.1-0.1c-0.1,0-0.1-0.1-0.2-0.1h-2.1c-0.2-0.7-0.2-1.1-1.5-1.9h0.1c-3.2-1.6-6.5-2.9-10.1-4.4
			c0,0-0.1,0-0.1-0.1c-0.9,0.1-1.7,0-2.6-0.2c-1.9-0.6-3.7-1.2-5.7-1.6c2.4,6.5,4.9,13.9,10.8,17.3c4.5,2.5,10.7,0.6,15.3-1.1
			c3.1-1.2,10.5-5,12.4-6.1c1.9-1.1,4-3.2,5.9-5.1c-0.7,0.2-0.4,0.2-1.1-0.4c0.4,0.1,0.9,0.2,1.2,0.4c2-2,3.5-3.7,3.9-3.6
			c0.6,0.2,0.7,1,0.2,2.1c0.2-0.1,0.4-0.4,0.7-0.6c0.7,1.5,0.9,2.4,1.9,2.9v0.4c0.2-0.5,0.5-1.1,0.6-1.6c-0.4-0.6-0.6-1.4-1-2h1.7
			c0.1-0.4,0.2-0.7,0.4-1.1c-0.1-0.1-0.1-0.2-0.2-0.2c0.1,0.1,0.1,0.1,0.2,0.2c0.2-0.7,0.4-1.4,0.5-2.1c-0.7-0.1-1.5-0.2-2.1-0.2
			c0.1-0.2,0.2-0.5,0.4-0.7c1.4,0.2,1.2,0,1.9,0.7c0.1-0.5,0.1-0.9,0.1-1.2c0-0.5,0.1-1.1,0.1-1.9c-0.2,0-0.5-0.1-1.1-0.5h1.1
			c0.1-2.4,0.4-6,0.4-9.3c-0.1-0.1-0.2-0.2-0.5-0.5c0.4,0.2,0.4,0.2,0.5,0.2c0.1-3.4,0.1-6.5-0.1-8.2c0-0.2-0.1-0.6-0.1-0.9
			c-1.5,0-3,0.1-4.5,0.1C145.5,125.4,145.5,128.4,145.2,131.3z M100.4,153.8c1.1,0.5,0.4,0,1.1,0.7
			C101.2,154.3,100.8,154.1,100.4,153.8z M99.7,151v-2.9c0.9,0.1,1.7,0.2,2.5,0.4c-0.2,0.1-0.5,0.2-0.7,0.4
			C100.9,150.1,100.8,150.2,99.7,151z M101.8,150.6c1.1,0.5,0.4,0,1.1,0.7C101.8,150.8,102.5,151.3,101.8,150.6z M102.5,149.1
			c0.1-0.2,0.2-0.5,0.4-0.7c0.1,0.2,0.2,0.5,0.4,0.7H102.5z M104.8,152c0.5-0.1,1-0.2,1.5-0.4c0.4,0.2,0.7,0.5,1.1,0.7
			c-1.1-0.1-1,0.1-2.5,0.4V152H104.8z M103.7,148.3c0.2,0.2,0.5,0.5,0.7,0.7C103.7,148.6,104.2,149.1,103.7,148.3z M105.8,160.3
			c-0.1-0.2-0.2-0.5-0.4-0.7h0.7C106,159.9,105.9,160,105.8,160.3z M106.9,159.9c0.1-0.2,0.2-0.5,0.4-0.7c0.1,0.2,0.2,0.5,0.4,0.7
			H106.9z M114.4,157.7c-1.1,3.6-8.8,1.7-10-4.4c-0.2-1.2,4.2,0.4,6,1.1C111.4,154.9,114.7,156.3,114.4,157.7z M129.8,154.9
			c0.1-0.2,0.2-0.5,0.4-0.7h1.5C132.4,155.3,130.3,154.8,129.8,154.9z M132.3,155.3v-0.7C132.7,155.2,132.7,154.6,132.3,155.3z
			 M133.8,154.2c0.4,0.2,0.7,0.5,1.1,0.7C133.8,154.4,134.4,154.9,133.8,154.2z M136,150.6c1.6,0.1,1.7,0.1,2.5,0.7
			C136.9,151.2,136.8,151.3,136,150.6z M141.4,144h1.1C141.6,144.5,142,144.9,141.4,144z M143.3,141.1h1.1v0.4
			C143.3,141.3,144.1,141.9,143.3,141.1z M145.7,144.7H144c0.2-0.6,0.5-1.2,0.7-1.9h1.1C145.1,144.1,145.5,143.1,145.7,144.7z
			 M145.4,141.9c0.1-0.2,0.2-0.5,0.4-0.7h2.2C147.1,141.4,146.2,141.6,145.4,141.9z"/>
	</g>
	<g>
		<path class="st0" d="M118.6,76.5c-9.3-2-20-5.1-29.4-2.6c-6.5,1.7-11.3,3.7-16.3,8.7c-4.9,4.9-5.7,13.6,1.5,5
			c6.2-7.6,16.1-11.2,26.4-10c5.7,0.7,12.6,1.1,17.9,3.2c10,4.2,16.3,11.3,20.4,21c1.1,2.9,2.4,5.7,3.2,8.7c0.6-0.2,1.1-0.5,1.7-0.7
			c0.4,0.6,0.4,0.1,0,0.7h-1.7c1.2,3.6,2.2,7.3,2.7,11.1c1.5,0,3,0,4.5-0.1c-0.9-5.9-2.6-11.3-4.7-16.9
			C140.1,92.7,132.3,79.5,118.6,76.5z M140.8,104.8c0.5,0.1,1,0.2,1.5,0.4C141.4,105.3,141.5,105.3,140.8,104.8z M147.2,120.3h1.1
			C147.4,120.7,148.1,121,147.2,120.3z M148.7,119c-0.7,0.2-1.5,0.5-2.2,0.7c-0.2-0.2-0.5-0.5-0.7-0.7H148.7z"/>
	</g>
	<g>
		<path class="st0" d="M101.8,170.7L101.8,170.7C101.9,170.9,101.9,170.9,101.8,170.7L101.8,170.7c7.2,4.7,13.9,4,21.8,2
			c11.5-3,18.2-10.7,21.9-17.7c-0.9-0.2-1.7-0.6-2.6-0.9c0.2-0.1,0.5-0.2,0.7-0.4c1,0.4,1.5,0.4,2,0.9c0.4-0.6,0.6-1.4,0.9-2
			c-2.1-0.2-1.7-0.4-2.2,0c-1-0.5-1.2-0.6-1.1-0.9c-1.7,2.9-4.7,6.5-8.2,9.5c0.4,0,0.6,0.1,1,0.1c-0.6,0.2-1.1,0.4-1.5,0.2
			c-1.1,1-2.2,1.9-3.5,2.6c-3.2,2-11.1,4.7-13.4,5.1c-4.4,0.5-8.8-0.5-12.7-2c-0.6-0.2-1.5-0.9-2.5-1.5c-0.5,0-1.1-0.1-1.6-0.1
			c0.2-0.1,0.6-0.2,0.9-0.4c-2.5-1.6-5.5-3.5-6.5-1.6C93.5,166.6,99.9,169.6,101.8,170.7L101.8,170.7z M104,167.3
			c0.2,0.2,0.5,0.5,0.7,0.7c-0.5-0.1-1-0.2-1.5-0.4C103.5,167.5,103.8,167.4,104,167.3z M102.2,168c-0.2-0.2-0.5-0.5-0.7-0.7
			C102.2,167.8,101.7,167.3,102.2,168z"/>
	</g>
	<g>
		<path class="st0" d="M122.5,136.3c-3.4,1.7-7-0.1-9.5-2.4h-0.2c0,0,0-0.1,0.1-0.1c-0.1-0.1-0.2-0.2-0.4-0.2
			c-2.4-2.2-4.1-4.9-5.5-7.8c-0.5-0.1-1-0.4-1.2-0.5h1c-0.2-0.6-0.5-1.4-0.7-2.2c-1.4-0.1-2.6-0.2-4-0.4c0.1,0.7,0.2,1.5,0.4,2.2
			h0.4c-0.1,0.1-0.2,0.1-0.2,0.2c0.2,1.1,0.5,2.1,0.9,3h0.1h-0.1c0.1,0.4,0.2,0.9,0.5,1.2c2.4,5.2,7.1,10.1,12.8,11.7
			c0.1,0,0.2,0,0.2,0.1c1.4,0,2.7,0.1,4,0.1c0,0.1-0.1,0.2-0.2,0.2c8.5-0.4,11.9-10.2,11.9-18.5c-1.2,0-2.5,0-3.7,0.1
			C129.1,128.6,127.3,133.8,122.5,136.3z M104.4,128.8c0.1-0.2,0.2-0.5,0.4-0.7h1.1C105.4,128.3,104.9,128.6,104.4,128.8z
			 M106.2,128.1c1.1,0.5,0.4,0,1.1,0.7C106.9,128.6,106.5,128.3,106.2,128.1z M108,128.8v-0.7C108.4,128.7,108.4,128.1,108,128.8z
			 M113.5,139.3v-0.7C113.8,139.3,113.9,138.6,113.5,139.3z"/>
	</g>
	<g>
		<path class="st0" d="M79,121.1c1-0.2,1.5-0.2,2.2-0.4c0-0.9,0.1-2,0.2-3c-1.4,0.1-2.9,0.2-4.2,0.2c-0.2,1.5-0.4,2.9-0.5,4.2
			c1,0,1.9,0.1,2.6,0.1C79.3,121.8,79.1,121.5,79,121.1z"/>
	</g>
	<g>
		<path class="st0" d="M144.4,150.6h-0.5c-0.1,0.4-0.4,0.7-0.6,1.1C143.5,151.5,143.9,151.1,144.4,150.6z"/>
	</g>
</g>
<g>
	<g>
		<path class="st0" d="M127.4,90.1c-9.2-7.8-25-13.2-36.7-9.6c-9.8,3-18.3,11.1-24,20.8c-4,6.7-2.6,16.4,2,5.7
			c2.9-6.6,8-12.3,13.2-16.7c13.3-11.1,37.7-6.6,46.6,8.5c4,6.7,7.1,14.9,8,23.2c1.4,0,2.9,0,4.2,0c-0.2-2.1-0.6-4.2-1.1-6.3
			C137.8,107.1,134.3,95.8,127.4,90.1z M66.6,105.9c0.7,0.5,0.2,0,0.7,0.7C67.1,106.4,66.8,106.1,66.6,105.9z M74.9,96.1v-1.5
			c0.1,0.5,0.2,1,0.4,1.5H74.9z"/>
	</g>
	<g>
		<path class="st0" d="M95.7,122.3c0.2,1.9,0.7,3.9,1.2,5.7c0-0.1,0.1-0.2,0.1-0.4c1.4,0.1,2.9,0.1,4.2,0.2
			c-0.2-0.9-0.5-1.7-0.6-2.6c-0.4-0.1-0.7-0.4-1-0.6h0.9c-0.1-0.9-0.4-1.6-0.5-2.5c-0.1,0-0.2,0-0.5,0
			C98.3,122.2,97.1,122.2,95.7,122.3z"/>
	</g>
	<g>
		<path class="st0" d="M135.8,135c-0.9,3.6-4.4,3.4-7.6,5.1c-1.6,0.9-3.2,1.9-5,2.7h3.6c-0.1,0.7-0.2,1.5-0.4,2.2h0.5
			c1.6-0.7,3-1.5,3.9-1.9c-0.1-0.1-0.4-0.2-0.5-0.4c2.2,0.1,4.5,0.1,6.7,0.2c0.2-0.5,0.5-0.9,0.7-1.4c2.9-5.9,3.5-12.6,2.9-19
			c-1.4,0-2.9,0-4.2,0.1C137,126.9,136.8,131.2,135.8,135z M127.9,143.6c-0.2-0.1-0.5-0.2-0.7-0.4c0.1-0.2,0.2-0.5,0.4-0.7h1.1
			C128.4,142.9,128.2,143.2,127.9,143.6z M129.8,143.6c-0.1-0.2-0.2-0.5-0.4-0.7C130.1,143.4,129.7,143.2,129.8,143.6z M130.6,141.9
			c0.1-0.2,0.2-0.5,0.4-0.7c0.2,0.2,0.5,0.5,0.7,0.7H130.6z"/>
	</g>
	<g>
		<path class="st0" d="M127.2,147.2c-1.7,1-6.2,1.9-7.2,3.5c-3.1,5.4,7.3,1.5,8.6,0.7c2.6-1.4,4.9-3.2,6.6-5.5
			c-0.1,0-0.2-0.1-0.7-0.5c0.4,0.1,0.6,0.1,1,0.2c0.4-0.4,0.6-0.7,0.9-1.2c-1.4-0.1-2.9-0.4-4.1-0.6c-0.1,0.6-0.9,1.1-1.9,1.7
			c-0.1,0.4-0.2,0.7-0.4,1h-0.4c0-0.2,0.1-0.5,0.1-0.7C129.1,146.4,127.9,146.9,127.2,147.2z M121.8,152.3c-1.6,0-0.9,0.4-1.9-0.4
			h1.9V152.3z M123.3,152.7c-0.1-0.2-0.2-0.5-0.4-0.7h0.7C123.5,152.2,123.3,152.5,123.3,152.7z M124,152c0.7,0.5,0.2,0,0.7,0.7
			C124.5,152.5,124.2,152.2,124,152z M125.8,149.5c0.1-0.2,0.2-0.5,0.4-0.7h0.4L125.8,149.5z M133.4,145.9c-0.1,0.4-0.2,0.7-0.4,1.1
			c-0.2-0.5-0.5-1-0.7-1.5C132.7,145.6,133,145.7,133.4,145.9z M132,145.1c-0.1,0.2-0.2,0.5-0.4,0.7c-0.1-0.2-0.2-0.5-0.4-0.7H132z"
			/>
	</g>
	<g>
		<path class="st0" d="M100.1,121.5c-0.1-1-0.2-1.9-0.2-2.9c0,0,0,0-0.1-0.1c0,0,0,0,0.1,0c0-0.1,0-0.2,0-0.4
			c-0.1-2.2,0.1-4.5,0.6-6.6c0,0-0.1-0.1-0.2-0.4c0.1,0.1,0.1,0.1,0.2,0.2c0.1-0.4,0.2-0.9,0.4-1.2c-0.4-0.1-0.6-0.2-1-0.5
			c0.5,0,0.7,0,1.1,0c0.5-1.6,1.2-3.1,2.1-4.7c1-1.7,3.2-4.2,5.5-4c2.5,0.2,5,1.5,5.1-0.6c0.1-3.2-4.2-4.1-7-3.6
			c-3.5,0.6-7,5.5-8.6,8.5c-1,2-1.6,4-2.1,6c1,0.2,0.6,0,1.2,0.6c-0.5-0.1-0.9-0.1-1.4-0.2c-0.2,1-0.4,2-0.4,3.1
			c0.1,0,0.1,0,0.2,0.1c-0.1,0-0.2,0-0.2,0.1c-0.1,1.2-0.1,2.4,0,3.6c1.2,0.4,0.7,0,1.4,0.7c-0.5-0.1-0.9-0.1-1.4-0.2
			c0,0.9,0.1,1.6,0.2,2.5C97.1,121.5,98.6,121.5,100.1,121.5z M97.8,111.4c0.4,0.6,0.4,0.1,0,0.7V111.4z M97.8,112.7
			c0.1,0.2,0.2,0.5,0.4,0.7h-0.7C97.6,113.2,97.7,113,97.8,112.7z M96.1,115.4V115c0.5-0.1,1-0.2,1.5-0.4h1.5
			C98.7,115.1,98.9,115.5,96.1,115.4z M98.2,117.8c-0.1-0.2-0.2-0.5-0.4-0.7C98.6,117.6,98.1,117.5,98.2,117.8z M97.4,119.3v-0.7
			C97.8,119.2,97.8,118.7,97.4,119.3z M97.4,120.1c0.5,0.1,1,0.2,1.5,0.4c-0.6,0.1-1.2,0.2-1.9,0.4
			C97.2,120.5,97.3,120.3,97.4,120.1z"/>
	</g>
	<g>
		<path class="st0" d="M123.6,143.6c-1-0.1-1.1-0.1-1.4-0.2c-0.5,0.2-1.1,0.5-1.6,0.6h0.5c-0.9,0.5-1,0.5-1.5,0.2
			c-1.7,0.4-3.5,0.2-5.1-0.2c-1.1,0.1-2.4-0.1-3.2-1.1h0.7c-0.5-0.2-1-0.6-1.5-0.9c-4.6-3.2-7.5-8.3-9.2-13.8
			c-1.5,0.1-2.9,0.1-4.4,0.2c0.1,0.2,0.1,0.6,0.2,0.9c0.2,0.7,0.5,1.6,0.7,2.4h3.1c-0.7,0.2-1.5,0.5-2.2,0.7
			c0.9,0.2,1.7,0.5,2.5,0.7c-0.9,0.1-1.9,0.1-2.7,0.2c2,4.6,5,9,9,11.9c0.7-0.2,1.5-0.4,2.1-0.6c-0.2-0.1-0.5-0.2-0.7-0.4
			c-1.1-0.2-2.2-0.5-3.2-0.7c1.6-1.1,3.5-0.1,5.1-0.4c0.1,1.5,0.9,1.7,2.2,2.9c-1.2-0.2-2.5,0-3.7,0.2c0.6,0.4,1.2,0.7,1.9,1
			c4.1,2,9.3,0.4,13.4-1.4c-1.1-0.2-2.5-0.6-4.4-0.6c0.6-0.2,1.2-0.5,1.9-0.7C123.6,145,123,145.1,123.6,143.6z M111.6,146.6
			c1.1,0.5,0.5,0,1.1,0.7C112.4,147,112,146.7,111.6,146.6z M113.1,146.6c0.7,0.5,0.2,0,0.7,0.7C113.6,147,113.4,146.7,113.1,146.6z
			 M114.5,147.2c-0.1-0.2-0.2-0.5-0.4-0.7C114.9,147,114.4,147,114.5,147.2z M121.5,146.2c0.2,0.9,0.1,0.2-0.4,1.1
			C121.2,146.9,121.3,146.6,121.5,146.2z M117.1,145.9c1,0.6,0.5,0.1,1.1,1.1C117.9,146.6,117.5,146.2,117.1,145.9z M118.6,146.2
			c0.6,0.1,1.2,0.2,1.9,0.4C119.2,146.9,119.4,146.9,118.6,146.2z"/>
	</g>
</g>
<g>
	<g>
		<path class="st0" d="M104.8,110.1c0,0.9,0.1,1.7,0.4,2.7c0.2,0,0.5,0,0.7-0.1c1.1,0.1,2.1,0.2,3.2,0.4c-0.2-1.2-0.5-2.4-0.4-3.1
			C107.4,110,106,110.1,104.8,110.1z"/>
	</g>
	<g>
		<path class="st0" d="M105.3,113.7c0.4,1.6,1,3.4,1.7,5c1.4,0.1,2.7,0.2,4.1,0.2c-0.9-1.9-1.6-3.7-2.1-5.5
			C107.9,113.6,106.7,113.7,105.3,113.7z"/>
	</g>
	<g>
		<path class="st0" d="M108.9,122.5c1.4,0.1,2.9,0.2,4.5,0.2c-0.2-0.4-0.5-0.6-0.6-1c-0.5-0.7-1-1.6-1.4-2.5h-4
			C107.8,120.3,108.4,121.5,108.9,122.5z"/>
	</g>
	<g>
		<path class="st0" d="M104.8,109.6c0.1,0,0.2-0.1,0.4-0.1c1.1,0.1,2.4,0.1,3.5,0.2c0-0.6,0.2-1,0.5-1.2c2.7-1.5,3.5,5.9,4.4,9
			c0.1,0.6,0.4,1.2,0.6,1.9c0.1,0,0.2,0,0.4,0h-0.4c0.6,1.4,1.4,2.5,2.1,3.5c1.5,0,3.1,0,4.7,0c-2.5-2.5-3.6-9.3-5.9-13.9
			c-0.4-0.1-0.6-0.2-0.9-0.5c0.2,0,0.4,0,0.6,0c-1.6-3.1-3.7-5-7.2-3.7C105.7,105.4,104.8,107.3,104.8,109.6z M118.6,119
			c-1.1,0.7-2.6,1.1-3.6,0H118.6z"/>
	</g>
	<g>
		<path class="st0" d="M122,107.3c-0.7-1.4-5.7-8-7-3.4c-0.1,0.6,1,2.4,2.5,4.7c0.5,0,1,0.1,1.5,0.1c-0.4,0.1-0.7,0.2-1.1,0.4
			c0.6,0.9,1.2,2,1.9,3c0.4,0.1,0.7,0.2,1.2,0.2c-0.4,0-0.6,0.1-1,0.1c1.1,2.1,2.1,4.2,2.5,6.5h2.9c-0.9,0.6-1.9,0.9-2.7,0.6v0.1
			c0,0.5,0.2,2.2-0.1,3.1c1.6,0,3.1-0.1,4.7-0.2c0-2.2-0.4-4.4-0.7-5.9C125.5,113.7,123.5,110.1,122,107.3z M120.7,108.8
			c0.2-0.1,0.5-0.2,0.7-0.4h0.4C121.1,109,121.7,109.3,120.7,108.8z"/>
	</g>
	<g>
		<path class="st0" d="M121.5,123.3C121.5,123.3,121.3,123.2,121.5,123.3C121.3,123.2,121.3,123.2,121.5,123.3L121.5,123.3z"/>
	</g>
	<g>
		<path class="st0" d="M121.5,123.3L121.5,123.3C121.3,123.2,121.3,123.2,121.5,123.3c-0.1-0.1-0.1-0.1-0.2-0.2
			c-1.5,0-3.1,0.1-4.6,0.1c2.4,2.9,5,4.4,4.7,5.2c-0.5,1.5-4.5-1.1-7.5-5.1c-1,0-1.9,0-2.9,0c-0.5,0-1-0.1-1.6-0.1
			c2.4,4,5.5,7.5,8.2,8.8c0.2-0.1,0.4-0.2,0.6-0.4c0.5,0.1,1,0.2,1.5,0.4h-2c0.9,0.4,1.6,0.6,2.4,0.6s1.4-0.1,2-0.2h-1.2
			c0.1-0.2,0.2-0.5,0.4-0.7c1.2,0.4,0.7,0,1.4,0.6c3.6-1.2,4.6-5.4,4.5-9.3c-1.6,0-3.2,0.1-4.7,0.1
			C122,123.3,121.8,123.5,121.5,123.3z"/>
	</g>
</g>
<g>
	<g>
		<path class="st0" d="M66.7,133.9c0.1,3.9,1.5,9.2,2.7,12.8c0.7,0.1,1.5,0.1,2.2,0.2c-0.6,0.2-1.4,0.4-2.1,0.4
			c0.2,0.9,0.6,1.6,0.9,2.1c0.2,0.6,0.6,1.4,1.1,2c0.6,0.1,0.7,0.1,1.2,0.6h-0.9c2.2,3,5.5,4.6,3.7-0.4c-1,0.4-0.1,0.6-1.1,0h1.1
			c-0.4-1-0.9-2.2-1.6-3.9c-2.1-4.2-1.2-6.1-0.4-5.4c1.1,0.9,2.1,1.9,2.9,3c1-0.1,2.1-0.4,3.1-0.5c-0.5-0.7-1.1-1.6-1.9-2.5
			c-4.5-6-5.6-10.3-5.2-16.6c-0.4,0-0.6,0.1-0.9,0.1c0.2-0.1,0.6-0.1,0.9-0.2c0.1-0.9,0.1-1.9,0.2-3c-1.9,0-3.7,0-5.5,0.1
			C67,127.4,66.7,133.3,66.7,133.9z M71.7,132c0.2,0.7,0.2,0.2-0.4,0.7C71.4,132.5,71.6,132.3,71.7,132z M68.1,126.9h2.2
			C69.6,127.7,69.2,127.6,68.1,126.9z"/>
	</g>
	<g>
		<path class="st0" d="M73.9,116L73.9,116L73.9,116C73.9,115.9,73.9,115.9,73.9,116C73.9,115.9,73.9,115.9,73.9,116
			C73.9,115.9,73.9,115.9,73.9,116c0-0.1,0-0.1,0-0.1l0,0l0,0l0,0l0,0l0,0l0,0l0,0c1-5.9,4.2-11.1,6.6-16.4c0,0,0,0,0-0.1
			c-0.1-0.1-0.4-0.4-0.5-0.5c0.6,0.4,0.4,0.1,0.5,0.5c0.7-2-0.4-3.9-2.2-2.9c-1.7,1-4.4,5-5,6.7c-1.5,3.6-3,7-4.2,10.6
			c0.6-0.1,1.2-0.2,1.9-0.4h3.4c-0.9,0.9-3.2,0.9-5.2,0.9c-0.5,1.6-1,3.4-1.2,5.2c-0.1,0.7-0.2,1.6-0.2,2.5c1.9,0,3.7,0.1,5.5,0.2
			C73.2,120.1,73.5,118.1,73.9,116z M69.6,117.5c0.4-0.1,0.7-0.2,1.1-0.4c0.9,0.1,1.7,0.2,2.5,0.4c-1.2,0.1-2.4,0.2-3.6,0.4V117.5z"
			/>
	</g>
	<g>
		<path class="st0" d="M81.3,158.4c2.4,6.1,14.7,14.2,7.1,2.6c-2-3.1-2.1-6.7-8.2-15.6h-3.5C79.8,149.8,79.9,155.2,81.3,158.4z
			 M84.8,156.3c0.5,0.9,1,1.7,1.5,2.5c-0.5-0.1-1-0.2-1.5-0.4V156.3z M84.8,159.3h1.1c-0.9,1.2-0.5,0.1-0.4,1.5v0.4
			c-0.5-0.2-1-0.5-1.5-0.7C84.3,159.9,84.5,159.7,84.8,159.3z M82.6,157.4c0.2,0.2,0.5,0.5,0.7,0.7c-0.2,0.1-0.5,0.2-0.7,0.4
			c-0.1-0.1-0.2-0.2-0.4-0.4C82.4,157.9,82.5,157.7,82.6,157.4z"/>
	</g>
</g>
<g>
	<g>
		<path class="st0" d="M169,108.4c-0.1-0.2-0.2-0.5-0.4-0.7c-0.1,0.2-0.2,0.5-0.4,0.7H169z"/>
	</g>
	<g>
		<path class="st0" d="M168.6,86.6v0.7C169,86.7,169,87.2,168.6,86.6z"/>
	</g>
	<g>
		<path class="st0" d="M169,89.5c-0.2,0.1-0.5,0.2-0.7,0.4C168.3,89.8,169.8,89.7,169,89.5z"/>
	</g>
	<g>
		<path class="st0" d="M152.3,56.9c0.2,0.2,0.5,0.5,0.7,0.7h1.9c-0.4-0.4-0.7-0.7-1.1-1.1C152.7,57.1,153.7,56.7,152.3,56.9z"/>
	</g>
	<g>
		<path class="st0" d="M156.3,97.9c0.1,0.2,0.2,0.5,0.4,0.7C156.6,98.3,156.9,98.3,156.3,97.9z"/>
	</g>
	<g>
		<path class="st0" d="M167.3,120.7c-0.2-0.2-0.5-0.5-0.7-0.7C167,120.7,166.5,120.2,167.3,120.7z"/>
	</g>
	<g>
		<path class="st0" d="M158.8,54.6c0.1-0.2,0.2-0.5,0.4-0.7h-0.7C158.6,54.2,158.7,54.4,158.8,54.6z"/>
	</g>
	<g>
		<path class="st0" d="M158.2,80.5c0.1,0.2,0.2,0.5,0.4,0.7C158.3,80.9,158.8,80.9,158.2,80.5z"/>
	</g>
	<g>
		<path class="st0" d="M161.8,58.7v0.7C162.2,58.7,162,59.3,161.8,58.7z"/>
	</g>
	<g>
		<path class="st0" d="M159.9,94.2c-0.6-0.7,0-0.2-1.1-0.7C159.2,93.8,159.6,94,159.9,94.2z"/>
	</g>
	<g>
		<path class="st0" d="M161.8,117.8c-0.2-0.2-0.5-0.5-0.7-0.7c-0.1,0.2-0.2,0.5-0.4,0.7H161.8z"/>
	</g>
	<g>
		<path class="st0" d="M159.2,96.4c-0.1,0.2-0.2,0.5-0.4,0.7h1.5C159.7,96.4,160.3,96.9,159.2,96.4z"/>
	</g>
	<g>
		<path class="st0" d="M160.3,116.7c-0.1-0.2-0.2-0.5-0.4-0.7c-0.1,0.2-0.2,0.5-0.4,0.7H160.3z"/>
	</g>
	<g>
		<path class="st0" d="M162.2,97.2h0.7c-0.1-0.2-0.2-0.5-0.4-0.7C162.4,96.7,162.3,96.9,162.2,97.2z"/>
	</g>
	<g>
		<path class="st0" d="M163.2,97.9h-0.7c-0.1,0.4-0.2,0.7-0.4,1.1L163.2,97.9z"/>
	</g>
	<g>
		<path class="st0" d="M163.5,51.8c0.1,0.2,0.2,0.5,0.4,0.7C163.8,52.1,164.3,52.3,163.5,51.8z"/>
	</g>
	<g>
		<path class="st0" d="M165.4,119.3c-0.1-0.2-0.2-0.5-0.4-0.7c-0.1,0.2-0.2,0.5-0.4,0.7H165.4z"/>
	</g>
	<g>
		<path class="st0" d="M165.8,89.5c-0.1,0.2-0.2,0.5-0.4,0.7C166.2,90,165.8,90.2,165.8,89.5z"/>
	</g>
	<g>
		<path class="st0" d="M164.3,81.1h1.9c-0.7-0.7-0.6-0.4-1.9-0.7V81.1z"/>
	</g>
	<g>
		<path class="st0" d="M155.2,149.8c0.2-0.1,0.5-0.2,0.7-0.4v0.7c0.2-0.5,0.5-1,0.7-1.5h-1.5V149.8z"/>
	</g>
	<g>
		<path class="st0" d="M155.6,145.5v0.7C155.9,145.6,155.9,146.1,155.6,145.5z"/>
	</g>
	<g>
		<path class="st0" d="M159.6,169c-0.1,0.2-0.2,0.5-0.4,0.7C159.9,169.5,159.7,169.8,159.6,169z"/>
	</g>
	<g>
		<path class="st0" d="M155.9,133.8c-0.5-0.7,0-0.2-0.7-0.7C155.4,133.4,155.7,133.5,155.9,133.8z"/>
	</g>
	<g>
		<path class="st0" d="M165,124.4c-0.2,0.1-0.5,0.2-0.7,0.4C164.3,124.7,165.8,124.6,165,124.4z"/>
	</g>
	<g>
		<path class="st0" d="M165,128.1c-0.5-0.7,0-0.2-0.7-0.7C164.5,127.6,164.8,127.8,165,128.1z"/>
	</g>
	<g>
		<path class="st0" d="M163.9,150.2c1.6,0,3.1-0.1,4,0.4c-0.9-1.7-1.7-1.2-3.6-1.5C164.2,149.5,164,149.8,163.9,150.2z"/>
	</g>
	<g>
		<path class="st0" d="M155.6,125.1v0.4c1-0.4,0.6-0.6,0.7-0.7C156.1,124.8,155.8,124.9,155.6,125.1z"/>
	</g>
	<g>
		<path class="st0" d="M160.7,128.1c-0.2-0.2-0.5-0.5-0.7-0.7C160.4,128.1,159.9,127.6,160.7,128.1z"/>
	</g>
	<g>
		<path class="st0" d="M163.9,174.5c-0.1,0.4-0.2,0.7-0.4,1.1c0.7-0.5,0.6-0.4,1.1-1.1H163.9z"/>
	</g>
	<g>
		<path class="st0" d="M156.7,180.7l0.7-0.7h-0.4C156.9,180.2,156.8,180.5,156.7,180.7z"/>
	</g>
	<g>
		<path class="st0" d="M168.6,149.8c0.5,0.7,0,0.2,0.7,0.7C169.1,150.3,168.9,150.1,168.6,149.8z"/>
	</g>
	<g>
		<path class="st0" d="M166.9,178.5c0.6-0.1,1.2-0.2,1.9-0.4c-0.5-0.1-1-0.2-1.5-0.4C167.2,178,167,178.2,166.9,178.5z"/>
	</g>
	<g>
		<path class="st0" d="M166.9,130.9h-1.1C166.8,131.4,165.9,131.5,166.9,130.9z"/>
	</g>
	<g>
		<path class="st0" d="M166.5,174.9v0.7c-0.2-0.1-0.5-0.2-0.7-0.4c0.7,0.6,1.7,0.9,2.9,0C167.9,175.1,167.3,175,166.5,174.9z"/>
	</g>
	<g>
		<path class="st0" d="M166.5,161c-0.1,0.2-0.2,0.5-0.4,0.7h1.1C167,161.5,166.8,161.3,166.5,161z"/>
	</g>
	<g>
		<path class="st0" d="M160.7,153.4c0.2,0.1,0.5,0.2,0.7,0.4c0.6-0.4,1.2-0.7,1.9-1.1c0.7,1.1-0.4,0.6,1.1,1.1
			c0.4-1-0.1-0.5,1.5-0.7c-1.1-0.9-4-0.6-5.1-0.7v1.1H160.7z"/>
	</g>
	<g>
		<path class="st0" d="M166.5,152.3c-0.1,0.2-0.2,0.5-0.4,0.7c0.9-0.1,1.7-0.2,2.5-0.4C167.9,152.6,167.3,152.5,166.5,152.3z"/>
	</g>
	<g>
		<path class="st0" d="M162.2,177.7c0.6,0.5,1.2,1,1.9,1.5c0.4-1-0.1-0.5,1.5-0.7C164.5,177.8,163.9,177.7,162.2,177.7z"/>
	</g>
	<g>
		<path class="st0" d="M149.7,155.3"/>
	</g>
	<g>
		<path class="st0" d="M150.5,178.1c-0.1,0.2-0.2,0.5-0.4,0.7l0.7-0.7H150.5z"/>
	</g>
	<g>
		<path class="st0" d="M151.2,167.6h-1.1c0.9,0.7,0,0.1,1.1,0.4V167.6z"/>
	</g>
	<g>
		<path class="st0" d="M150.8,185.1h-0.4c-0.1,0.2-0.2,0.5-0.4,0.7h1.1C151.1,185.6,151,185.3,150.8,185.1z"/>
	</g>
	<g>
		<path class="st0" d="M146.5,159.3c-0.1,0.2-0.2,0.5-0.4,0.7h1.1C147,159.8,146.7,159.5,146.5,159.3z"/>
	</g>
	<g>
		<path class="st0" d="M149.5,159.7c-0.5-0.1-1-0.2-1.5-0.4C148.9,160,148.4,159.9,149.5,159.7z"/>
	</g>
	<g>
		<path class="st0" d="M146.5,170.1c0.6-0.5,0.2-0.4,0.4-0.7C146.7,169.6,146.6,169.9,146.5,170.1z"/>
	</g>
	<g>
		<path class="st0" d="M127.7,190.8c0,0,1.5-0.1,0.7-0.4C128.1,190.7,127.8,190.8,127.7,190.8z"/>
	</g>
	<g>
		<path class="st0" d="M121.1,187.2c-0.1,0.4-0.2,0.7-0.4,1.1C121.2,187.6,121.3,188.1,121.1,187.2z"/>
	</g>
	<g>
		<path class="st0" d="M101.2,186.4c-0.1-0.2-0.2-0.5-0.4-0.7c-0.1,0.2-0.2,0.5-0.4,0.7H101.2z"/>
	</g>
	<g>
		<path class="st0" d="M124,177.1c-0.1-0.5-0.2-1-0.4-1.5v1.5H124z"/>
	</g>
	<g>
		<path class="st0" d="M123.6,187.9h-0.7c-0.1-0.2-0.2-0.5-0.4-0.7c-0.1,0.4-0.2,0.7-0.4,1.1h1.5
			C123.6,188.3,123.6,187.9,123.6,187.9z"/>
	</g>
	<g>
		<path class="st0" d="M151.2,158.6h2.2c-0.2-0.2-0.5-0.5-0.7-0.7c-0.5,0.1-1,0.2-1.5,0.4V158.6z"/>
	</g>
	<g>
		<path class="st0" d="M153.1,143.6"/>
	</g>
	<g>
		<path class="st0" d="M152.7,170.1c0.5-0.2,1-0.5,1.5-0.7c-0.5-0.1-1-0.2-1.5-0.4V170.1z"/>
	</g>
	<g>
		<path class="st0" d="M150.5,158.2c0.7-0.6,1.2-0.2,0.7-1.1C151,157.4,150.7,157.8,150.5,158.2z"/>
	</g>
	<g>
		<path class="st0" d="M146.1,180h-0.4c-0.1,0.2-0.2,0.5-0.4,0.7L146.1,180z"/>
	</g>
	<g>
		<path class="st0" d="M146.1,155.3"/>
	</g>
	<g>
		<path class="st0" d="M154.5,149.8c-0.5-0.1-1-0.2-1.5-0.4"/>
	</g>
	<g>
		<path class="st0" d="M142.9,128.1c0.2,0.2,0.5,0.5,0.7,0.7C143.1,128.1,143.6,128.6,142.9,128.1z"/>
	</g>
	<g>
		<path class="st0" d="M104.8,174.5c-0.2,0.1-0.5,0.2-0.7,0.4v0.4C104.9,174.9,104.7,174.6,104.8,174.5z"/>
	</g>
	<g>
		<path class="st0" d="M105.5,176.4V176c-0.2-0.1-0.5-0.2-0.7-0.4c-0.1,0.1-0.2,0.2-0.4,0.4c0.1,0.2,0.2,0.5,0.4,0.7
			C105,176.6,105.3,176.5,105.5,176.4z"/>
	</g>
	<g>
		<path class="st0" d="M116.7,188.7c1.4-0.2,1.1-0.1,1.9-0.7h-0.7c-0.4,0.1-0.7,0.2-1.1,0.4V188.7z"/>
	</g>
	<g>
		<path class="st0" d="M98.6,178.1c-0.1,0.2-0.2,0.5-0.4,0.7l0.7-0.7H98.6z"/>
	</g>
	<g>
		<path class="st0" d="M71.7,57.2c-0.2-0.2-0.5-0.5-0.7-0.7C71.4,57.2,71.1,56.7,71.7,57.2z"/>
	</g>
	<g>
		<path class="st0" d="M71.3,32.2c-0.2-0.2-0.5-0.5-0.7-0.7C71.2,32.1,70.7,31.6,71.3,32.2z"/>
	</g>
	<g>
		<path class="st0" d="M73.9,75.4c-0.5-0.7,0-0.2-0.7-0.7C73.4,74.9,73.7,75.2,73.9,75.4z"/>
	</g>
	<g>
		<path class="st0" d="M69.6,51v0.7C69.9,51.1,69.8,51.6,69.6,51z"/>
	</g>
	<g>
		<path class="st0" d="M69.6,95.3c0.5,0.7,0,0.2,0.7,0.7C70.1,95.8,69.8,95.6,69.6,95.3z"/>
	</g>
	<g>
		<path class="st0" d="M67.7,50.3c-0.5-0.7,0-0.2-0.7-0.7C67.2,49.9,67.4,50,67.7,50.3z"/>
	</g>
	<g>
		<path class="st0" d="M64.5,55.4l0.7-0.7h-1.5C64,54.9,64.2,55.1,64.5,55.4z"/>
	</g>
	<g>
		<path class="st0" d="M65.6,56.1c0.2,0.2,0.5,0.5,0.7,0.7C65.7,56.1,66.2,56.6,65.6,56.1z"/>
	</g>
	<g>
		<path class="st0" d="M77.5,51.8v0.7C77.9,51.9,77.9,52.4,77.5,51.8z"/>
	</g>
	<g>
		<path class="st0" d="M80,98.6c0.2,0.2,0.5,0.5,0.7,0.7C80.3,98.7,80.8,99.2,80,98.6z"/>
	</g>
	<g>
		<path class="st0" d="M66.6,105.9c0.2,0.2,0.5,0.5,0.7,0.7C66.8,105.9,67.3,106.4,66.6,105.9z"/>
	</g>
	<g>
		<path class="st0" d="M79,104.4l0.7-0.7c-0.2-0.1-0.5-0.2-0.7-0.4V104.4z"/>
	</g>
	<g>
		<path class="st0" d="M77.5,109.1c-0.1,0.2-0.2,0.5-0.4,0.7C77.9,109.6,77.9,109.9,77.5,109.1z"/>
	</g>
	<g>
		<path class="st0" d="M74.9,94.6v1.5h0.4C75.2,95.6,75,95.1,74.9,94.6z"/>
	</g>
	<g>
		<path class="st0" d="M82.3,114.6c-1.1-0.1-2.2-0.2-3.2-0.4C79.9,114.9,81,115.1,82.3,114.6z"/>
	</g>
	<g>
		<path class="st0" d="M76,50.6c0.2,0.2,0.5,0.5,0.7,0.7C76.3,50.8,76.8,51.1,76,50.6z"/>
	</g>
	<g>
		<path class="st0" d="M64.5,91.7H63C64.2,92.2,63.3,92.3,64.5,91.7z"/>
	</g>
	<g>
		<path class="st0" d="M60.9,79.4v0.4c1.5-0.1,1.4-0.1,2.2-0.7h-1.2C61.6,79.1,61.2,79.3,60.9,79.4z"/>
	</g>
	<g>
		<path class="st0" d="M70.9,113.1c-1.2,0.2-2.4,0.5-3.6,0.7c2.2,0.1,5.7,0.4,6.8-0.7H70.9z"/>
	</g>
	<g>
		<path class="st0" d="M69.6,117.8c1.2-0.1,2.4-0.2,3.6-0.4c-0.9-0.1-1.7-0.2-2.5-0.4c-0.4,0.1-0.7,0.2-1.1,0.4V117.8z"/>
	</g>
	<g>
		<path class="st0" d="M67,113.9c-0.4-0.1-0.7-0.2-1.1-0.4c-0.1,0.4-0.2,0.7-0.4,1.1c0.5-0.1,1-0.2,1.5-0.4
			C67,114.2,67,113.9,67,113.9z"/>
	</g>
	<g>
		<path class="st0" d="M66,80.1c0.1-0.2,0.2-0.5,0.4-0.7h-0.7C65.7,79.6,65.8,79.9,66,80.1z"/>
	</g>
	<g>
		<path class="st0" d="M66.2,76.4h-0.6c-0.4-0.1-0.7-0.2-1.1-0.4c-0.6,0.1-1.2,0.2-1.9,0.4c-0.1,0.5-0.2,1-0.4,1.5h3.6
			C66.1,77.4,66.1,76.9,66.2,76.4z"/>
	</g>
	<g>
		<path class="st0" d="M78.3,52.5v0.7C78.7,52.6,78.5,53.1,78.3,52.5z"/>
	</g>
	<g>
		<polygon class="st0" points="112,28.9 111.6,28.1 111.3,28.9 		"/>
	</g>
	<g>
		<path class="st0" d="M93.5,48.9c-0.5-0.1-1-0.2-1.5-0.4c-0.4,0.5-0.7,1-1.1,1.5c0.9-0.2,1.7-0.5,2.5-0.7v-0.4H93.5z"/>
	</g>
	<g>
		<path class="st0" d="M92.7,24.9c-0.1,0.2-0.2,0.5-0.4,0.7h0.7C93,25.4,92.8,25.1,92.7,24.9z"/>
	</g>
	<g>
		<path class="st0" d="M86.6,24.1c0.2,0.2,0.5,0.5,0.7,0.7C86.9,24.2,87.2,24.6,86.6,24.1z"/>
	</g>
	<g>
		<path class="st0" d="M89.9,51c0.5,0.7,0,0.2,0.7,0.7C90.4,51.5,90.1,51.3,89.9,51z"/>
	</g>
	<g>
		<path class="st0" d="M56.9,104c1.1,0.6,0.7,0.7,1.9,0H56.9z"/>
	</g>
	<g>
		<path class="st0" d="M60.5,93.6h-0.7c0.1,0.2,0.2,0.5,0.4,0.7C60.2,94,60.4,93.8,60.5,93.6z"/>
	</g>
	<g>
		<path class="st0" d="M56.9,108c1.4-0.2,1.1-0.1,1.9-0.7h-1.5C57.1,107.5,57,107.8,56.9,108z"/>
	</g>
	<g>
		<path class="st0" d="M57.9,51.4v0.7C58.2,51.5,58.2,52,57.9,51.4z"/>
	</g>
	<g>
		<path class="st0" d="M63,52.9h-0.7c0.1,0.2,0.2,0.5,0.4,0.7C62.7,53.4,62.8,53.1,63,52.9z"/>
	</g>
	<g>
		<path class="st0" d="M54.3,162.2c-0.5-0.1-1-0.2-1.5-0.4C53.6,162.4,53.3,162.4,54.3,162.2z"/>
	</g>
	<g>
		<path class="st0" d="M51.4,63.3c-0.1,0.2-0.2,0.5-0.4,0.7l0.7-0.7H51.4z"/>
	</g>
	<g>
		<path class="st0" d="M54.6,134.5h-1.1C54.5,135.2,53.6,134.9,54.6,134.5z"/>
	</g>
	<g>
		<path class="st0" d="M64.1,125.4h-4.7C60.5,126.1,62.5,126.3,64.1,125.4z"/>
	</g>
	<g>
		<path class="st0" d="M59,161.4c0.4,0.2,0.7,0.5,1.1,0.7C59.5,161.4,60.1,161.9,59,161.4z"/>
	</g>
	<g>
		<path class="st0" d="M58.2,168.4c-0.5-0.7,0-0.2-0.7-0.7C57.7,167.9,58,168.1,58.2,168.4z"/>
	</g>
	<g>
		<path class="st0" d="M55,155.6c-0.2-0.2-0.5-0.5-0.7-0.7l-0.4,0.4c0.2,0.2,0.5,0.5,0.7,0.7c0.4-0.1,0.7-0.2,1.1-0.4H55z"/>
	</g>
	<g>
		<path class="st0" d="M50.6,112.7h2.2c-0.5-0.7,0-0.2-0.7-0.7c-0.5,0.1-1,0.2-1.5,0.4V112.7z"/>
	</g>
	<g>
		<path class="st0" d="M76.8,68.4c1-0.2,1.9-0.4,2.5-1.1c-0.9-0.2-1.7-0.5-2.5-0.7V68.4z"/>
	</g>
	<g>
		<path class="st0" d="M53.5,120.7v0.7C53.9,120.8,53.9,121.5,53.5,120.7z"/>
	</g>
	<g>
		<path class="st0" d="M54.6,120.7c0.9,0.6,0,0.4,1.1,0H54.6z"/>
	</g>
	<g>
		<path class="st0" d="M54.6,122.2c0.1,0.2,0.2,0.5,0.4,0.7C54.9,122.6,55.3,122.7,54.6,122.2z"/>
	</g>
	<g>
		<path class="st0" d="M81.1,125.1c0.2,0.2,0.5,0.5,0.7,0.7C81.4,125.2,81.9,125.6,81.1,125.1z"/>
	</g>
	<g>
		<path class="st0" d="M68.4,149.5c0.1,0.2,0.2,0.5,0.4,0.7C68.7,149.8,69.1,150,68.4,149.5z"/>
	</g>
	<g>
		<path class="st0" d="M77.2,124.1v0.4c1-0.4,0.6-0.6,0.7-0.7C77.7,123.8,77.4,123.9,77.2,124.1z"/>
	</g>
	<g>
		<path class="st0" d="M71.7,162.2c-0.2-0.4-0.5-0.7-0.7-1.1C71.4,162.2,70.9,161.5,71.7,162.2z"/>
	</g>
	<g>
		<path class="st0" d="M70.6,151.2c-0.1,0.2-0.2,0.5-0.4,0.7h2.5C72.1,151.3,72.1,151.5,70.6,151.2z"/>
	</g>
	<g>
		<path class="st0" d="M69.9,166.1c-0.4-0.2-0.7-0.5-1.1-0.7c-0.1,0.2-0.2,0.5-0.4,0.7H69.9z"/>
	</g>
	<g>
		<path class="st0" d="M81.9,145.1c-0.5-0.1-1-0.2-1.5-0.4c-1.6,0.2-3.1,0.5-4.7,0.7h6.2V145.1z"/>
	</g>
	<g>
		<path class="st0" d="M80,165.8v-0.4h-2.2C78.8,166.1,78.3,165.9,80,165.8z"/>
	</g>
	<g>
		<path class="st0" d="M78.7,159.7c0.4,0.2,0.7,0.5,1.1,0.7C79,159.5,79.6,160,78.7,159.7z"/>
	</g>
	<g>
		<path class="st0" d="M66.6,143.6c0.6-0.5,0.2-0.4,0.4-0.7C66.8,143.1,66.7,143.4,66.6,143.6z"/>
	</g>
	<g>
		<path class="st0" d="M63.3,143.6c1.7-0.1,1.6-0.5,1.9-0.7C64.6,143.1,64,143.4,63.3,143.6z"/>
	</g>
	<g>
		<path class="st0" d="M58.6,132.4c1.6,0.2,3.1,0.5,4.7,0.7C62.5,132.2,60.6,132.3,58.6,132.4z"/>
	</g>
	<g>
		<path class="st0" d="M64.5,166.1l0.7-0.7h-0.4C64.7,165.6,64.6,165.9,64.5,166.1z"/>
	</g>
	<g>
		<path class="st0" d="M75.7,151.6h-1.1C75.5,152.2,74.7,152,75.7,151.6z"/>
	</g>
	<g>
		<path class="st0" d="M74.7,165c-0.1,0.2-0.2,0.5-0.4,0.7H75C74.9,165.5,74.8,165.3,74.7,165z"/>
	</g>
	<g>
		<path class="st0" d="M71.7,132c-0.1,0.2-0.2,0.5-0.4,0.7C72.1,132.3,71.9,132.8,71.7,132z"/>
	</g>
	<g>
		<path class="st0" d="M72.8,163.3c-0.1,0.2-0.2,0.5-0.4,0.7l0.7-0.7H72.8z"/>
	</g>
	<g>
		<path class="st0" d="M68.1,126.9c1.1,0.6,1.5,0.7,2.2,0H68.1z"/>
	</g>
	<g>
		<path class="st0" d="M74.9,144.7h-1.5C74.7,145.2,73.9,145.4,74.9,144.7z"/>
	</g>
	<g>
		<path class="st0" d="M74.3,125.1c-0.9,0.2-1.7,0.5-2.5,0.7C72.9,125.9,76.2,124.9,74.3,125.1z"/>
	</g>
	<g>
		<path class="st0" d="M71.7,146.9c-1.5-0.1-2.9-0.2-4.4-0.4C68.3,147.2,70.3,147.6,71.7,146.9z"/>
	</g>
	<g>
		<path class="st0" d="M154.8,81.5c0.4-0.6,0.4-0.1,0-0.7V81.5z"/>
	</g>
	<g>
		<path class="st0" d="M106.9,49.9c0.1,0.6,0.2,1.2,0.4,1.9h0.4C107.4,50.3,107.7,50.6,106.9,49.9z"/>
	</g>
	<g>
		<path class="st0" d="M155.6,106.3v0.7C155.9,106.3,155.9,106.9,155.6,106.3z"/>
	</g>
	<g>
		<path class="st0" d="M122.2,25.2V26C122.6,25.4,122.5,25.9,122.2,25.2z"/>
	</g>
	<g>
		<path class="st0" d="M154.1,119.3c-0.2-0.2-0.5-0.5-0.7-0.7C154,119.3,153.5,118.8,154.1,119.3z"/>
	</g>
	<g>
		<path class="st0" d="M154.8,117.8c1.2-0.1,0.9-0.1,1.1-0.7c-0.4,0.1-0.7,0.2-1.1,0.4V117.8z"/>
	</g>
	<g>
		<path class="st0" d="M154.1,116c-0.1,0.2-0.2,0.5-0.4,0.7C154.6,116.5,154.2,116.7,154.1,116z"/>
	</g>
	<g>
		<path class="st0" d="M144,109.9c-0.6,0.2-1.2,0.5-1.9,0.7h1.9C144.4,110,144.2,110.5,144,109.9z"/>
	</g>
	<g>
		<path class="st0" d="M96.8,194.1c-0.5-0.1-1-0.2-1.5-0.4C96.3,194.4,95.3,194,96.8,194.1z"/>
	</g>
	<g>
		<path class="st0" d="M97.4,185.8c0.2,0.2,0.5,0.5,0.7,0.7C97.7,185.8,98.2,186.3,97.4,185.8z"/>
	</g>
	<g>
		<path class="st0" d="M52.9,76.8H54c0.5-0.7,0-0.2,0.7-0.7v-0.4h-1.9C52.9,75.7,52.9,76.8,52.9,76.8z"/>
	</g>
	<g>
		<path class="st0" d="M47.4,68.1c0.5,0.2,1,0.5,1.5,0.7c0.6-0.2,1.2-0.5,1.9-0.7c-0.9-0.1-1.7-0.2-2.5-0.4
			C47.9,67.8,47.7,67.9,47.4,68.1z"/>
	</g>
	<g>
		<path class="st0" d="M85.1,23.8c0.2,0.2,0.5,0.5,0.7,0.7C85.4,23.9,85.9,24.4,85.1,23.8z"/>
	</g>
	<g>
		<path class="st0" d="M150.5,36.2v0.4c1-0.4,0.6-0.6,0.7-0.7C151,35.9,150.7,36.1,150.5,36.2z"/>
	</g>
	<g>
		<path class="st0" d="M151.6,68.1c-0.5-0.1-1-0.2-1.5-0.4C151.2,68.6,150.6,68.8,151.6,68.1z"/>
	</g>
	<g>
		<path class="st0" d="M150.8,98.3c-0.5-0.1-1-0.2-1.5-0.4C150.2,98.3,150.1,98.3,150.8,98.3z"/>
	</g>
	<g>
		<path class="st0" d="M152.3,94c-0.2,0.5-0.5,1-0.7,1.5C152.3,94.7,152.6,94.6,152.3,94z"/>
	</g>
	<g>
		<path class="st0" d="M145.7,119c0.2,0.2,0.5,0.5,0.7,0.7c0.7-0.2,1.5-0.5,2.2-0.7H145.7z"/>
	</g>
	<g>
		<path class="st0" d="M96.5,28.1l-0.4,0.7c0.2-0.2,0.5-0.5,0.7-0.7H96.5z"/>
	</g>
	<g>
		<path class="st0" d="M96.1,49.9h-1.9C95.5,50.5,95.1,50.6,96.1,49.9z"/>
	</g>
	<g>
		<path class="st0" d="M100.4,28.1c0.2-0.2,0.5-0.5,0.7-0.7h-0.4L100.4,28.1z"/>
	</g>
	<g>
		<path class="st0" d="M102.5,50.3c-0.7-0.1-1.5-0.2-2.2-0.4C101.3,50.6,101.4,50.8,102.5,50.3z"/>
	</g>
	<g>
		<path class="st0" d="M103.3,49.3c-0.2-0.2-0.5-0.5-0.7-0.7C103,49.1,102.7,48.8,103.3,49.3z"/>
	</g>
	<g>
		<polygon class="st0" points="104,43.4 104.8,43.4 104.4,42.7 		"/>
	</g>
	<g>
		<path class="st0" d="M129.4,47.8c0.4-0.6,0.4-0.1,0-0.7V47.8z"/>
	</g>
	<g>
		<path class="st0" d="M129.4,32.8c0.2,0.2,0.5,0.5,0.7,0.7C129.7,33,130.2,33.3,129.4,32.8z"/>
	</g>
	<g>
		<path class="st0" d="M140,106.6c0.2,0.2,0.5,0.5,0.7,0.7C140.1,106.6,140.6,107.1,140,106.6z"/>
	</g>
	<g>
		<path class="st0" d="M139.6,54.6c-0.1-0.2-0.2-0.5-0.4-0.7c-0.1,0.2-0.2,0.5-0.4,0.7H139.6z"/>
	</g>
	<g>
		<path class="st0" d="M136.7,46.3h-0.4l-0.4,0.7C136.3,46.8,136.5,46.5,136.7,46.3z"/>
	</g>
	<g>
		<path class="st0" d="M140.4,52.1H140c-0.1,0.2-0.2,0.5-0.4,0.7h1.1C140.6,52.6,140.5,52.4,140.4,52.1z"/>
	</g>
	<g>
		<path class="st0" d="M141.8,53.6c-0.5-0.7,0-0.2-0.7-0.7C141.3,53.1,141.5,53.4,141.8,53.6z"/>
	</g>
	<g>
		<path class="st0" d="M142.1,105.2c-0.5-0.1-1-0.2-1.5-0.4C141.5,105.3,141.4,105.3,142.1,105.2z"/>
	</g>
	<g>
		<path class="st0" d="M145.4,99.7c0.4-0.2,0.7-0.5,1.1-0.7h-0.7C145.6,99.2,145.5,99.4,145.4,99.7z"/>
	</g>
	<g>
		<path class="st0" d="M147.6,97.9c-0.1,0.2-0.2,0.5-0.4,0.7c0.7,0.2,1.5,0.5,2.2,0.7C148.9,98.8,148.2,98.3,147.6,97.9z"/>
	</g>
	<g>
		<polygon class="st0" points="145.7,44.9 146.5,44.9 146.1,44.2 		"/>
	</g>
	<g>
		<path class="st0" d="M143.6,44.5v0.7C144,44.5,144,45.2,143.6,44.5z"/>
	</g>
	<g>
		<path class="st0" d="M146.5,97.2c0.5-0.2,1-0.5,1.5-0.7h-1.1C146.7,96.7,146.6,96.9,146.5,97.2z"/>
	</g>
	<g>
		<path class="st0" d="M147.2,94.9c0.6,0.9,0.2,0.4,1.1,0H147.2z"/>
	</g>
	<g>
		<path class="st0" d="M147.6,56.9c-0.6-0.6-1-0.7-1.9-1.1C146.4,56.5,146.7,56.5,147.6,56.9z"/>
	</g>
	<g>
		<path class="st0" d="M126.9,27.1c0.7-0.4,0.4,0,0.4-0.7L126.9,27.1z"/>
	</g>
	<g>
		<path class="st0" d="M147.2,48.9c0.1-0.2,0.2-0.5,0.4-0.7h-0.7C147,48.4,147.1,48.6,147.2,48.9z"/>
	</g>
	<g>
		<path class="st0" d="M126.6,28.1v0.7C126.9,28.2,126.8,28.9,126.6,28.1z"/>
	</g>
	<g>
		<path class="st0" d="M127.9,25.6c-0.4-0.2-0.7-0.5-1.1-0.7C127.6,25.6,126.9,25.1,127.9,25.6z"/>
	</g>
	<g>
		<path class="st0" d="M143.6,48.1c0.9-0.2,1.7-0.5,2.5-0.7c-1.1-0.5-1.4-0.2-2.5-1.1c-0.7,1.1,0.4,0.6-1.1,1.1
			C142.9,47.6,143.3,47.9,143.6,48.1z"/>
	</g>
	<g>
		<path class="st0" d="M148.4,120.3h-1.1C148.1,121,147.4,120.7,148.4,120.3z"/>
	</g>
	<g>
		<path class="st0" d="M145.1,50.3c-0.2,0.1-0.5,0.2-0.7,0.4C144.4,50.6,145.9,50.5,145.1,50.3z"/>
	</g>
	<g>
		<path class="st0" d="M144,48.9c0.2,0.4,0.5,0.7,0.7,1.1C144.2,48.9,144.7,49.5,144,48.9z"/>
	</g>
	<g>
		<path class="st0" d="M141.8,68.1c2-0.1,2-0.1,2.9-1.1c-0.4-0.4-0.7-0.7-1.1-1.1h-2.2C141.3,67.2,141.3,66.9,141.8,68.1z"/>
	</g>
</g>
<g>
	<g>
		<ellipse transform="matrix(0.9821 -0.1885 0.1885 0.9821 -18.6749 4.628)" class="st0" cx="15" cy="100.5" rx="2.1" ry="2.1"/>
	</g>
	<g>
		<ellipse transform="matrix(0.9344 -0.3562 0.3562 0.9344 -40.6867 13.0117)" class="st0" cx="15" cy="117" rx="2.1" ry="2.1"/>
	</g>
	<g>
		<ellipse transform="matrix(0.8584 -0.513 0.513 0.8584 -65.8599 28.0075)" class="st0" cx="17.8" cy="133.3" rx="2.1" ry="2.1"/>
	</g>
	<g>
		
			<ellipse transform="matrix(0.7562 -0.6543 0.6543 0.7562 -91.6602 51.5813)" class="st0" cx="23.4" cy="148.8" rx="2.1" ry="2.1"/>
	</g>
	<g>
		
			<ellipse transform="matrix(0.6311 -0.7757 0.7757 0.6311 -114.8831 84.6882)" class="st0" cx="31.6" cy="163.1" rx="2.1" ry="2.1"/>
	</g>
	<g>
		
			<ellipse transform="matrix(0.4869 -0.8735 0.8735 0.4869 -131.9052 127.0997)" class="st0" cx="42.2" cy="175.8" rx="2.1" ry="2.1"/>
	</g>
	<g>
		
			<ellipse transform="matrix(0.4868 -0.8735 0.8735 0.4868 -63.4121 244.166)" class="st0" cx="176.1" cy="176.1" rx="2.1" ry="2.1"/>
	</g>
	<g>
		
			<ellipse transform="matrix(0.3278 -0.9448 0.9448 0.3278 -28.7902 286.3044)" class="st0" cx="186.8" cy="163.4" rx="2.1" ry="2.1"/>
	</g>
	<g>
		<ellipse transform="matrix(0.1587 -0.9873 0.9873 0.1587 16.8882 317.9843)" class="st0" cx="195" cy="149.1" rx="2.1" ry="2.1"/>
	</g>
	<g>
		
			<ellipse transform="matrix(0.9999 -1.511677e-002 1.511677e-002 0.9999 -1.9967 3.0492)" class="st0" cx="200.7" cy="133.6" rx="2.1" ry="2.1"/>
	</g>
	<g>
		
			<ellipse transform="matrix(0.9821 -0.1885 0.1885 0.9821 -18.4817 40.4842)" class="st0" cx="203.6" cy="117.4" rx="2.1" ry="2.1"/>
	</g>
	<g>
		
			<ellipse transform="matrix(0.9344 -0.3562 0.3562 0.9344 -22.5727 79.1786)" class="st0" cx="203.7" cy="100.9" rx="2.1" ry="2.1"/>
	</g>
</g>
</svg>
