<svg xmlns="http://www.w3.org/2000/svg" width="264" height="67" viewBox="0 0 264 67">
  <defs>
    <style>
      .cls-1 {
        fill: #fff;
        fill-rule: evenodd;
      }
    </style>
  </defs>
  <path id="Logo_copy" data-name="Logo copy" class="cls-1" d="M378.991,47.58c-0.162,7.931-3.377,20.034-7.866,29.8-0.485,1.115-.689,1.441-1.173,2.49,0.259,3.509,1.581,13.186,5.34,13.257a12.64,12.64,0,0,0,1.52-.1h0.067l0.13,0a0.229,0.229,0,0,1,.064.134,0.6,0.6,0,0,1,.059.332,0.991,0.991,0,0,1-.075.461c-0.485,1.115-2.691,2.462-4.867,2.421-3.5-.066-6.027-5.4-6.883-8.725-3.171,3.443-6.905,5.29-9.939,5.233a8.55,8.55,0,0,1-7.71-4.85c-1.925,4.5-6.427,10.01-13.625,5.571a10.237,10.237,0,0,1-5.585,2.075c-7.454-.141-11.706-5.245-11.529-13.968a24.874,24.874,0,0,1,.545-4.826,26.835,26.835,0,0,1-5.588,2.748l-0.007.33c-0.2,9.583-8.276,14.322-11.905,14.253-6.4-.121-11-4.439-11.027-12.638l0.011-.528c0.069-3.371.829-8.314,3.628-9.651l0.008-.4c0.069-3.371,4.159-6.533,7.919-6.462,4.683,0.088,9.938,4.551,11.108,11.912,3.589-1.254,6.724-2.915,7.935-4.081a2.175,2.175,0,0,1,.671-0.442,3.431,3.431,0,0,1,.337-0.2c-0.317-3.84,4.247-7.654,8.4-7.576,5.606,0.106,12.013,6.374,11.809,16.421a16.372,16.372,0,0,1-4.382,10.958c5.225,2.743,8.1-2.558,9.335-7.89a7.529,7.529,0,0,1,.452-1.492c-0.32-7.251,4.017-15.479,12.763-15.314a8.528,8.528,0,0,1,3.611.86l0.046-2.246c1.079-10.888,5.948-26.4,12.545-26.274C377.973,39.232,379.093,42.557,378.991,47.58Zm-84.359,33.05c-0.11,5.418,1.5,10.539,5.327,10.612,3.5,0.066,5.329-5.716,5.947-10.135-3.969.52-8.116-.021-11.162-2.788C294.663,79.109,294.648,79.838,294.632,80.631Zm5.539-12.787c-1.979-.038-4.062,1.839-4,5.08,0.1,5.027,4.766,5.843,10,4.95C305.937,73.175,304.722,67.93,300.171,67.844Zm22.616,14.112c-0.017.859,0.513,10.521,5.657,10.618a3.6,3.6,0,0,0,2.666-1.2c-3.306-2.972-5.965-5.27-8.236-10.4A8.163,8.163,0,0,0,322.787,81.956Zm5.7-14.305c-3.363-.063-5.32,5.255-1.849,13.122,1.637,3.8,3,5.214,6.039,8.048a25.857,25.857,0,0,0,2.115-9.877C334.63,73.981,333.5,67.745,328.489,67.65Zm33.854,3.484a0.249,0.249,0,0,0-.061-0.2,5.679,5.679,0,0,0-2.234-.5c-9.038-.17-8.835,19.071-2.9,19.183,2.7,0.051,5.932-2.929,6.772-5.294A63.428,63.428,0,0,1,362.343,71.134Zm12.466-28.922c-1.978-.037-5.663,15.7-5.89,26.863a35.692,35.692,0,0,0,.166,4.763,0.284,0.284,0,0,0,.259.27c4.572-10.624,6.567-21.1,6.687-26.981C376.093,44.088,375.668,42.228,374.809,42.212Zm-103.892.419c0.435,1.33.045,20.5,0.045,20.5,0.381,0.733,11.308,2.131,12.163,2.213a0.4,0.4,0,0,1,.321.469,2.219,2.219,0,0,1-.683,1.112c-0.615,1.045.155,2.118-1.692,2.083-1.319-.025-0.459-0.142-10.255-1.914-0.041,2.05-.014,7.141-0.1,11.5-0.168,8.262-2.286,21.577-10.6,21.42-6.794-.129-8.3-10.735-8.156-17.542,0.31-15.267,8.351-17.957,11.807-19.148-0.5-4.9-.257-10.12-1.33-15.693a6.657,6.657,0,0,1,2.287-5.445c-5.012-.16-10.443.861-12.058,5.59a1.011,1.011,0,0,1-1.007.84,1.875,1.875,0,0,1-1.61-1.948c0.039-1.917,2.328-4.121,3.34-5.226,2.832-2.988,9.583-3.917,18.752-3.744,4.816,0.091,11.733.618,11.8,0.619,5.936,0.111,10.228-3.245,11.876-3.214s1.83,4.133-.087,7.6C293.875,46.238,281.452,43.82,270.917,42.63Zm-6.76,24.2c-5.714,1.876-5.931,6.036-6.106,14.627-0.068,3.371-.178,15.269,3.185,15.333,0.859,0.016,3.018-5.629,3.263-17.657ZM224.99,92.138a11.682,11.682,0,0,0,1.454-.105h0.065l0.132,0c0.066,0,.065.069,0.064,0.134a0.7,0.7,0,0,1,.125.333,0.948,0.948,0,0,1-.142.461c-0.485,1.114-2.623,2.464-4.866,2.421-2.894-.055-5.138-3.512-6.7-8.249a14.364,14.364,0,0,1-1.168,2.347c-2.246,3.33-5.331,5.783-9.289,5.708-3.5-.066-6.764-1.582-7.482-5.231a10.25,10.25,0,0,1-7.062,3.3,8.578,8.578,0,0,1-8.174-5.709,13.322,13.322,0,0,1-.715,1.31c-2.925,4.308-6.782,5.755-11.532,5.666-8.575-.162-12.734-6.587-12.573-14.517,0.2-9.98,7.391-16.191,12.338-16.1a8.913,8.913,0,0,1,8.665,8.759c-0.118,5.816-5.5,7.432-7.559,8.254a17.488,17.488,0,0,1-6.562,1.4,0.245,0.245,0,0,0-.134.13c0.18,4.1,3.313,9.054,7.535,9.134,4.749,0.09,7.879-4.546,8.964-9.219,0.194-.659.29-1.641,0.8-1.8,0.766-11.875,7.157-16.429,13.1-16.317,4.551,0.086,7.729,2.857,7.659,6.293a5.684,5.684,0,0,1-1.257,3.349c3.218,0.787,3.94,1,3.9,3.048,0,0-.712,9.044-0.751,10.962-0.042,2.048.912,3.785,2.822,4.019,2.308,0.044,5.3-4.065,6.45-8.936a5.141,5.141,0,0,1,.548-1.631,64.355,64.355,0,0,1-1.168-12.991c0.336-16.523,4.838-30.188,12.226-30.049,2.9,0.055,5.559,2.484,5.444,8.1-0.188,9.252-10.558,32.394-10.558,32.394C219.9,82.654,221.1,92.064,224.99,92.138ZM172.462,72.171c0.042-2.049-.5-4.836-2.013-4.864-3.761-.071-6,6.1-6.38,11.912C169.55,79.058,172.381,76.136,172.462,72.171Zm24.782-1.581c0.031-1.521-.271-2.915-1.788-2.943-2.638-.05-7.412,4.289-7.581,12.618-0.108,5.286,1.378,10.074,3.818,10.12,1.518,0.029,5.864-2.732,6.016-10.2,0.032-1.587-.072-2.976-0.056-3.77,0.008-.4.152-0.988,0.163-1.519,0.028-1.386-.912-0.545-0.888-1.734C196.942,72.5,197.217,71.911,197.244,70.59Zm29.208-24.373c0.048-2.379-.689-5.037-2.074-5.064-1.716-.032-6.26,12.51-5.147,32.363C222.106,68.415,226.347,51.373,226.452,46.217ZM161.275,96.223a0.9,0.9,0,0,1,1.1.815c-0.03,1.519-3.556,2.907-6,2.862-13.258-.251-7.573-26.655-14.962-26.795a21.057,21.057,0,0,1-6.016.548c-0.164,8.063-2.019,24.623-10.067,24.471-5.739-.109-8.582-6.311-8.468-11.93,0.123-6.014,3.169-13.03,6.665-12.964a2,2,0,0,1,2.2,1.892,2.94,2.94,0,0,1-1.023,1.633c-1.691,2.018-1.9,5.783-1.95,8.295-0.109,5.352,1.79,9.288,2.912,9.309,2.308,0.043,3.183-4.039,3.3-9.788,0.264-12.954-3.4-34.178-3.39-34.442,0.06-2.975,3.734-8.392,6.7-8.335,2.837,0.054,3.045,2.767,2.986,5.675-0.233,11.433,0,16.4.1,20.828a14.027,14.027,0,0,0,4,1c5.014,0.095,8.2-7.051,8.35-14.652C147.909,46.121,144.266,37,135.1,36.822c-7.19-.136-14.258,3.433-14.4,10.637-0.071,3.5,1.536,5.582,3.977,5.629A1.474,1.474,0,0,1,125.9,54.5c-0.021,1.058-1.819,1.818-3.27,1.79-2.573-.048-7.721-3.253-7.616-8.408,0.23-11.3,13.372-15.02,20.364-14.888,10.422,0.2,21.7,6.889,21.437,19.974-0.123,6.014-3.632,16.328-10.557,19.371C156.07,73.117,150.268,95.553,161.275,96.223Z" transform="translate(-115 -33)"/>
</svg>
