<svg xmlns="http://www.w3.org/2000/svg" width="102.094" height="67" viewBox="0 0 102.094 67">
  <defs>
    <style>
      .cls-1 {
        fill: #fff;
        fill-rule: evenodd;
      }
    </style>
  </defs>
  <path id="Logo_copy" data-name="Logo copy" class="cls-1" d="M219.729,44.7c-1.854,3.535-14.278,1.118-24.812-.073,0.435,1.33.045,20.5,0.045,20.5,0.381,0.733,11.308,2.131,12.163,2.213a0.4,0.4,0,0,1,.321.469,2.219,2.219,0,0,1-.683,1.112c-0.615,1.045.155,2.118-1.692,2.083-1.319-.025-0.459-0.141-10.255-1.914-0.041,2.05-.014,7.141-0.1,11.5-0.168,8.262-2.286,21.577-10.6,21.419-6.794-.128-8.3-10.734-8.156-17.542,0.31-15.266,8.351-17.957,11.807-19.148-0.5-4.9-.257-10.12-1.33-15.693a6.658,6.658,0,0,1,2.287-5.445c-5.012-.16-10.443.862-12.058,5.591a1.012,1.012,0,0,1-1.007.84,1.875,1.875,0,0,1-1.61-1.948c0.039-1.917,2.328-4.121,3.34-5.226,2.832-2.988,9.583-3.918,18.752-3.744,4.816,0.091,11.733.618,11.8,0.619,5.936,0.112,10.228-3.245,11.876-3.214S221.646,41.234,219.729,44.7Zm-31.572,24.13c-5.714,1.876-5.931,6.036-6.106,14.627-0.068,3.371-.178,15.269,3.185,15.333,0.859,0.017,3.018-5.629,3.263-17.657ZM160.382,101.9c-13.259-.251-7.573-26.655-14.962-26.794a21.061,21.061,0,0,1-6.016.548c-0.164,8.063-2.019,24.623-10.067,24.471-5.739-.109-8.582-6.312-8.468-11.93,0.123-6.014,3.168-13.03,6.665-12.964a2,2,0,0,1,2.2,1.892,2.94,2.94,0,0,1-1.023,1.633c-1.691,2.018-1.9,5.783-1.95,8.295-0.109,5.352,1.79,9.288,2.912,9.309,2.308,0.043,3.183-4.039,3.3-9.787,0.264-12.954-3.4-34.178-3.39-34.443,0.06-2.975,3.734-8.392,6.7-8.336,2.837,0.054,3.045,2.767,2.986,5.675-0.233,11.433,0,16.4.1,20.828a14.022,14.022,0,0,0,4,1c5.014,0.095,8.2-7.051,8.35-14.652C151.909,48.12,148.266,39,139.1,38.822c-7.19-.136-14.258,3.433-14.4,10.637-0.071,3.5,1.536,5.582,3.977,5.629A1.474,1.474,0,0,1,129.9,56.5c-0.021,1.058-1.819,1.818-3.27,1.79-2.573-.048-7.721-3.253-7.616-8.408,0.23-11.3,13.372-15.02,20.364-14.888,10.422,0.2,21.7,6.889,21.437,19.974-0.123,6.014-3.632,16.328-10.557,19.371,9.817,0.78,4.015,23.215,15.022,23.886a0.9,0.9,0,0,1,1.1.815C166.35,100.557,162.824,101.945,160.382,101.9Z" transform="translate(-119 -35)"/>
</svg>
