<svg xmlns="http://www.w3.org/2000/svg" width="15.719" height="25.875" viewBox="0 0 15.719 25.875">
  <defs>
    <style>
      .cls-1 {
        fill: #91bf05;
        fill-rule: evenodd;
      }
    </style>
  </defs>
  <path id="Shape_24_copy" data-name="Shape 24 copy" class="cls-1" d="M76.362,77.884l-2.141,2.046L62.837,69.046l-0.032.031L60.664,67.03,60.7,67l-0.033-.031,2.141-2.046,0.032,0.031L74.222,54.068l2.141,2.046L64.978,67Z" transform="translate(-60.656 -54.063)"/>
</svg>
