<svg xmlns="http://www.w3.org/2000/svg" width="18" height="18" viewBox="0 0 18 18">
  <defs>
    <style>
      .cls-1 {
        fill: #d8c7ae;
        fill-rule: evenodd;
      }
    </style>
  </defs>
  <path id="Крестик_закрыть_copy_5" data-name="Крестик закрыть copy 5" class="cls-1" d="M838.806,5107.54l-1.925-1.92-7.1,7.09-0.023-.02h0l-7.036-7.03-1.925,1.92,7.07,7.06-7.07,7.06,1.925,1.92,7.1-7.08,7.057,7.04,1.925-1.92-7.071-7.06Z" transform="translate(-820.813 -5105.63)"/>
</svg>
