<svg xmlns="http://www.w3.org/2000/svg" width="45" height="45" viewBox="0 0 45 45">
  <path fill="#ffffff" d="M485.5,904A22.5,22.5,0,1,1,508,881.5,22.5,22.5,0,0,1,485.5,904Zm10.426-26.619a6.4,6.4,0,0,0-6.473-6.313H480.56a6.4,6.4,0,0,0-6.474,6.313v9.224a6.4,6.4,0,0,0,6.474,6.312h8.893a6.4,6.4,0,0,0,6.473-6.312v-9.224ZM489,890.112h-7.994a4.029,4.029,0,0,1-4.074-3.973v-8.292a4.029,4.029,0,0,1,4.074-3.973H489a4.029,4.029,0,0,1,4.075,3.973v8.292A4.029,4.029,0,0,1,489,890.112Zm-4-13.818a5.7,5.7,0,1,0,5.828,5.7A5.77,5.77,0,0,0,485.006,876.294Zm5.519-1.481a1.663,1.663,0,1,0,1.7,1.662A1.683,1.683,0,0,0,490.525,874.813Zm-5.519,10.079a2.9,2.9,0,1,1,2.974-2.9A2.943,2.943,0,0,1,485.006,884.892Z" transform="translate(-463 -859)"/>
</svg>
