<svg xmlns="http://www.w3.org/2000/svg" width="36.407" height="35.688" viewBox="0 0 36.407 35.688">
  <defs>
    <style>
      .cls-1 {
        fill: #8fbe00;
        fill-rule: evenodd;
      }
    </style>
  </defs>
  <path id="Shape_12_copy_2" data-name="Shape 12 copy 2" class="cls-1" d="M743.714,128.137h0.464v0.157C743.7,128.206,744.076,128.467,743.714,128.137Zm-0.464-15.521c0.1,0.1.207,0.207,0.31,0.31A0.594,0.594,0,0,1,743.25,112.616Zm-1.082,1.4c0.052-.1.1-0.207,0.155-0.311l0.927,0.156Zm0.155,3.414,0.309,0.311h-0.464C742.22,117.634,742.272,117.531,742.323,117.427Zm0,5.9,0.927,0.155a0.951,0.951,0,0,1-1.236,0l0.309,0.156v-0.311Zm-0.927-9c-0.621-.213-0.157.01-0.464-0.465-0.258.154-.515,0.31-0.773,0.465l-0.309-.155V113.7a4.673,4.673,0,0,1,2.164.311C741.333,114.135,741.545,113.917,741.4,114.323Zm-2.01,6.519c0.017,0.314.164,0.175-.154,0.31C739.283,121.049,739.335,120.946,739.386,120.842Zm-9.554,6.811c-0.726-.257-1.634-0.469-2.038-0.6-0.284.8-.115,0.457-0.928,0.621v0.622q1.305-.111,2.609-0.219c-0.489.578-.971,1.157-1.439,1.737l-0.153.188h-0.244c0.051,0.075.085,0.127,0.111,0.162-2.18,2.635-3.751,3.656-6.21.44-0.12-.156-0.255-0.322-0.4-0.5,0.248,0.016.462,0.034,0.626,0.051l-0.914-.394-0.168-.2v-0.5c-0.436-.361-0.228.149-0.464-0.466,0.689-.151-0.141-0.507,1.237-0.621a1.37,1.37,0,0,0-1.082-.31,1.767,1.767,0,0,1-.923.378c-1.328-1.773-2.3-3.8-.4-5.347a1.883,1.883,0,0,1,2.618,0c1.036,1.3,2.037,2.632,3.021,3.972q4.444-5.79,8.4-11.924l0.578,0.193a1,1,0,0,0-.438-0.412q0.226-.353.451-0.7c0.086,0.01.183,0.02,0.3,0.031v-0.466l-0.014-.008,0.105-.165a2.075,2.075,0,0,1,.08-0.569c0.1,0.2.195,0.392,0.292,0.587a1.055,1.055,0,0,0,.464-0.777c-0.429-.236-0.115.025-0.155-0.465h-0.242a1.362,1.362,0,0,1,.329-0.257c0.023,0.033.045,0.068,0.068,0.1l-0.309-.466a0.442,0.442,0,0,1,.265.35,1.643,1.643,0,0,1,.975-0.167,4.819,4.819,0,0,1,1.939.593h-0.242v0.466c0.1-.052.206-0.1,0.309-0.156v0.311l0.216-.434c1.361,1.006,1.482,2.819.233,4.753A104.783,104.783,0,0,1,729.832,127.653Zm-1.574,1.727h-0.773C727.914,129.659,727.843,129.812,728.258,129.38Zm-6.647-.466-0.463.155v0.155a1,1,0,0,0,.772-0.31h-0.309ZM723,128.6c-0.051.156-.1,0.311-0.154,0.466C723.06,128.736,723.129,128.986,723,128.6Zm0.619,1.863,0.309-.155v-0.155l-0.464-.311-0.154.466Zm0.463-1.552h-0.309c-0.051-.1-0.1-0.207-0.154-0.311-0.052.156-.1,0.311-0.155,0.466h0.618v-0.155Zm0,1.086a0.594,0.594,0,0,0,.309.311Zm2.01,0-0.309.156S726.428,130.09,726.094,130Zm7.883-9c-0.052.1-.1,0.206-0.155,0.31C734.109,121.114,733.907,121.169,733.977,121Zm-0.155-4.347-0.155.311h0.464Zm2.009,3.726v-0.156h-0.463C735.73,120.552,735.35,120.29,735.831,120.377Zm0.928-4.036-0.309-.31-0.619.155v0.155h0.928Zm-1.391-1.707-0.155.31C735.531,114.809,735.385,114.947,735.368,114.634Zm-0.928,2.017c0.351,0.322.161,0.259,0.618,0.156ZM734.9,112l0.309,0.311A0.591,0.591,0,0,0,734.9,112Zm0.309,0.465c0.3,0.322.058,0.161,0.618,0.311Zm0.618,3.26-0.309.466C735.815,115.944,736.07,116.1,735.831,115.72Zm0.773-3.26c-0.206.053-.412,0.1-0.618,0.156v0.155l1.236-.155C737.016,112.564,736.81,112.513,736.6,112.46Zm1.082-1.706c0.141,0.276.151,0.039,0,.31v-0.31Zm-1.546-.777H736.6l-0.618.31Zm-1.545-1.086h1.082v0.155A1.171,1.171,0,0,1,734.6,108.891Zm0.463,1.707-1.081-.155,0.154-.31C734.8,110.285,734.636,110.076,735.058,110.6Zm-1.545-1.707h0.927l-1.082.31Zm0,1.552H732.74l0.309-.776h0.464C733.234,110.2,733.388,109.731,733.513,110.443Zm-1.082-1.552H732.9v0.155C732.414,108.96,732.793,109.22,732.431,108.891Zm-1.237,0h1.082C731.844,109.223,731.618,109.327,731.194,108.891Zm0.464,1.242h0.464C731.751,110.314,731.919,110.517,731.658,110.133Zm-0.309,3.1c0.051-.1.1-0.207,0.154-0.311C731.584,113.264,731.626,113.029,731.349,113.237Zm-0.773-.311,0.618,0.156C730.737,113.185,730.927,113.248,730.576,112.926Zm1.391-2.017a0.763,0.763,0,0,1-.618.776l0.154-.466c-0.447.283-.307-0.158-0.618,0.466-0.635-.273-0.391.009-0.309-0.621a0.558,0.558,0,0,1-.464-0.31A3.634,3.634,0,0,0,731.967,110.909Zm-2.627,2.017a1.369,1.369,0,0,1,1.082.311A1.12,1.12,0,0,1,729.34,112.926Zm-0.619-2.172,0.619,0.155C728.882,111.012,729.072,111.075,728.721,110.754Zm-0.309,3.725,0.464,0.31A0.555,0.555,0,0,1,728.412,114.479Zm-0.464-1.553v-0.155l0.31-.155C728.215,112.683,728.349,112.75,727.948,112.926Zm-0.154-2.172,0.464,0.155q-0.078.232-.155,0.465Zm-1.082,2.328h0.927l-1.082.31C726.609,113.289,726.66,113.185,726.712,113.082Zm0.618-2.484h0.309c-0.051.1-.1,0.207-0.154,0.311Zm-0.154-1.707,0.309,0.31h-0.464Zm-0.31,2.328h-0.154c0.051-.207.1-0.414,0.154-0.621l0.155,0.156Q726.945,110.987,726.866,111.219Zm-0.154-1.242-0.155-.31C726.836,109.872,726.646,109.833,726.712,109.977Zm-1.082-.155c0.052-.1.1-0.207,0.155-0.31h0.463l-0.309.465Zm-0.464,2.328h0.155l-0.309.31C725.063,112.357,725.115,112.254,725.166,112.15Zm-0.618,1.708-0.309-.311A0.591,0.591,0,0,1,724.548,113.858Zm-0.773-.311h0.309c-0.051.1-.1,0.207-0.154,0.311Zm-1.236,0h0.773V113.7C722.622,113.68,722.956,113.863,722.539,113.547ZM723,111.53c0.052-.156.1-0.311,0.155-0.466C723.284,111.446,723.214,111.2,723,111.53Zm-0.154.155c0.141,0.276.151,0.039,0,.31v-0.31Zm-0.773-1.552H723C722.525,110.4,722.612,110.369,722.075,110.133Zm0-.466L723,109.822A0.639,0.639,0,0,1,722.075,109.667Zm-0.155,1.4,0.773,0.155A0.578,0.578,0,0,1,721.92,111.064Zm-0.154.31-0.464-.465A0.66,0.66,0,0,1,721.766,111.374Zm-1.391,1.242h1.082A0.65,0.65,0,0,1,720.375,112.616Zm-0.155-1.086c-0.051-.1-0.1-0.207-0.154-0.311C720.344,111.425,720.155,111.385,720.22,111.53Zm-0.309,0-0.309-.311A0.591,0.591,0,0,1,719.911,111.53Zm-0.155-3.725c0.142,0.276.151,0.039,0,.309v-0.309Zm-0.309,3.725-0.463-.311C719.445,111.42,719.169,111.212,719.447,111.53Zm-0.309,1.086c-0.308.271-.027,0.338-0.463,0.155l0.309-.155h0.154Zm-1.391-4.657-0.154-.31C717.871,107.855,717.682,107.816,717.747,107.959Zm-1.7,5.9v-0.311l0.618-.155,0.464,0.31A2.64,2.64,0,0,0,716.047,113.858ZM715.583,112l0.309,0.311A0.594,0.594,0,0,1,715.583,112Zm-0.309,0,0.155,0.311H715.12C715.171,112.2,715.223,112.1,715.274,112Zm-0.464.931a0.554,0.554,0,0,1,.464.311A0.554,0.554,0,0,1,714.81,112.926Zm-0.927.156V111.84L714.965,112l-0.309.155A1.326,1.326,0,0,1,713.883,113.082Zm0.773,1.552-0.464-.311A0.556,0.556,0,0,1,714.656,114.634Zm4.946-1.863-0.155.311c-0.051-.1-0.1-0.207-0.154-0.311H719.6Zm0.154,0.155h0.464C719.849,113.107,720.017,113.311,719.756,112.926Zm2.319,0.621-0.773.155,0.309,0.777h-0.927a0.915,0.915,0,0,0-.618-0.777l0.927-.465Zm2.009,10.71v-0.62c0.052,0.207.1,0.414,0.155,0.62h-0.155Zm-4.791-3.88c0.051-.1.1-0.207,0.154-0.311l0.155,0.311h-0.309Zm-2.473-.311,0.463,0.311A0.554,0.554,0,0,1,716.82,120.066Zm1.545,11.021-0.618.31c0.052-.1.1-0.207,0.155-0.31h0.463Zm0.464,3.105,0.309-.156C719.472,134.126,718.829,134.192,718.829,134.192Zm0.309-3.26,0.464,0.31A0.558,0.558,0,0,1,719.138,130.932Zm3.246,3.26,0.309-.466C722.7,134.148,722.908,134,722.384,134.192Zm5.564-.156c0.091,0.335.076,0.051-.154,0.311C727.845,134.243,727.9,134.14,727.948,134.036Zm1.082-1.862h-0.309c0.052-.1.1-0.208,0.155-0.311C728.927,131.966,728.979,132.07,729.03,132.174Zm0.464-3.415,0.309,0.31A0.589,0.589,0,0,1,729.494,128.759Zm0.928,2.483,0.463,0.311A0.554,0.554,0,0,1,730.422,131.242Zm0.309,2.173v-0.62c0.051,0.207.1,0.414,0.154,0.62h-0.154Zm-3.978-18.708-0.041.082c0.178-.033.928,0.121,0.839-0.184a1.829,1.829,0,0,1,.243.037v-0.008l0.006,0.009c1.34,0.2,2.542,1.8,1.429,2.924l-0.971-.14a0.723,0.723,0,0,0,.868.237c-0.028.024-.054,0.048-0.083,0.072a8.019,8.019,0,0,1-4.812,1.809,43.227,43.227,0,0,1-6.329.425v0.407a0.554,0.554,0,0,1-.464-0.311l0.228-.115c-0.258-.024-0.51-0.057-0.749-0.1-0.17.039-.318,0.068-0.457,0.094a2.272,2.272,0,0,0-.2.261c0,0.15,0,.3.008,0.451,0.352,1.175.073,2.851,0.123,4.112,0.056,1.446.182,2.9,0.291,4.358a12.108,12.108,0,0,1-1.567-.211c-0.052.207-.1,0.414-0.155,0.621,0.052,0.1.1,0.207,0.155,0.31h1.236c-0.015.491-.271,0.225,0.155,0.466a0.3,0.3,0,0,1,.248-0.15q0.036,0.567.062,1.133l-0.619-.207q0.077,0.233.154,0.466l0.472-.1c0.022,0.509.039,1.017,0.041,1.523a2.168,2.168,0,0,1-.084,1.862c-0.038.064-.063,0.116-0.089,0.17q0.858,0.161,1.744.263c1.089,0.019,2.375-.194,3.385-0.256a39.594,39.594,0,0,1,7.55-.018c0.108,0.015.208,0.031,0.3,0.048,0.677-.069,1.347-0.141,2-0.213a9.752,9.752,0,0,0,.176-1.421c0.092-1.217,0-2.435.125-3.653q0.036-.354.089-0.693h0.82v0.776l3.736,0.259a18.165,18.165,0,0,1-.587,4.149q-0.16,1.346-.364,2.69a1.9,1.9,0,0,1-1.785,1.364l-0.836.092a6.272,6.272,0,0,1-2.563.414c-0.407-.006-0.809-0.015-1.213-0.022a58.083,58.083,0,0,1-10.833.2c-1.411.148-2.9,0.235-3.929-.651-0.084-.021-0.17-0.037-0.254-0.059a1.812,1.812,0,0,1-1.292-1.3c-0.291-1.8-.529-3.607-0.693-5.419h0.006a0.635,0.635,0,0,1,.076-0.014,0.635,0.635,0,0,0-.076.014,0.558,0.558,0,0,1-.26-0.167l0.619,0.156a1.687,1.687,0,0,0-.261,0,1.83,1.83,0,0,1,.261,0l-0.374-.095c-0.148-1.662-.235-3.33-0.239-5.007,0-2.575-.328-6.413.793-8.787a3.948,3.948,0,0,1,3.367-2.166C719.68,114.99,723.228,115.243,726.753,114.707Zm2.741,2.255a0.554,0.554,0,0,0-.464-0.311c-0.051.1-.1,0.207-0.154,0.311h0.618Zm-6.182,2.483-0.619-.31-0.154.31h0.773Zm-1.546.156a0.591,0.591,0,0,0-.309-0.311Zm-4.173-.311h-0.464C717.519,119.543,717.155,119.443,717.593,119.29Zm-0.31-2.328c-0.051-.1-0.1-0.207-0.154-0.311l-0.155.311h0.309ZM733.358,131.4l-0.154-.31c0.051-.1.1-0.207,0.154-0.311h-0.309C733.127,131.3,732.886,130.978,733.358,131.4Zm-0.927-1.4,0.154-.31h-0.309Zm-16.075-13.193c0.052,0.1.1,0.207,0.155,0.31l0.154-.31h-0.309Zm-0.309,7.3,0.309-.155v-0.156l-0.309-.154-0.155.154C715.944,123.9,716,124,716.047,124.1Zm-0.309-.621c0.4-.176.266-0.243,0.309-0.31l-0.309.155v0.155Zm0.309-3.1-0.309-.311-0.309.155Zm-1.082,0a0.594,0.594,0,0,0-.309-0.311Zm-1.546,4.346c-0.051.1-.1,0.207-0.154,0.311l0.309-.311h-0.155Zm1.082,3.571-0.154-.312-0.155.312H714.5Zm2.01-9.159H715.12l-0.773.31C715.331,119.481,716.854,119.728,716.511,119.135Zm-1.546-.776a0.589,0.589,0,0,0,.309.31Zm1.855,0.31a1.056,1.056,0,0,0-.773-0.31Zm-4.946-2.018,0.618,0.466A1.346,1.346,0,0,1,711.874,116.651Zm0.618-4.191-0.309-.31A0.6,0.6,0,0,1,712.492,112.46Zm-0.927,8.382h0.463C711.59,121,711.954,121.1,711.565,120.842Zm-1.855,17.54h0.618a1.011,1.011,0,0,1-.773.311Zm-1.7,2.018,0.773,0.155C708.309,140.707,708.351,140.733,708.009,140.4Zm-0.154-23.128c-0.079-.565-0.221-0.1.154-0.621l-0.154.776v-0.155Zm2.164,23.283-0.309.31c0.051-.1.1-0.206,0.154-0.31h0.155Zm2.009,1.086c0.052-.1.1-0.206,0.155-0.31C712.2,141.645,712.347,141.506,712.028,141.641Zm1.391-2.017-0.309.31c0.052-.1.1-0.207,0.155-0.31h0.154Zm-0.309,1.086c-0.051.1-.1,0.207-0.154,0.311H712.8V140.4l0.618-.155C713.338,140.553,713.6,140.435,713.11,140.71Zm1.237-.155c-0.052-.155-0.1-0.31-0.155-0.466l0.773,0.156Zm1.082,0.776-0.464-.31A0.554,0.554,0,0,1,715.429,141.331Zm0,0.621H716.2C715.7,142.218,715.93,142.169,715.429,141.952Zm1.854-1.087q0.078,0.388.155,0.776l-0.927-.31c0.051-.155.1-0.31,0.154-0.466C717.207,141.164,716.732,141.031,717.283,140.865Zm2.319,0.621,0.309,0.311A0.591,0.591,0,0,1,719.6,141.486Zm1.082,0-0.309-.465h0.463C720.787,141.176,720.735,141.331,720.684,141.486Zm0.773-.465h0.463C721.482,141.174,721.846,141.273,721.457,141.021Zm0.773,1.086a0.84,0.84,0,0,1-.464-0.621C722.357,141.806,721.984,141.637,722.23,142.107Zm-0.155-2.794c0.278,0.206.089,0.167,0.155,0.311C722.178,139.52,722.126,139.417,722.075,139.313Zm3.4,3.415-1.391.621-1.236-.621A8.659,8.659,0,0,0,725.475,142.728Zm1.7-2.949c-0.1-.1-0.206-0.207-0.31-0.31A0.587,0.587,0,0,1,727.176,139.779Zm4.173,3.415-0.618-.156,1.082-.155Zm5.1-22.352L737.068,121l-0.618.31v-0.466Zm-3.4,7.917-0.941.118a9.759,9.759,0,0,1,.431-1.66,7.876,7.876,0,0,1,.434-1.211,1.7,1.7,0,0,1,.268-0.526,6.646,6.646,0,0,1,.5-0.779c1.28-1.683,3.984-.367,3.492,1.291a1.668,1.668,0,0,1-.334.906,5.344,5.344,0,0,0-.3.468q0.034,0.747.041,1.478Zm0.464-3.26c-0.052.1-.1,0.207-0.155,0.311l0.309-.311h-0.154Zm0.618,2.328q-0.463.233-.927,0.467a1.3,1.3,0,0,1,.927.309v-0.776Zm1.391-3.1c-0.051.1-.1,0.207-0.154,0.311l0.309-.311h-0.155Zm0.155,2.949h-0.155c-0.051.1-.1,0.207-0.154,0.31h0.463C735.78,127.879,735.728,127.776,735.677,127.672ZM738.3,125.5h0.155l-0.309.311C738.2,125.706,738.253,125.6,738.3,125.5Zm0.309,2.483-0.154-.31a2.649,2.649,0,0,0,1.546.465l-2.164.157C738.269,127.763,737.845,128.055,738.613,127.982Zm0.928,11.331c-0.052-.1-0.1-0.207-0.155-0.31C739.665,139.208,739.475,139.169,739.541,139.313Zm1.7-16.142h0.309a1.135,1.135,0,0,1-.463.466C741.138,123.481,741.19,123.326,741.241,123.171Zm0,2.018c-0.257-.207-0.515-0.415-0.773-0.621a1.867,1.867,0,0,1,1.391.309C741.179,125,741.391,124.783,741.241,125.189Zm0.309,3.57,0.464,0.31A0.558,0.558,0,0,1,741.55,128.759Zm-0.463,2.173a1.047,1.047,0,0,1,.772.31Zm1.545-6.364,0.618,0.155-0.772.154Zm0.618,6.519h-0.927l0.309-.155Z" transform="translate(-707.781 -107.656)"/>
</svg>
