<svg xmlns="http://www.w3.org/2000/svg" width="120" height="150" viewBox="0 0 120 150">
  <defs>
    <style>
      .cls-1 {
        fill: #F3AF0B;
        fill-rule: evenodd;
      }
    </style>
  </defs>
  <path class="cls-1" d="M804.367,128.032v-0.876C804.767,127.936,804.8,127.267,804.367,128.032Zm-0.878,19.728q0.22-.438.439-0.877,0.219,0.438.439,0.877h-0.878Zm-0.877-12.714,0.877-1.314C804.352,134.4,803.259,134.565,802.612,135.046Zm-1.755-80.225V53.945h0.878c-0.938,1.1-.7,1.036-3.071,1.753C799.733,53.927,799.3,54.857,800.857,54.821Zm-1.316-3.507V50.438C799.941,51.218,799.97,50.549,799.541,51.314Zm-1.316,86.8c0.947,0.254-.878.439-0.878,0.439Zm-0.439-2.629v-0.878C798.186,135.388,798.215,134.72,797.786,135.486ZM796.47,55.7l-1.316-.877C796.463,55.389,795.68,54.8,796.47,55.7Zm-3.948,71.458c1.423,0.467,1.239-.067,2.193.876h-2.193v-0.876ZM793.4,58.767l0.878-1.315C794.047,58.324,794.776,57.989,793.4,58.767Zm1.316-7.014c-1.309-.567-0.526.019-1.316-0.877Zm-3.948-.877,1.316-.438h0.877l-0.438,1.315Zm-0.878,96.446c0.147-.292.293-0.585,0.439-0.876l0.439,0.876h-0.878Zm-0.438-45.592v-0.877C789.851,101.632,789.879,100.964,789.451,101.729Zm-1.316,70.58c0.146-.292.292-0.583,0.438-0.876l0.878,0.876h-1.316Zm-0.878-2.192L787.7,171h-0.877Zm-0.877-23.672c1.309,0.567.526-.019,1.316,0.876h-1.755Zm0.877-2.631-1.316-.876C787.251,143.505,786.467,142.919,787.257,143.814ZM785.5,95.153h0.878l-0.439.877Q785.722,95.591,785.5,95.153Zm0,32.879c-0.146-.292-0.292-0.585-0.438-0.876C785.854,127.736,785.317,127.625,785.5,128.032ZM739.439,148.2l0.438-.877h0.439Zm36.413-41.833c-3.441,18.649-5.436,37.514-7.912,56.306l-2.179.871h2.064q-0.519,3.915-1.073,7.826c-0.266,1.868-.515,3.746-0.8,5.617l-10.285.147a94.806,94.806,0,0,1-14.81,1.219,5.314,5.314,0,0,1-1.934-4.61,30.14,30.14,0,0,1,.724-5.01q0.049-1.493.121-2.984l0.1-.013q-1.754.219-3.509,0.438v-0.438l1.755-.439,1.65,0.413q0.1-2.151.245-4.3c1.028,0.439.336,0.237,1.175-.5h-0.438c-0.243.12-.485,0.241-0.728,0.363A218.213,218.213,0,0,1,748,115.652a6.069,6.069,0,0,0-.658-3.9c-0.928-1.434-3.136-1.2-4.6-1.619a5.212,5.212,0,0,1-3.624-2.882c-0.891-2.126.088-4.188,0.939-6.14,1.063-2.438,2.158-4.863,3.264-7.282q6.632-14.514,14.1-28.634a10.4,10.4,0,0,1,3.691-4.492c1.941-1.1,4.041-.736,6.075-0.129,1.427,0.425,2.85.868,4.271,1.316v0.386a2.017,2.017,0,0,1,.211-0.319c3.592,1.136,7.17,2.321,10.758,3.461a2.351,2.351,0,0,1,1.633,2.128,1.879,1.879,0,0,1,1.046,2.443A256.491,256.491,0,0,0,775.852,106.365Zm-30.71-10.774,0.877,0.877A1.669,1.669,0,0,0,745.142,95.591Zm23.251-4.384s1.825-.184.877-0.438Zm0.439-.876c-0.553-1.326.008-.525-0.878-1.316Zm0,20.6-1.316-1.315h-2.633c-0.252,1.528-.155,1.287.439,2.63C767.673,112.143,767.727,112.091,768.832,110.935Zm-3.071,46.031q-0.877-.219-1.755-0.438C765,157.06,764.868,157.093,765.761,156.966Zm-1.755,2.631a1.668,1.668,0,0,0-.877-0.877Q763.567,159.158,764.006,159.6Zm0-65.759-0.439-.877h-0.438q-0.221.438-.439,0.877h1.316Zm-7.458,4.822,0.439,0.877C756.8,99.13,757.338,99.241,756.548,98.66Zm-16.232,74.965a3.93,3.93,0,0,0,4.826,0h-4.826Zm5.264-8.33-0.438.877h1.316Zm1.755,8.33c1.46,1.14,5.22.773,6.581,0.876C752.362,172.923,749.132,173.784,747.335,173.625Zm3.51-3.069q-0.219.438-.439,0.877C751.309,171.051,750.893,171.441,750.845,170.556Zm-0.439-83.732V87.7C750.835,86.936,750.806,87.6,750.406,86.824Zm0.878,32q-0.221.438-.439,0.877,1.755-.219,3.51-0.438Zm1.754,56.991v0.438l3.071-.438v-0.439h-1.754Zm3.51-2.192h-1.316C756.338,174.338,755.305,174.057,756.548,173.625Zm0-76.718c1.209,0.519.236,0.751,1.316,0h-1.316Zm2.194,79.348a1.676,1.676,0,0,0-.878-0.877Zm0-90.308-0.439.877,0.877-.877h-0.438Zm1.316,25.426-1.755.439v0.438c2.52,0.431,2.811.949,4.826-.438Zm1.755-15.343h0.877l-0.439-.877ZM762.69,61.4v0.876l1.755-.438Zm1.755,7.452,0.877,0.877A1.67,1.67,0,0,0,764.445,68.85Zm0,24.989,0.877,0.876A1.669,1.669,0,0,0,764.445,93.838Zm1.755-6.576,1.316,0.877,3.071-.877c-1.364-.648-1.7-0.346-3.071-1.316C766.645,87.289,767.96,86.659,766.2,87.262Zm1.316-3.507v0.877C767.944,83.867,767.916,84.535,767.516,83.755Zm2.193-19.289v0.876C770.138,64.578,770.109,65.246,769.709,64.466Zm0.878,18.85-0.439.877h0.877Zm0.877,4.823q0.219,0.438.439,0.876l0.438-.876h-0.877Zm-1.316,9.206a4.736,4.736,0,0,0,2.193,1.315A4.749,4.749,0,0,0,770.148,97.345Zm3.307-30.185c0,0.019,0,.038,0,0.058,0.058,0,.116,0,0.174,0Zm0.641-.5-0.439.877,0.878-.877H774.1Zm1.755,7.014V74.11c1.136-.5.756-0.687,0.877-0.876Zm7.019-14.905c0.048,0.886.465,0.495-.439,0.877Zm-1.755-.438,0.878,0.877-0.878.438V58.329Zm-3.509-1.754c0.79,0.581.253,0.47,0.438,0.877Zm0.877-3.069c-1.578-.449-1.226.175-2.193-0.877C777.458,52.99,777.416,52.651,778.483,53.506Zm-8.774-2.192,3.948-.439L773.219,50c1.587,0.49,1.288.345,2.193,1.315l-5.264.438Zm1.755,6.138,0.439-.877,0.877,0.877h-1.316Zm-1.316-5.261c1.843,0.7,2.444.808,4.387,0q-0.44,1.314-.878,2.63c-1.671-1.354-1.186-1.221-3.509-1.315V52.191Zm1.316,3.946a4.541,4.541,0,0,1-2.194,1.753l-2.193-1.753c1.5,0.475.831,0.436,2.193,0.438C769.964,57.836,769.924,56.63,771.464,56.137Zm-3.51,2.192-1.316.877,0.439-.877h0.877ZM766.2,54.383h1.754l-0.877.877Zm-1.317.877-0.877-.877A1.664,1.664,0,0,1,764.883,55.26Zm-0.438-3.507q0.657,1.1,1.316,2.192C764.289,52.775,764.669,53.236,764.445,51.752ZM762.69,50l2.632,1.315h-4.387A6.622,6.622,0,0,1,762.69,50Zm-1.316,4.384h-0.439V52.191Q761.154,53.287,761.374,54.383Zm2.193,3.946-3.948.438V58.329c1.64-.647.924,0.319,1.755-0.877A3.923,3.923,0,0,0,763.567,58.329ZM758.742,50h1.316c-0.858.894-.154,0.477-1.755,0.876Zm-2.633,0h1.316C756.345,50.75,757.319,50.518,756.109,50Zm2.194,3.507-0.878,1.315h-1.316l-1.316-.876a1.674,1.674,0,0,0,.878-0.877h0.438C757.212,54.233,756.574,53.6,758.3,53.506Zm-6.142,3.507h2.632c-0.724,1.125-.821.685-2.193,1.316Q752.381,57.671,752.161,57.013Zm2.194,5.261,1.316-1.753h0.877l-0.877.438A3.207,3.207,0,0,1,754.355,62.274Zm2.632-.438V60.521c0.885,0.791.325-.01,0.877,1.315h-0.877Zm-1.755-3.507c1.131-.568,1.259-0.264,2.193-0.877,0.361,1.078.163,0.374-.438,1.315ZM752.161,55.7l0.439,0.877h-0.878ZM751.284,70.6l-0.878-.877A1.671,1.671,0,0,1,751.284,70.6ZM748.651,55.26h1.316l-1.754.877Zm-1.316,7.452,0.439-.876C747.822,62.721,748.238,62.33,747.335,62.712Zm1.316-1.753c-1.309-.567-0.526.019-1.316-0.877ZM746.9,64.9V64.028C747.3,64.808,747.325,64.139,746.9,64.9ZM745.58,55.26h2.194l-1.755.877ZM741.632,61.4V60.521C742.032,61.3,742.061,60.633,741.632,61.4Zm-0.439-4.384,0.439,0.439-0.877.877Zm-3.509,0h2.632c-0.881.9-.434,0.624-2.193,0.877Zm-0.439,64.444,0.878,0.876A1.671,1.671,0,0,1,737.245,121.457Zm-1.755-3.508,1.755,0.439C736.023,118.75,736.493,118.618,735.49,117.949Zm0-.438v-0.877C735.891,117.414,735.919,116.746,735.49,117.511ZM732.419,57.89V57.452l1.317-.439C733.4,57.546,733.973,57.592,732.419,57.89Zm0,66.635v-0.876C732.82,124.428,732.848,123.76,732.419,124.525Zm0-8.768h0.439q-0.219.658-.439,1.315v-1.315Zm0.878,4.384,3.509,1.754C734.843,121.553,734.247,121.455,733.3,120.141Zm-1.316,40.771,5.7,0.437C736.126,162.151,733,162.018,731.981,160.912Zm-0.878-46.47c0.9,0.881.624,0.434,0.878,2.192h-0.439Q731.323,115.538,731.1,114.442Zm-0.877,7.453q0.219-.438.439-0.877L731.1,121.9h-0.877Zm-3.071-2.63q1.536,0.217,3.071.438l-6.142.438Zm1.755-55.237,0.438,0.877h-0.877Zm-1.316,42.523,0.438-.877,0.439,0.877h-0.877Zm-4.387,7.891,2.632,0.438C724.456,115.385,724.237,115.233,723.207,114.442Zm2.632-1.754,0.877,0.878A1.673,1.673,0,0,1,725.839,112.688Zm-3.51,14.029q0.219-.438.439-0.877C723,126.794,723.115,126.131,722.329,126.717Zm-0.439,54.361h3.071C726.386,182.822,722.393,181.363,721.89,181.078Zm-7.9-64.006h0.439l-0.878.877Q713.774,117.511,713.994,117.072ZM711.8,141.184l0.878,0.877A1.673,1.673,0,0,1,711.8,141.184Zm10.529,43.4c1.31,0.568.526-.018,1.316,0.877Zm2.194,0.877v-0.877C724.923,185.365,724.951,184.7,724.523,185.461Zm0.877,12.275q-0.219-.438-0.439-0.876C725.752,197.44,725.214,197.329,725.4,197.736Zm2.194-68.389-0.878-.876A1.675,1.675,0,0,1,727.594,129.347Zm2.193-5.7h0.439l-0.878.876C729.5,124.233,729.641,123.94,729.787,123.649Zm-0.877,61.374,0.877-.439C730.735,184.838,728.91,185.023,728.91,185.023ZM731.1,191.6h-0.877q0.219-.438.439-0.876Zm-0.438-67.511c0.894,0.857.477,0.153,0.877,1.753h-0.877v-1.753Zm0.438,74.088V197.3C731.5,198.078,731.532,197.409,731.1,198.175Zm1.755-24.55h4.387C735.937,174.57,734.1,174.967,732.858,173.625Zm3.948,15.343,1.755,0.439h-2.632Zm-0.877,2.63h-1.316q0.219-.438.439-0.876Zm6.142-1.753h-2.194q0.221-.438.439-0.877C741.906,189.391,741.209,188.939,742.071,189.845Zm19.247-11.667q-0.1.536-.193,1.072c0,0.034.013,0.067,0.018,0.1,0.073-.389.138-0.781,0.2-1.173l4.449-.094q-0.176,1.1-.377,2.2c-0.334,1.8-.973,3.532-2.709,4.418-2.22,1.134-4.708.123-6.872-.606q-3.849-1.3-7.7-2.591c-2.28-.767-5.051-1.458-6.956-2.9Zm-3.454,5.091c1.136-.5.757-0.687,0.878-0.876-0.293.145-.585,0.292-0.878,0.438v0.438Zm9.652,2.192-0.878-.877A1.673,1.673,0,0,1,767.516,185.461Zm0.438,3.069,0.439,0.877h-0.877Zm1.755,2.631-3.071.437v-0.437l1.316-.439Zm-0.439-2.631q1.317,0.219,2.633.438l-3.071.439Zm3.949-13.152c-1.243.432-.211,0.713-1.316,0h1.316Zm-3.071-1.753h3.509l-2.632.876Zm1.755-28.934h1.316C772.167,145.2,772.643,145.778,771.9,144.691Zm-1.755,4.823h0.877l-1.316.876Zm2.632-3.069-1.755.876,0.439-.876h1.316Zm-0.439,1.753,2.194,1.754-2.632-.877Zm3.071,41.209q-0.438-.438-0.877-0.877A1.668,1.668,0,0,1,775.412,189.407Zm0,2.191v-0.437l0.878-.439C776.169,190.911,776.548,191.1,775.412,191.6Zm-0.877-43.4q0.878,0.219,1.755.438C775.4,148.764,775.529,148.731,774.535,148.2Zm2.632-35.948c-1.262.858-.393,0.529-1.755-0.438Zm0,32.879q0.44-.876.877-1.753C778.427,144.224,778.013,144.351,777.167,145.129ZM779.8,98.222l1.316,1.315h-2.193l-0.878-.877C779.739,98.539,778.573,99.032,779.8,98.222Zm0.439,71.895c0.048,0.886.465,0.5-.439,0.878Q780.02,170.556,780.238,170.117Zm-0.877,3.069,0.877,0.877A1.664,1.664,0,0,1,779.361,173.186Zm1.754-44.715v-0.877C781.516,128.374,781.544,127.706,781.115,128.471Zm0.878,30.687v-0.877C782.393,159.061,782.421,158.393,781.993,159.158Zm-0.878,13.151v-0.438c0.439-.145.878-0.292,1.316-0.438C782.18,172.164,782.686,172.125,781.115,172.309Zm1.316,19.289-0.877-.876A1.666,1.666,0,0,1,782.431,191.6Zm-0.438-10.52c0.292-.147.585-0.292,0.877-0.44-0.121.189,0.259,0.378-.877,0.877v-0.437Zm0.877-32.88c0.791,0.581.253,0.47,0.439,0.877Q783.09,148.637,782.87,148.2Zm4.387,35.51c0.293,0.292.585,0.585,0.878,0.876A1.668,1.668,0,0,1,787.257,183.708Zm3.949-35.51-1.317,1.316q0.22-.659.439-1.316h0.878Zm0.877-54.8-0.439-.877C792.435,93.1,791.9,92.992,792.083,93.4Zm0.439,87.238,0.877-.437C794.347,180.455,792.522,180.638,792.522,180.638Zm0.877,3.946-0.877-.876A1.669,1.669,0,0,1,793.4,184.584Zm0-11.4,0.439,0.877H792.96Q793.18,173.625,793.4,173.186Zm0.878-35.071c0.048,0.886.464,0.5-.439,0.877Zm0.877,36.825q0.438,0.438.877,0.877A1.671,1.671,0,0,1,795.154,174.94Zm-0.877,13.152h1.316C794.512,188.843,795.486,188.61,794.277,188.092Zm4.825-92.5,0.439-.877C799.768,95.668,799.889,95.005,799.1,95.591Zm1.316,40.332-0.877.877q0.219-.438.439-0.877h0.438Z" transform="translate(-698.25 -49.094)"/>
</svg>
