<svg xmlns="http://www.w3.org/2000/svg" width="17" height="16.032" viewBox="0 0 17 16.032">
  <defs>
    <style>
      .cls-1 {
        fill: #bec5cb;
        fill-rule: evenodd;
      }
    </style>
  </defs>
  <path class="cls-1" d="M194.151,623.775h-15.32a0.827,0.827,0,0,0-.836.817v9.61a0.827,0.827,0,0,0,.836.818h4v4.792l4.635-4.792h6.685a0.827,0.827,0,0,0,.836-0.818v-9.61A0.827,0.827,0,0,0,194.151,623.775Z" transform="translate(-178 -623.781)"/>
</svg>
