<svg xmlns="http://www.w3.org/2000/svg" width="120" height="150" viewBox="0 0 120 150">
  <defs>
    <style>
      .cls-1 {
        fill: #F3AF0B;
        fill-rule: evenodd;
      }
    </style>
  </defs>
  <path class="cls-1" d="M810.653,405.826c2.294,0.034,2.93.086,3.948,1.315Zm0.877,69.69h-1.316v-0.438l0.439-.876ZM808.46,391.8h1.754c-0.865.7-.6,0.595-2.193,0.877Zm-0.878,14.465-0.438-.877C807.934,405.969,807.4,405.858,807.582,406.265Zm-1.316,0q-0.657-.44-1.316-0.877C806.26,405.955,805.477,405.369,806.266,406.265Zm-2.632-8.766,2.194,0.438C804.485,398.366,804.6,398.44,803.634,397.5ZM791.352,474.64a3.056,3.056,0,0,0,.439-1.753h1.754C792.727,474.4,793.189,474.073,791.352,474.64Zm4.387-6.574h1.754c-0.147,2.639-.339,3.042-2.193,3.944l-0.877.877-0.878-.877C795.152,470.5,795.181,470.236,795.739,468.066Zm8.773-57.857-0.878.439q-0.438-.659-0.877-1.315Zm-57.9,68.814,1.754,0.438C746.669,479.339,747.834,479.832,746.609,479.023ZM735.2,466.312l-1.316-.877C735.2,466,734.414,465.417,735.2,466.312ZM791.07,404.8l12.126,1.462C799.853,407.542,794.147,406.215,791.07,404.8Zm2.912,3.757c4.068,8.344,4.4,18.675-.3,26.858a25.6,25.6,0,0,1-6.085,7.056,53.1,53.1,0,0,1-9.512,7.935c2.066,1.492,4.091,3.029,6.03,4.651,6.072,5.079,7.964,11.9,6.4,19.557-0.13.636-.279,1.271-0.437,1.9a7.05,7.05,0,0,0,6.092-3.2q0.219,0.438.439,0.877c2.032,0.441,8.88.356,11.4,0.438v0.438c-2.9,2.224-5.967,2.673-9.016,2.921,0.071-.083.149-0.177,0.243-0.291H798.37a3.829,3.829,0,0,1-.489.378,25.709,25.709,0,0,0-6.09.937c-0.073-1.741-.158-1.544-2.03-1.382l0.028,0c-0.088.316-.181,0.63-0.276,0.945h0.962a3.461,3.461,0,0,1-1.133.559c-0.125.4-.257,0.8-0.393,1.2h1.087v0.438q-1.1.219-2.193,0.438l0.862-.172c-0.181.505-.373,1.008-0.571,1.508a9.73,9.73,0,0,1-5.117-.459c1.09,1.909,1.909,1.326,3.948,2.191v0.438c-1.594.283-1.327,0.177-2.193,0.877,0.7,0,1.377-.007,2.043-0.007-0.33.7-.67,1.4-1.03,2.088-1.044,2.49-2.3,4.908-3.5,7.253-2.793,5.481-6.006,11.058-10.832,15.015a27.809,27.809,0,0,1-18.04,6.158,20.552,20.552,0,0,1-4.1.8,25.407,25.407,0,0,1-9.87-1.531c-11.932-3.9-23.446-11.308-28.628-23.17a31.962,31.962,0,0,1-2.5-8.973c-0.062-.5-0.117-1.019-0.158-1.537a11.119,11.119,0,0,0-4.98-.916l-0.438-1.753,2.193-.877h1.316l0.877,0.877h-1.754c0.288,0.767,1.345,1.429,2.739,1.932-0.112-2.433.232-4.878,2.156-6.595,2.25-2.009,6.083-3.146,8.949-3.924a18.379,18.379,0,0,1,7.517-.566,3.454,3.454,0,0,1,4.468,1.38q2.253,4.7,4.877,9.2v1.2l0.439-.44q2.835,4.8,6.087,9.326c7.284-.348,13.046-8.02,15.582-14.575,1.537-3.973,5.359-11.891-.271-14.1a13.249,13.249,0,0,0-7.409-.193c-3.5.691-6.915,1.622-10.5,1.742a3.435,3.435,0,0,1-3.03-1.736,42.824,42.824,0,0,1-4.2-17.724c-0.036-2.07,1.648-3.3,3.509-3.506,10.549-1.192,21.627-5.32,29.823-12.193a22.916,22.916,0,0,0,2.854-2.8,10.587,10.587,0,0,0,.707-3.886c-0.22-3.211-3.643-4.512-6.408-4.768a41.85,41.85,0,0,0-11.764,1.091,33.908,33.908,0,0,0-9.7,3.287c-2.873,1.578-5.6,5.349-9.212,4.6-4.15-.865-5.066-6.044-6.3-9.416-1.054-2.885-3.382-6.94-2.6-10.2a6.543,6.543,0,0,0,.99-0.337l-0.867-.091a4.809,4.809,0,0,1,.244-0.6,5.241,5.241,0,0,1,1.315-1.687,9.87,9.87,0,0,1,.826-1.211c3.136-3.931,8.412-6.261,13.125-8.133,0.212,0.1.445,0.2,0.71,0.325,1.263-1.038.983-.606,2.632,0l0.877-1.754-0.32-.042c9.277-3.19,19.508-4.1,28.991-1.316q0.6,0.175,1.186.371c-5.085-.168-10.236-0.31-16.7-0.328v1.315l-3.948-.438v0.438c2.276,0.584,2.181,1.155,5.264,1.315,1.547-1.922,1.294-.8,3.509,0q0.44-.878.877-1.753a46.9,46.9,0,0,0,17,1.979,34.274,34.274,0,0,1,12.425,10.676l-0.758-.091c0.3,0.137.628,0.271,0.972,0.406A27.811,27.811,0,0,1,793.982,408.56Zm-76.594,73.657a7.1,7.1,0,0,0-1.047.751q0.878,0.217,1.755.438h0q-0.878-.219-1.755-0.438A7.1,7.1,0,0,1,717.388,482.217Zm7.176,17.114c0.1,0.087.19,0.175,0.287,0.261l0.021-.051C724.767,499.475,724.665,499.405,724.564,499.331Zm3.182-1.023c0.79,0.895.007,0.309,1.316,0.877C728.273,498.289,729.056,498.875,727.746,498.308Zm6.58-17.532-1.754.438v0.439C734.5,481.3,734.6,481.656,734.326,480.776Zm9.3-68.017c-0.022-.017-0.045-0.033-0.067-0.051-0.2.057-.393,0.113-0.589,0.171-0.086.073-.172,0.144-0.259,0.213Q743.169,412.92,743.628,412.759Zm-18.075-6.933h0l4.387,0.439a2.527,2.527,0,0,1-2.019.675,2.527,2.527,0,0,0,2.019-.675Zm5.264-1.314c0.912,0.957,1.168.822,3.509,0.876C733.072,404.427,732.728,404.645,730.817,404.512Zm0.877,2.19c1.178,1.408,1.715,1.434,3.071.439C733.424,407.178,733.671,407,731.694,406.7Zm3.071-2.19a11.478,11.478,0,0,0,9.65.876Zm10.607-2.695a2.909,2.909,0,0,1,.364-0.266l-0.417.106c-0.018.033-.037,0.066-0.057,0.1C745.3,401.775,745.337,401.8,745.372,401.817Zm1.237-9.14-1.316.438v0.439C746.6,393.376,748.147,392.311,746.609,392.677Zm5.7,0.438L751,392.677l-2.193.877h3.509v-0.439Zm-4.386,12.273a1.669,1.669,0,0,1-.878.877l1.316,0.876c3.978-1.141,11.623,3.517,16.669,1.315A89.34,89.34,0,0,1,747.925,405.388Zm19.3,1.753c-0.147.293-.293,0.584-0.439,0.877l2.632-.439Q768.323,407.362,767.226,407.141Zm1.316,1.754q-0.878.219-1.755,0.438v0.438h2.632Q768.981,409.332,768.542,408.9Zm14.325,28.469a24.566,24.566,0,0,0,1.8-2.337,17.452,17.452,0,0,0,1.51-2.726q-1.986,2.852-4.048,5.648C782.38,437.758,782.625,437.562,782.867,437.364Zm4.537-25.4q-0.438-.659-0.877-1.315-0.221.655-.439,1.315H787.4Zm-1.316-4.822-0.877-.876A1.666,1.666,0,0,0,786.088,407.141Zm-0.445,9.623,0,0.051,0.02,0Zm-3.5,10.1h-1.755C781.612,427.818,780.907,427.866,782.14,426.865Zm1.755-16.217c-0.795-1.38-.631-1.131-2.194-1.753A4.646,4.646,0,0,0,783.9,410.648ZM781.7,463.683q1.1,0.438,2.194.876C783.007,463.648,783.456,463.961,781.7,463.683Zm-1.316,7.012a3.248,3.248,0,0,0,1.755,1.753Zm9.22,6.958c-0.263.021-.551,0.042-0.885,0.055C789.056,477.7,789.342,477.675,789.605,477.653Zm-1.324-1.7h0Zm0.34-3.967,0.1,0.022h0.439c0.018-.165.036-0.329,0.055-0.494a1.737,1.737,0,0,1-.593.472l-3.849-.855q-0.219.44-.439,0.877l1.316,1.753C787.136,471.756,787.835,472.345,788.621,471.988Zm-2.972,7.035q-0.438-.438-0.877-0.877h0Q785.212,478.584,785.649,479.023Zm-0.877,1.315-4.825-.877A4.954,4.954,0,0,0,784.772,480.338Zm-5.7,1.315,1.316,0.876C779.6,481.634,780.379,482.22,779.069,481.653Zm3.948,6.136,1.755,0.438c-0.34.077-.551,0.144-0.7,0.187,0.149-.043.36-0.11,0.7-0.187l-1.755-.438h0Zm-1.754.438q-0.219-.439-0.439-0.876l-0.439.876h0.878Zm0.438-2.192q1.317-.436,2.632-0.876l-1.316-.439-3.07.877Zm-4.386-2.629q0.219,0.438.439,0.876l1.754-.876h-2.193Zm-2.193,1.314L776,485.6q1.1-.217,2.193-0.438l-2.632-.877Zm0.438-5.259c-0.79-.9-0.006-0.31-1.316-0.877ZM776,497.431h3.07v-0.876h-1.315l-1.755.438v0.438Zm2.193-4.821v-0.438h-3.07C776.41,493.074,776.192,492.807,778.192,492.61Zm-2.788-1.567c-0.075-.073-0.153-0.144-0.225-0.219q-0.333.724-.681,1.438Q774.959,491.66,775.4,491.043Zm-1.6-9.39h0.877c-0.553-1.325.008-.525-0.877-1.315v1.315Zm-0.439,0q-0.219-.44-0.439-0.877l-0.438.877h0.877ZM772.49,479.9q-0.221-.438-0.439-0.876l-0.439.876h0.878Zm-23.249,11.4v1.314l0.877-1.314h-0.877Zm2.6,17.554c-0.173-.054-0.348-0.106-0.523-0.155-0.006.073-.014,0.146-0.025,0.218,0.272,0.037.545,0.068,0.819,0.095Zm0.907-9.227c1.425,0.707.9,0.913,2.193,0H752.75Zm5.264,0a11.06,11.06,0,0,0,7.9,0h-7.9Zm6.58-3.945v0.877C765.022,495.79,764.994,496.458,764.594,495.678Zm0-14.9c0.789,0.895.006,0.31,1.316,0.877Zm0.877,10.958c1.11,1.188,1.964,1.119,3.071,0h-3.071Zm2.193-14.465-0.438.877c1.6-.4.9,0.017,1.754-0.877h-1.316Zm1.316-1.314c2.686,0.156,4.514.377,5.264,0.876,0.02,0.918.144,0.088-.438,0.877,3.867-.8,6.961.741,10.527,0.438l-6.579-2.191v-0.439l2.193-1.314v-0.439l-5.264-.438,0.439,0.877c-2.829-.1-3.174.7-6.142,1.314v0.439Zm0.439-49.09a2.444,2.444,0,0,0,3.071.438Zm2.193-18.409c-0.79-.9-0.006-0.31-1.316-0.877Zm1.316-5.259-3.07-.439c0.956,1.268.907,1.147,3.07,1.315V403.2Zm0.439,0c1.039,0.737.87,0.834,2.193,0.438Q774.464,403.416,773.367,403.2Zm2.632,0q0.219,0.438.439,0.876C776.252,403.666,776.789,403.777,776,403.2Zm-3.071,4.821,8.335,1.315C779.524,407.941,776.176,407.9,772.928,408.018ZM781.7,406.7l-0.877-.876A1.666,1.666,0,0,0,781.7,406.7Zm-3.947-3.5q-0.221.438-.439,0.876c3.441,0.164,11.1,2.261,12.972.634Zm20.616,76.264-7.895,1.315c1.863-1.439,5.4-1.362,7.406-2.69,0.374-.028.749-0.056,1.124-0.087C798.325,478.8,798.575,478.384,798.37,479.461Zm4.387-81.086-0.877-.876A1.669,1.669,0,0,1,802.757,398.375Zm0-5.7-1.316-.877C802.75,392.367,801.967,391.782,802.757,392.677Zm-3.509-.877q0.657,0.44,1.316.877l-2.194-.438Zm-8.335,5.7,0.878,0.876A1.671,1.671,0,0,1,790.913,397.5ZM744.661,522.515c-1.132-.367-1.506.012-2.632-0.876C743.794,521.836,743.738,521.776,744.661,522.515ZM722.482,389.171v-0.439c1.063-1.128,1.064-.246,1.755-1.314l3.509,1.753C724.366,388.992,725.377,388.862,722.482,389.171Zm-5.7-.877h2.632C718.183,389.2,717.972,389.484,716.78,388.294Zm3.07,63.993,0.878,0.876A1.671,1.671,0,0,1,719.85,452.287Zm4.826-46.461c-2.53,1.109-6.557.643-8.335-.876Zm-5.019,115.813h1.316v0.876h-3.509ZM713.709,404.95h0.877q0.22,0.438.439,0.876l-2.193-.438Zm-1.316,2.629-0.877-.877A1.675,1.675,0,0,1,712.393,407.579Zm-7.018,31.559q-0.219-.439-0.439-0.878C705.726,438.842,705.189,438.731,705.375,439.138Zm79.836,57.417q-0.878.438-1.755,0.876l0.439-.876h1.316Zm0.438-4.821,1.755,0.438C786.182,492.534,786.652,492.4,785.649,491.734Zm4.387,0.438-2.193.438,0.438-.876Zm-1.316,10.519h-0.877l0.438-.877Zm3.509-14.464q0.219-.439.439-0.876C792.716,488.236,793.132,487.845,792.229,488.227Zm6.58-9.643h2.632C800,479.227,799.513,479.341,798.809,478.584Zm3.509,7.013-2.632,1.754,1.755-1.754h0.877Zm-2.193,3.507v-0.439c0.293-.145.585-0.292,0.877-0.438C800.978,489.068,801.328,488.8,800.125,489.1Zm0.877,2.63V491.3l0.878-.439C801.759,491.046,802.138,491.234,801,491.734Zm4.387-12.711h-0.877l0.438-.877Q805.171,478.584,805.389,479.023Zm3.948-81.086-0.877.876,0.438-.876h0.439Zm0,84.592-1.755.877a3.206,3.206,0,0,1-1.316-1.315h3.071v0.438Zm-0.439,8.328q0.22-.438.439-0.877C809.138,490.466,809.713,490.311,808.9,490.857Zm1.755-13.588-0.877-.876h0.438Zm0,3.507,1.316-1.753,2.193,0.438C813.223,480.518,812.572,480.622,810.653,480.776Zm1.755-2.192,0.438-.876h0.439Zm0.877-3.506V474.2C813.685,474.982,813.713,474.313,813.285,475.078Zm0.877,7.451c-2.281-.476-3.591.708-4.825-1.753C810.415,481.365,813.233,481.677,814.162,482.529Z" transform="translate(-698.672 -379.968)"/>
</svg>
