<?xml version="1.0" encoding="utf-8"?>
<!-- Generator: Adobe Illustrator 19.2.1, SVG Export Plug-In . SVG Version: 6.00 Build 0)  -->
<svg version="1.1" id="Layer_1" xmlns="http://www.w3.org/2000/svg" xmlns:xlink="http://www.w3.org/1999/xlink" x="0px" y="0px"
	 viewBox="0 0 80 60" style="enable-background:new 0 0 80 60;" xml:space="preserve">
<style type="text/css">
	.st0{fill:#D8C7AE;}
</style>
<g>
	<g>
		<path class="st0" d="M58.6,33.5c-1.2,0.1-0.5-0.3-1.2,0.5c1.1-0.1,2.2-0.2,3.3-0.2c-1.5-0.1-1.5-0.2-2.4-0.7
			C58.4,33.2,58.5,33.3,58.6,33.5z M57.2,7.1v0.5C57.4,7.2,57.4,7.5,57.2,7.1z M59.8,22.6c-0.1,0.2-0.2,0.3-0.2,0.5
			C60,22.8,59.8,23,59.8,22.6z M40.6,51.1c0.2,0.2,0.3,0.3,0.5,0.5C40.8,51.1,41.1,51.4,40.6,51.1z M46.1,10.9
			c-0.5-0.4-0.6-0.4-1.7-0.5C44.9,11,45,10.9,46.1,10.9z M48.7,6.2H48C48.4,6.8,48.1,6.5,48.7,6.2z M41.8,6.9h-0.5
			c0.1,0.2,0.2,0.3,0.2,0.5C41.6,7.2,41.7,7,41.8,6.9z M63.1,26.1h-0.5c-0.1,0.2-0.2,0.5-0.2,0.7C62.9,26.5,62.8,26.6,63.1,26.1z
			 M63.8,35.1c-0.2-0.2-0.5-0.3-0.7-0.5C63.5,35.2,63.1,34.8,63.8,35.1z M58.4,29.7h-0.2C58,29.8,58,30,57.9,30.2L58.4,29.7z
			 M64.3,17.3c-0.1,0.2-0.2,0.3-0.2,0.5h0.7C64.6,17.7,64.4,17.5,64.3,17.3z M63.6,28.7c-0.6-0.4-1-0.5-2.1-0.5
			c0.4,0.3,0.8,0.6,1.2,1C62.8,28.6,62.5,28.9,63.6,28.7z M42.7,7.4c-0.2-0.1-0.5-0.2-0.7-0.2c0.2,0.3,0.3,0.6,0.5,1
			C42.6,7.8,42.7,7.6,42.7,7.4z M42.3,10.4c0.6-0.3,0.4-0.4,0.5-0.5c-0.2,0.1-0.3,0.2-0.5,0.2V10.4z M47.2,10.7
			c-0.3-0.1-0.6-0.2-0.9-0.2C46.8,10.9,46.5,10.8,47.2,10.7z M44.4,7.4c-0.3-0.1-0.6-0.2-0.9-0.2C44,7.6,43.7,7.5,44.4,7.4z
			 M43.7,13.3c-0.2-0.2-0.5-0.3-0.7-0.5C43.4,13.3,43,13,43.7,13.3z M47.7,10.4c-0.1,0.2-0.2,0.3-0.2,0.5
			C47.9,10.6,47.8,11,47.7,10.4z M30,54.6c-0.2-0.2-0.3-0.3-0.5-0.5C29.8,54.6,29.5,54.3,30,54.6z M29.5,38.5
			c-0.2-0.2-0.5-0.3-0.7-0.5C29.2,38.5,28.8,38.2,29.5,38.5z M28.3,43c0,0,1-0.1,0.5-0.2C28.6,42.8,28.5,42.9,28.3,43z M26.7,38.7
			c0.3-0.2,0.6-0.3,0.9-0.5h-0.7C26.8,38.4,26.7,38.6,26.7,38.7z M31.2,54.1c0.1-0.2,0.2-0.5,0.2-0.7h-0.7
			C30.8,53.7,31,53.9,31.2,54.1z M38,9.3c-0.1,0.2-0.2,0.3-0.2,0.5l0.5-0.5H38z M33.3,50.8c0.1,0.2,0.2,0.3,0.2,0.5
			C33.4,51.1,33.7,51.1,33.3,50.8z M26,21.8c-0.2-0.2-0.5-0.3-0.7-0.5C25.7,21.9,25.3,21.5,26,21.8z M22.9,9
			c-0.1,0.2-0.2,0.3-0.2,0.5h0.5C23,9.3,23,9.2,22.9,9z M23.8,9.5c-0.2-0.2-0.3-0.3-0.5-0.5C23.7,9.5,23.4,9.2,23.8,9.5z M25,53.2
			c-0.1,0.2-0.2,0.5-0.2,0.7c0.5,0.2,0.9,0.3,1.4,0.5C26.1,54,26,53.6,26,53.2C25.1,53.5,25.8,53.7,25,53.2z M22.9,10.9
			c-0.4-0.5,0-0.2-0.7-0.5C22.6,10.9,22.2,10.6,22.9,10.9z M21.2,12.6c0.2,0.2,0.5,0.3,0.7,0.5C21.5,12.6,21.9,12.9,21.2,12.6z
			 M59.8,50.3c0.1,0.2,0.2,0.3,0.2,0.5C59.9,50.6,60.2,50.7,59.8,50.3z M63.6,38.5c-0.5-0.4-0.3-0.3-1.2-0.5
			C62.8,38.2,63.2,38.3,63.6,38.5z M46.8,41.8c-0.1-0.3-0.2-0.6-0.2-1v1H46.8z M45.1,35.1c-0.2-0.2-0.3-0.3-0.5-0.5
			C45,35.1,44.7,34.8,45.1,35.1z M42.3,42.7c-0.1,0.2-0.2,0.3-0.2,0.5C42.4,42.8,42.4,43.3,42.3,42.7z M46.1,38.5
			c0.4,0.5,0,0.2,0.7,0.5C46.5,38.8,46.3,38.6,46.1,38.5z M43.9,39.9c-0.1-0.2-0.2-0.3-0.2-0.5c-0.1,0.2-0.2,0.3-0.2,0.5H43.9z
			 M40.4,10.7c-0.1,0.2-0.2,0.3-0.2,0.5c0.6-0.2,1.1-0.3,1.7-0.5H40.4z M36.4,27.8h0.2c-0.1-0.3-0.2-0.6-0.2-1V27.8z M36.6,11.4
			c0.2,0.2,0.3,0.3,0.5,0.5C36.7,11.4,37,11.7,36.6,11.4z M36.4,11.4h-0.5c0.1,0.2,0.2,0.3,0.2,0.5C36.2,11.7,36.3,11.6,36.4,11.4z
			 M34.5,8.5V9C34.7,8.6,34.7,9,34.5,8.5z M35.2,11.6v-0.2H34C34.6,11.9,34.1,11.6,35.2,11.6z M34.2,42.3c-0.2,0.2-0.3,0.5-0.5,0.7
			C34.6,42.7,34.2,42.9,34.2,42.3z M32.8,54.1c0.3,0.7,0.1,0.5,0.7,1C33.1,54.4,33.7,54.6,32.8,54.1z M54.8,5.9
			c-0.1,0.2-0.2,0.3-0.2,0.5c0.3-0.2,0.6-0.3,0.9-0.5H54.8z M56.2,22.8c-0.3-0.1-0.6-0.2-0.9-0.2v0.7C55.6,23.1,55.9,23,56.2,22.8z
			 M40.9,7.1C40.8,7,40.7,7,40.6,6.9c-0.1,0.3-0.2,0.6-0.2,0.9h0.2C40.7,7.6,40.8,7.4,40.9,7.1z M28.8,10h-0.2
			c-0.2,0.1-0.3,0.2-0.5,0.2C28.8,10.5,28.3,10.4,28.8,10z M28.6,7.8C28.8,8,29,8.2,29.3,8.3C28.8,7.8,29.3,8.1,28.6,7.8z M29.7,2.6
			v0.5C30,2.7,30,3,29.7,2.6z M29,21.8h0.5c-0.1-0.2-0.2-0.3-0.2-0.5C29.2,21.5,29.1,21.7,29,21.8z M29.3,10.7
			c0.1-0.2,0.2-0.3,0.2-0.5H29C29.1,10.4,29.2,10.5,29.3,10.7z M32.3,10h-1.7C31.3,10.7,31.9,10.4,32.3,10z M30.5,10.4h-0.7
			C30.1,11,29.9,10.7,30.5,10.4z M30.2,7.8c0.1,0.2,0.2,0.3,0.2,0.5C30.3,8.1,30.6,8.1,30.2,7.8z M29.5,7.8C29.7,8,29.8,8.2,30,8.3
			C29.6,7.9,30,8.2,29.5,7.8z M32.3,53.4c0.6,0.4,0,0.2,0.7,0H32.3z M19.1,52.5v1h0.2c0.1-0.2,0.2-0.3,0.2-0.5
			c0.7-0.4,0.3-0.2,0.5-0.7C19.7,52.3,19.4,52.4,19.1,52.5z M21.2,52c0.1,0.2,0.2,0.5,0.2,0.7c0.3-0.2,0.6-0.3,0.9-0.5
			C22,52.2,21.6,52.1,21.2,52z M24.3,54.9h-1.2C23.9,55.2,23.5,55.3,24.3,54.9z M22.4,53.4c0.2,0.2,0.5,0.3,0.7,0.5
			C22.7,53.4,23.1,53.7,22.4,53.4z M47.5,56.8c0.2-0.2,0.5-0.3,0.7-0.5c-0.6,0.1-1.1,0.2-1.7,0.2L47.5,56.8z M19.6,51.8l0.5-0.5
			h-0.2C19.7,51.5,19.6,51.6,19.6,51.8z M12.9,52.7c-0.4-0.1-0.8-0.2-1.2-0.2C12.3,53,12.2,53,12.9,52.7z M11.8,16.1
			c-0.6,0.8-0.4,0.1-0.2,0.9v0.2L11.8,16.1z M26.4,2.4c0.1,0.2,0.2,0.3,0.2,0.5C26.6,2.6,26.9,2.7,26.4,2.4z M14.4,53.2l0.5-0.5
			h-0.2C14.5,52.9,14.4,53,14.4,53.2z M14.1,49.9c0.9-0.2,0.7-0.1,1.2-0.5h-0.9C14.3,49.6,14.2,49.7,14.1,49.9z M18.6,16.9
			c-0.3-0.2-0.6-0.5-0.9-0.7C18,16.6,18.1,16.6,18.6,16.9z M18.2,9.3c0.2,0.2,0.3,0.3,0.5,0.5C18.3,9.3,18.6,9.6,18.2,9.3z
			 M17.9,54.4c0.5-0.2,0.3,0,0.2-0.5C18.1,54.1,18,54.2,17.9,54.4z M17.2,22.6c0.6,0.4,0,0.2,0.7,0H17.2z M51.1,28.5
			c-0.3,0.4-0.5,0.8-0.8,1.2c-0.2,0.2-0.3,0.5-0.4,0.8c-0.3,0.6-0.5,1.2-0.7,1.9c-0.3,0.8-0.5,1.7-0.7,2.5c0.5-0.1,1-0.1,1.4-0.2
			c1.8,0,3.7,0.1,5.5,0.1c0-0.7,0-1.5-0.1-2.3c0.1-0.2,0.3-0.5,0.5-0.7c0.3-0.5,0.5-0.9,0.5-1.4C57.2,27.9,53.1,25.9,51.1,28.5z
			 M50.8,29.7H51l-0.5,0.5C50.6,30,50.7,29.8,50.8,29.7z M51.7,34.4C51,34,51,34,50.3,34c0.5-0.2,0.9-0.5,1.4-0.7V34.4z M53.9,28.5
			h0.2L53.6,29C53.7,28.8,53.8,28.7,53.9,28.5z M53.6,33.5c0.1-0.2,0.2-0.3,0.2-0.5h0.2c0.1,0.2,0.2,0.3,0.2,0.5H53.6z M49.8,35.1
			h-1.3c-0.1,0.3-0.1,0.7-0.1,1.1c-0.2,1.9,0,3.7-0.2,5.6c-0.1,1-0.2,1.7-0.3,2.2c-1,0.1-2,0.2-3.1,0.3c-0.1,0-0.3-0.1-0.5-0.1
			c-3.8-0.5-7.7-0.2-11.6,0c-1.5,0.1-3.5,0.4-5.2,0.4c-0.9-0.1-1.8-0.2-2.7-0.4c0-0.1,0.1-0.2,0.1-0.3c0.5-0.9,0.5-1.8,0.1-2.9
			c0-0.8,0-1.6-0.1-2.3c-0.2,0-0.5,0.1-0.7,0.1c-0.1-0.2-0.2-0.5-0.2-0.7c0.3,0.1,0.6,0.2,0.9,0.3c0-0.6-0.1-1.2-0.1-1.7
			c-0.2,0.1-0.4,0.1-0.4,0.2c-0.7-0.4-0.3,0-0.2-0.7h-1.9c-0.1-0.2-0.2-0.3-0.2-0.5c0.1-0.3,0.2-0.6,0.2-0.9c1,0.2,1.8,0.3,2.4,0.3
			c-0.2-2.2-0.4-4.5-0.4-6.7c-0.1-1.9,0.4-4.5-0.2-6.3c0-0.2,0-0.5,0-0.7c0.1-0.1,0.2-0.3,0.3-0.4c0.2,0,0.4-0.1,0.7-0.1
			c0.4,0.1,0.8,0.1,1.1,0.2c-0.1,0.1-0.2,0.1-0.4,0.2c0.4,0.5,0,0.2,0.7,0.5v-0.6c3.1,0.2,6.8-0.4,9.7-0.7c3-0.3,5-0.9,7.4-2.8
			c0,0,0.1-0.1,0.1-0.1c-0.5,0.2-0.9,0.1-1.3-0.4c0.5,0.1,1,0.1,1.5,0.2c1.8-1.8-0.4-4.5-2.6-4.5c0.1,0.5-1,0.2-1.3,0.3
			c0,0,0-0.1,0.1-0.1c-5.4,0.8-10.8,0.4-16.2,1.2c-2.3,0.3-4.1,1.1-5.2,3.3c-1.7,3.6-1.2,9.5-1.2,13.4c0,2.6,0.1,5.1,0.4,7.7
			c0.2,0,0.4,0.1,0.6,0.1c-0.3-0.1-0.6-0.2-0.9-0.2c0.4,0.3,0.3,0.3,0.4,0.3c0,0,0,0,0,0c0.3,2.8,0.6,5.5,1.1,8.3
			c0.2,0.9,1.1,1.8,2,2c0.1,0,0.3,0.1,0.4,0.1c1.6,1.4,3.9,1.2,6,1c5.4,0.5,11.1,0.2,16.6-0.3c0.6,0,1.2,0,1.9,0
			c1.6,0,2.9-0.2,3.9-0.6c0.4,0,0.9-0.1,1.3-0.1c1.1-0.1,2.5-0.8,2.7-2.1c0.2-1.4,0.4-2.7,0.6-4.1c0.6-2.1,0.8-4.2,0.9-6.3
			c-1.9-0.1-3.8-0.3-5.7-0.4V35.1z M43.9,16.1c0.7,0.3,0.3,0,0.7,0.5h-0.9C43.8,16.5,43.9,16.3,43.9,16.1z M34.2,19.9
			c0.3,0.2,0.6,0.3,0.9,0.5H34C34.1,20.3,34.2,20.1,34.2,19.9z M32.8,20.7c-0.2-0.2-0.3-0.3-0.5-0.5C32.8,20.5,32.5,20.2,32.8,20.7z
			 M25.7,20.2h0.7C25.8,20.4,26.3,20.6,25.7,20.2z M25.7,16.1c0.1,0.2,0.2,0.3,0.2,0.5h-0.5C25.6,16.5,25.6,16.3,25.7,16.1z
			 M23.1,21.6c0.2-0.1,0.3-0.2,0.5-0.2c0.2,0.2,0.3,0.3,0.5,0.5C23.7,21.8,23.4,21.7,23.1,21.6z M23.6,26.4c0.2-0.1,0.3-0.2,0.5-0.2
			c-0.1,0.1,0.1,0.2-0.5,0.5V26.4z M24.5,27.1v0.2c-0.2,0.1-0.3,0.2-0.5,0.2c-0.1-0.2-0.2-0.3-0.2-0.5c0.1-0.1,0.2-0.2,0.2-0.2
			C24.2,26.9,24.4,27,24.5,27.1z M25,16.4c-0.1,0.2-0.2,0.3-0.2,0.5c-0.1-0.2-0.2-0.3-0.2-0.5H25z M25.2,19.2
			c-0.4-0.2-0.8-0.3-1.2-0.5C24.9,18.9,24.8,18.9,25.2,19.2z M22.9,19.2c-0.4-0.3-0.1,0-0.5-0.5C22.6,18.9,22.7,19.1,22.9,19.2z
			 M19.8,29c0.1-0.2,0.2-0.3,0.2-0.5h0.2L19.8,29z M21.2,34c0.1-0.2,0.2-0.3,0.2-0.5c0.1,0.2,0.2,0.3,0.2,0.5H21.2z M21.5,20.4
			c0.4-0.2,0.8-0.3,1.2-0.5h2.1C25.3,20.9,23,20.5,21.5,20.4z M22.4,21.8c-0.2-0.2-0.3-0.3-0.5-0.5C22.4,21.7,22.1,21.4,22.4,21.8z
			 M50.6,37.8c-0.1,0.2-0.2,0.3-0.2,0.5c0.1,0.2,0.2,0.3,0.2,0.5c-0.7-0.6-0.4-0.1-0.5-0.9H50.6z M49.1,36.6
			c-0.1-0.2-0.2-0.3-0.2-0.5h0.5C49.3,36.3,49.2,36.4,49.1,36.6z M37.3,31.5c-1.5-2.1-3-4.1-4.6-6.1c-1-1.3-2.9-0.9-4,0
			c-2.9,2.4-1.4,5.5,0.6,8.2c0.6-0.1,1.2-0.3,1.4-0.6c1,0.1,1.1,0.1,1.7,0.5c-2.1,0.2-0.8,0.7-1.9,1c0.4,0.9,0,0.2,0.7,0.7v0.8
			c0.1,0.1,0.2,0.2,0.3,0.3c0.5,0.2,0.9,0.4,1.4,0.6c-0.2,0-0.6-0.1-1-0.1c0.2,0.3,0.4,0.5,0.6,0.8c3.8,4.9,6.2,3.4,9.5-0.7
			c0-0.1-0.1-0.1-0.2-0.2h0.4c0.1-0.1,0.2-0.2,0.2-0.3c0.7-0.9,1.5-1.8,2.2-2.7c-1.3,0.1-2.7,0.2-4,0.3v-1c1.2-0.3,1,0.3,1.4-0.9
			c0.6,0.2,2,0.5,3.1,0.9c4.5-5.2,9.3-10.5,12.9-16.2c1.9-3,1.7-5.7-0.4-7.3c-0.1,0.2-0.2,0.4-0.3,0.7V9.7c-0.2,0.1-0.3,0.2-0.5,0.2
			V9.3h0.4c-0.8-0.5-1.8-0.8-3-0.9c-0.6-0.1-1.1,0-1.5,0.3c-0.2-0.5,0-0.2-0.4-0.5c0.1,0.2,0.2,0.4,0.4,0.6
			c-0.2,0.1-0.4,0.2-0.5,0.4h0.4c0.1,0.7-0.4,0.4,0.2,0.7c-0.3,0.9-0.2,0.7-0.7,1.2c-0.1-0.3-0.3-0.6-0.4-0.9
			c-0.1,0.3-0.1,0.6-0.1,0.9c-0.1,0.1-0.1,0.2-0.2,0.3c0,0,0,0,0,0v0.7c-0.2,0-0.3,0-0.5,0c-0.2,0.4-0.5,0.7-0.7,1.1
			c0.2,0.1,0.4,0.3,0.7,0.6c-0.3-0.1-0.6-0.2-0.9-0.3C46.1,19.5,41.8,25.6,37.3,31.5z M31.9,35.4v-0.2c0.2-0.1,0.5-0.2,0.7-0.2h0.5
			C32.6,35.3,32.7,35.2,31.9,35.4z M35.7,34.4c0.1,0.2,0.2,0.3,0.2,0.5h0.5v0.2h-0.9C35.5,34.9,35.6,34.7,35.7,34.4z M34.5,35.1
			c0.1-0.2,0.2-0.5,0.2-0.7C34.9,35,34.8,34.6,34.5,35.1z M36.1,37c-0.2,0.1-0.3,0.2-0.5,0.2c-0.2-0.1-0.3-0.2-0.5-0.2
			c0.1-0.2,0.2-0.5,0.2-0.7c0.2,0.2,0.5,0.3,0.7,0.5V37z M36.4,36.6c0.2,0.2,0.3,0.3,0.5,0.5C36.4,36.7,36.7,37,36.4,36.6z M39,36.8
			c0.2-0.1,0.3-0.2,0.5-0.2C39.9,36.7,39,36.8,39,36.8z M42.7,35.6c-0.6,0.7-0.5,0.4-1.2,0H42.7z M54.3,21.8
			c-0.7-0.1-0.2,0.3-0.7-0.2h0.7V21.8z M53.4,13.5c0.1-0.2,0.2-0.3,0.2-0.5C53.7,13.5,53.9,13.3,53.4,13.5z M54.3,15.7v-0.2
			c0.3-0.1,0.6-0.2,0.9-0.2c0.2,0.2,0.3,0.3,0.5,0.5H54.3z M54.6,10c0.3-0.1,0.6-0.2,0.9-0.2c0.3,0.1,0.6,0.2,0.9,0.2
			c-0.6,0.1-1.3,0.2-1.9,0.2V10z M53.9,15.4c0.2-0.2,0.3-0.5,0.5-0.7C54.7,15.3,54.3,15.1,53.9,15.4z M54.3,10.2
			c-0.9-0.2-0.5,0-0.9-0.5C53.7,9.9,54,10.1,54.3,10.2z M53.4,9.5c-0.2-0.2-0.3-0.3-0.5-0.5C53.4,9.4,53.1,9,53.4,9.5z M53.2,16.4
			c-0.7,0.2-0.4,0.3-0.9-0.2C52.5,16.2,52.8,16.3,53.2,16.4z M51.3,23.3c0.1-0.2,0.2-0.3,0.2-0.5C51.4,23.1,51.7,23,51.3,23.3z
			 M51.3,16.1c0.2,0.2,0.3,0.3,0.5,0.5H51C51.1,16.5,51.2,16.3,51.3,16.1z"/>
	</g>
</g>
</svg>
